# 3ds Max Wavefront OBJ Exporter v0.97b - (c)2007 guruware
# File Created: 01.07.2013 22:06:54

#
# object Collumn_A_Top
#

v  -20.3799 -58.3999 -30.4933
v  -0.0114 -58.4016 -30.4881
v  -0.0114 -22.4997 5.3450
v  -21.8347 -22.5809 5.4259
v  -0.0114 62.3482 105.6233
v  -21.1734 62.1802 105.7987
v  -21.1644 18.0520 90.1994
v  -0.0114 18.0980 90.1011
v  -44.6400 -44.0448 -33.7257
v  -44.6714 -11.3360 -1.9627
v  -46.4847 -24.2470 -97.4628
v  -46.4717 -44.0037 -97.6678
v  -46.4844 19.8314 2.9082
v  -46.4908 8.6789 -97.3217
v  -0.0114 15.8420 88.2185
v  -21.1826 15.7630 88.3037
v  -42.9024 -13.0107 -2.3990
v  -42.8802 -47.0444 -32.7342
v  -42.2008 61.5233 98.3405
v  -42.2350 24.8205 86.3621
v  -23.6496 7.3764 -105.4523
v  -23.6409 -30.3887 -105.4558
v  -44.5836 -24.9358 -99.9476
v  -44.5948 7.9319 -99.9421
v  -22.0524 -58.8831 -105.7012
v  -44.6569 -47.2821 -100.1375
v  -22.5365 -59.6975 -34.2682
v  -42.8869 -48.3105 -35.5242
v  -44.6848 -49.3963 -98.3023
v  -24.4933 -60.8992 -103.5121
v  0.0000 -58.9948 -105.7817
v  0.0000 -30.3047 -105.4809
v  0.0000 7.6802 -105.4777
v  -46.4726 -46.3182 -95.7175
v  -44.6381 -45.3077 -36.5352
v  -42.2574 22.4546 84.4269
v  -44.0690 24.8069 82.4325
v  -44.0563 27.1931 84.3746
v  -44.0769 61.4077 95.6121
v  -0.0114 -60.9477 -32.3202
v  -19.0830 -60.9606 -32.3441
v  -20.8032 -62.2955 -105.7614
v  0.0000 -62.2763 -105.7987
v  -22.2289 -62.3482 -104.2216
v  -20.4918 -61.0003 -34.0975
v  -46.4393 57.7326 9.5058
v  -46.2334 20.1261 4.9458
v  -55.9183 23.5171 0.7503
v  -55.9173 55.2367 5.9913
v  -55.9170 55.8921 5.4747
v  -55.9323 22.9718 0.1177
v  -46.3752 57.7493 -97.1543
v  -44.6113 57.6418 -99.9340
v  -23.6607 57.9355 -105.4477
v  0.0000 58.1037 -105.4735
v  -53.7543 57.8139 -95.5139
v  -53.7550 57.8072 7.6147
v  -53.7689 10.8646 -96.0979
v  -53.7645 57.1897 -96.1012
v  -53.7663 21.1566 1.6470
v  -53.7706 10.2812 -95.4907
v  -53.7683 57.1513 8.1350
v  -53.7622 21.7804 2.2752
v  -55.9220 55.8941 -93.7370
v  -55.9125 12.9706 -94.3139
v  -55.9219 55.2801 -94.3119
v  -55.9124 12.3943 -93.7148
v  20.3685 -58.3999 -30.4933
v  21.8118 -22.5809 5.4259
v  21.1415 18.0520 90.1994
v  21.1505 62.1802 105.7987
v  21.1597 15.7630 88.3038
v  42.8688 -47.0444 -32.7342
v  42.8910 -13.0107 -2.3990
v  42.2236 24.8205 86.3622
v  42.1894 61.5233 98.3405
v  19.0716 -60.9606 -32.3441
v  42.2574 22.4546 84.4269
v  -43.6858 53.7190 55.3924
v  -46.7914 53.7031 55.4030
v  -46.8562 56.6216 63.7690
v  -43.6276 56.6439 63.7690
v  -43.6276 46.2829 50.2296
v  -46.8583 46.2787 50.2513
v  -43.6276 36.5135 50.2335
v  -46.8583 36.5177 50.2552
v  -43.6858 29.0822 55.4022
v  -46.7915 29.0978 55.4132
v  -43.6858 26.1790 63.7812
v  -46.7916 26.1986 63.7812
v  -43.6858 29.0899 72.1578
v  -46.7915 29.1055 72.1467
v  -43.6276 36.5259 77.3205
v  -46.8583 36.5301 77.2989
v  -43.6276 46.2953 77.3166
v  -46.8583 46.2910 77.2950
v  -43.6858 53.7266 72.1479
v  -46.7914 53.7107 72.1373
v  -47.5920 53.0313 55.8590
v  -47.5970 55.7735 63.7693
v  -47.5983 45.8337 50.9791
v  -47.5983 36.9635 50.9826
v  -47.5919 29.7703 55.8683
v  -47.5919 27.0282 63.7808
v  -47.5918 29.7773 71.6912
v  -47.5980 36.9750 76.5714
v  -47.5980 45.8455 76.5679
v  -47.5918 53.0388 71.6819
v  -51.9276 43.2704 58.4332
v  -51.9275 46.2947 60.4885
v  -51.9276 39.5335 58.4347
v  -51.9275 36.5111 60.4924
v  -51.9275 35.3577 63.8204
v  -51.9274 36.5139 67.1476
v  -51.9274 39.5382 69.2031
v  -51.9274 43.2755 69.2016
v  -51.9274 46.2980 67.1437
v  -51.9275 47.4512 63.8155
v  44.6400 -44.0448 -33.7257
v  46.4718 -44.0037 -97.6678
v  46.4847 -24.2470 -97.4628
v  44.6715 -11.3360 -1.9627
v  46.4908 8.6789 -97.3217
v  46.4844 19.8314 2.9082
v  23.6496 7.3764 -105.4523
v  44.5948 7.9319 -99.9421
v  44.5836 -24.9358 -99.9476
v  23.6409 -30.3887 -105.4558
v  44.6570 -47.2821 -100.1375
v  22.0524 -58.8831 -105.7012
v  22.5365 -59.6975 -34.2682
v  24.4933 -60.8992 -103.5121
v  44.6849 -49.3963 -98.3023
v  42.8869 -48.3105 -35.5242
v  46.4727 -46.3182 -95.7175
v  44.6381 -45.3077 -36.5352
v  44.0691 24.8069 82.4325
v  44.0563 27.1931 84.3746
v  44.0770 61.4077 95.6121
v  20.8032 -62.2955 -105.7614
v  22.2289 -62.3482 -104.2216
v  20.4918 -61.0003 -34.0975
v  46.2334 20.1261 4.9458
v  46.4394 57.7326 9.5058
v  55.9170 55.8921 5.4748
v  55.9173 55.2367 5.9914
v  55.9183 23.5171 0.7503
v  55.9323 22.9718 0.1177
v  46.3752 57.7493 -97.1543
v  44.6114 57.6418 -99.9340
v  23.6607 57.9355 -105.4477
v  53.7550 57.8072 7.6147
v  53.7543 57.8139 -95.5139
v  53.7645 57.1897 -96.1012
v  53.7689 10.8646 -96.0979
v  53.7706 10.2812 -95.4907
v  53.7664 21.1566 1.6470
v  53.7623 21.7804 2.2752
v  53.7684 57.1513 8.1350
v  55.9220 55.8941 -93.7370
v  55.9219 55.2801 -94.3119
v  55.9125 12.9706 -94.3139
v  55.9124 12.3943 -93.7148
v  43.8406 53.7190 55.7874
v  43.7824 56.6439 64.1640
v  47.0109 56.6216 64.1640
v  46.9461 53.7031 55.7980
v  43.7824 46.2829 50.6246
v  47.0130 46.2787 50.6463
v  43.7824 36.5135 50.6285
v  47.0130 36.5177 50.6502
v  43.8406 29.0822 55.7972
v  46.9463 29.0978 55.8082
v  43.8406 26.1790 64.1762
v  46.9464 26.1986 64.1762
v  43.8406 29.0899 72.5528
v  46.9463 29.1055 72.5417
v  43.7824 36.5259 77.7155
v  47.0131 36.5301 77.6939
v  43.7824 46.2953 77.7116
v  47.0131 46.2910 77.6900
v  43.8406 53.7266 72.5429
v  46.9461 53.7107 72.5323
v  47.7517 55.7735 64.1643
v  47.7467 53.0313 56.2540
v  47.7531 45.8337 51.3741
v  47.7531 36.9635 51.3776
v  47.7467 29.7703 56.2633
v  47.7466 27.0282 64.1758
v  47.7465 29.7773 72.0863
v  47.7528 36.9750 76.9664
v  47.7528 45.8455 76.9629
v  47.7465 53.0388 72.0769
v  52.0823 46.2947 60.8835
v  52.0823 43.2704 58.8283
v  52.0823 39.5335 58.8297
v  52.0823 36.5111 60.8874
v  52.0822 35.3577 64.2154
v  52.0821 36.5139 67.5426
v  52.0821 39.5382 69.5982
v  52.0821 43.2755 69.5966
v  52.0821 46.2980 67.5387
v  52.0822 47.4512 64.2105
v  -0.0114 -60.9477 -33.9973
v  -0.0114 -60.9477 -102.6793
# 205 vertices

vn -0.2668 -0.6942 0.6685
vn -0.0000 -0.6473 0.7622
vn 0.0000 -0.8202 0.5721
vn -0.2626 -0.8002 0.5391
vn 0.0000 -0.3327 0.9430
vn -0.1431 -0.3299 0.9331
vn -0.1509 -0.4917 0.8576
vn 0.0000 -0.4938 0.8696
vn -0.9501 -0.2428 0.1959
vn -0.8981 -0.3815 0.2189
vn -0.9511 -0.0002 -0.3087
vn -0.9509 -0.0561 -0.3045
vn -0.8891 -0.3284 0.3187
vn -0.8194 -0.2353 -0.5227
vn -0.0000 -0.7934 0.6087
vn -0.1670 -0.7821 0.6003
vn -0.5022 -0.6942 0.5156
vn -0.6568 -0.5999 0.4569
vn -0.5419 -0.2710 0.7956
vn -0.5902 -0.3821 0.7110
vn -0.1288 0.0001 -0.9917
vn -0.1289 0.0029 -0.9916
vn -0.5536 0.0043 -0.8328
vn -0.5653 0.0016 -0.8249
vn -0.2495 -0.1332 -0.9592
vn -0.6315 -0.2375 -0.7381
vn -0.5010 -0.8203 0.2758
vn -0.6893 -0.7031 0.1747
vn -0.7091 -0.6391 -0.2979
vn -0.5500 -0.7003 -0.4551
vn 0.0000 0.0078 -1.0000
vn 0.0000 0.0053 -1.0000
vn 0.0000 0.0001 -1.0000
vn -0.9628 -0.2613 -0.0683
vn -0.9508 -0.2999 0.0776
vn -0.6185 -0.6187 0.4844
vn -0.9488 -0.2495 0.1935
vn -0.9455 -0.1414 0.2933
vn -0.9220 -0.1213 0.3676
vn 0.0005 -0.8897 0.4566
vn -0.1963 -0.8593 0.4723
vn -0.2143 -0.6799 -0.7013
vn -0.0127 -0.8295 -0.5584
vn -0.4046 -0.8437 -0.3527
vn -0.3416 -0.9160 0.2103
vn -0.7277 0.4007 0.5567
vn -0.8776 0.4793 0.0143
vn -0.8864 -0.1906 0.4218
vn -0.8984 0.0513 0.4361
vn -0.9027 0.4078 0.1375
vn -0.9014 -0.4029 0.1585
vn -0.4784 0.4511 -0.7534
vn -0.5922 -0.0001 -0.8058
vn -0.1280 0.0001 -0.9918
vn -0.4115 0.8433 -0.3458
vn -0.4310 0.8226 0.3710
vn -0.5018 -0.3281 -0.8004
vn -0.4526 0.3473 -0.8213
vn -0.4758 -0.7930 0.3805
vn -0.5143 -0.8152 -0.2662
vn -0.4825 0.2378 0.8430
vn -0.4487 -0.4025 0.7979
vn -0.8995 0.4150 -0.1370
vn -0.8967 -0.1219 -0.4256
vn -0.8947 0.1203 -0.4301
vn -0.9017 -0.4226 -0.0920
vn 0.2665 -0.6940 0.6688
vn 0.2624 -0.8002 0.5392
vn 0.1508 -0.4917 0.8576
vn 0.1430 -0.3299 0.9331
vn 0.1669 -0.7821 0.6004
vn 0.6554 -0.6001 0.4586
vn 0.5009 -0.6949 0.5159
vn 0.5886 -0.3818 0.7126
vn 0.5408 -0.2712 0.7962
vn 0.1945 -0.8600 0.4718
vn 0.6184 -0.6183 0.4851
vn -0.0062 0.7962 -0.6050
vn -0.3633 0.7438 -0.5611
vn -0.3879 0.9217 -0.0017
vn -0.0068 1.0000 -0.0005
vn -0.0067 0.2978 -0.9546
vn -0.3852 0.2837 -0.8781
vn -0.0068 -0.2986 -0.9543
vn -0.3874 -0.2868 -0.8762
vn -0.0062 -0.7967 -0.6044
vn -0.3648 -0.7427 -0.5616
vn -0.0063 -1.0000 0.0005
vn -0.3672 -0.9301 0.0004
vn -0.0062 -0.7962 0.6050
vn -0.3632 -0.7441 0.5607
vn -0.0067 -0.2978 0.9546
vn -0.3852 -0.2837 0.8781
vn -0.0068 0.2986 0.9543
vn -0.3873 0.2868 0.8762
vn -0.0062 0.7966 0.6044
vn -0.3641 0.7418 0.5632
vn -0.7931 0.4840 -0.3697
vn -0.8138 0.5811 -0.0024
vn -0.8039 0.1590 -0.5731
vn -0.8032 -0.1630 -0.5730
vn -0.7919 -0.4831 -0.3735
vn -0.7975 -0.6033 0.0001
vn -0.7925 -0.4848 0.3700
vn -0.8028 -0.1596 0.5745
vn -0.8020 0.1635 0.5744
vn -0.7917 0.4823 0.3749
vn -0.9565 0.0838 -0.2796
vn -0.9579 0.2255 -0.1775
vn -0.9565 -0.0840 -0.2795
vn -0.9579 -0.2257 -0.1772
vn -0.9588 -0.2841 0.0005
vn -0.9575 -0.2264 0.1789
vn -0.9557 -0.0843 0.2820
vn -0.9557 0.0845 0.2820
vn -0.9575 0.2265 0.1787
vn -0.9588 0.2840 0.0003
vn 0.9497 -0.2435 0.1970
vn 0.9509 -0.0561 -0.3045
vn 0.9511 -0.0002 -0.3087
vn 0.8974 -0.3826 0.2196
vn 0.8194 -0.2353 -0.5227
vn 0.8891 -0.3284 0.3187
vn 0.1288 0.0001 -0.9917
vn 0.5653 0.0016 -0.8249
vn 0.5536 0.0043 -0.8328
vn 0.1289 0.0029 -0.9916
vn 0.6314 -0.2375 -0.7381
vn 0.2495 -0.1332 -0.9592
vn 0.5009 -0.8202 0.2764
vn 0.5500 -0.7003 -0.4551
vn 0.7091 -0.6391 -0.2979
vn 0.6892 -0.7030 0.1756
vn 0.9628 -0.2613 -0.0683
vn 0.9508 -0.2999 0.0776
vn 0.9488 -0.2495 0.1935
vn 0.9451 -0.1416 0.2946
vn 0.9214 -0.1218 0.3692
vn 0.2381 -0.6524 -0.7195
vn 0.4114 -0.8434 -0.3455
vn 0.3387 -0.9178 0.2073
vn 0.8775 0.4793 0.0143
vn 0.7277 0.4007 0.5567
vn 0.9027 0.4078 0.1375
vn 0.8984 0.0513 0.4361
vn 0.8864 -0.1906 0.4218
vn 0.9014 -0.4029 0.1585
vn 0.4784 0.4511 -0.7534
vn 0.5922 -0.0001 -0.8058
vn 0.1280 0.0001 -0.9918
vn 0.4310 0.8226 0.3710
vn 0.4115 0.8433 -0.3458
vn 0.4526 0.3473 -0.8213
vn 0.5018 -0.3281 -0.8004
vn 0.5143 -0.8152 -0.2662
vn 0.4758 -0.7930 0.3805
vn 0.4487 -0.4025 0.7979
vn 0.4825 0.2378 0.8430
vn 0.8995 0.4150 -0.1370
vn 0.8947 0.1203 -0.4301
vn 0.8967 -0.1219 -0.4256
vn 0.9017 -0.4226 -0.0920
vn 0.0062 0.7962 -0.6050
vn 0.0068 1.0000 -0.0005
vn 0.3879 0.9217 -0.0017
vn 0.3633 0.7438 -0.5611
vn 0.0067 0.2978 -0.9546
vn 0.3852 0.2837 -0.8781
vn 0.0068 -0.2986 -0.9543
vn 0.3874 -0.2868 -0.8762
vn 0.0062 -0.7967 -0.6044
vn 0.3648 -0.7427 -0.5616
vn 0.0063 -1.0000 0.0005
vn 0.3672 -0.9301 0.0004
vn 0.0062 -0.7962 0.6050
vn 0.3632 -0.7441 0.5607
vn 0.0067 -0.2978 0.9546
vn 0.3852 -0.2837 0.8781
vn 0.0068 0.2986 0.9543
vn 0.3873 0.2868 0.8762
vn 0.0062 0.7966 0.6044
vn 0.3641 0.7418 0.5632
vn 0.8138 0.5811 -0.0024
vn 0.7931 0.4840 -0.3697
vn 0.8039 0.1590 -0.5731
vn 0.8032 -0.1630 -0.5730
vn 0.7919 -0.4831 -0.3735
vn 0.7975 -0.6033 0.0001
vn 0.7925 -0.4848 0.3700
vn 0.8028 -0.1596 0.5745
vn 0.8020 0.1635 0.5744
vn 0.7917 0.4823 0.3749
vn 0.9579 0.2255 -0.1775
vn 0.9565 0.0838 -0.2796
vn 0.9565 -0.0840 -0.2795
vn 0.9579 -0.2257 -0.1772
vn 0.9588 -0.2841 0.0005
vn 0.9575 -0.2264 0.1789
vn 0.9557 -0.0843 0.2820
vn 0.9557 0.0845 0.2820
vn 0.9575 0.2266 0.1787
vn 0.9588 0.2840 0.0003
vn 0.0034 -1.0000 0.0041
vn -0.0031 -0.9819 0.1892
# 204 vertex normals

vt 0.5217 0.6349 0.0000
vt 0.4539 0.6345 0.0000
vt 0.4529 0.4706 0.0000
vt 0.5288 0.4698 0.0000
vt 0.4493 0.0131 0.0000
vt 0.5231 0.0142 0.0000
vt 0.5211 0.1606 0.0000
vt 0.4508 0.1605 0.0000
vt 0.6532 0.7580 0.0000
vt 0.7601 0.6423 0.0000
vt 0.7239 0.9845 0.0000
vt 0.6583 0.9865 0.0000
vt 0.8642 0.6229 0.0000
vt 0.8340 0.9817 0.0000
vt 0.4509 0.1696 0.0000
vt 0.5211 0.1682 0.0000
vt 0.6109 0.4750 0.0000
vt 0.6028 0.6192 0.0000
vt 0.5983 0.0274 0.0000
vt 0.5951 0.1510 0.0000
vt 0.3479 0.7163 0.0000
vt 0.3479 0.7656 0.0000
vt 0.3174 0.7585 0.0000
vt 0.3174 0.7155 0.0000
vt 0.3500 0.8030 0.0000
vt 0.3173 0.7877 0.0000
vt 0.3268 0.8890 0.0000
vt 0.3143 0.9877 0.0000
vt 0.0455 0.9738 0.0000
vt 0.0300 0.8740 0.0000
vt 0.3812 0.8030 0.0000
vt 0.3812 0.7655 0.0000
vt 0.3812 0.7159 0.0000
vt 0.6413 0.7542 0.0000
vt 0.7517 0.6421 0.0000
vt 0.7217 0.9957 0.0000
vt 0.6461 0.9969 0.0000
vt 0.6514 0.9796 0.0000
vt 0.6402 0.9889 0.0000
vt 0.6381 0.7646 0.0000
vt 0.6497 0.7681 0.0000
vt 0.8317 0.9934 0.0000
vt 0.8656 0.3302 0.0000
vt 0.8751 0.3382 0.0000
vt 0.8828 0.3313 0.0000
vt 0.8737 0.3227 0.0000
vt 0.9956 0.2768 0.0000
vt 0.9963 0.2887 0.0000
vt 0.1252 0.1868 0.0000
vt 0.1252 0.1755 0.0000
vt 0.2062 0.1755 0.0000
vt 0.1986 0.1860 0.0000
vt 0.3265 0.9922 0.0000
vt 0.3459 0.8860 0.0000
vt 0.0143 0.8702 0.0000
vt 0.0355 0.9802 0.0000
vt 0.2049 0.3894 0.0000
vt 0.2139 0.3995 0.0000
vt 0.1266 0.4066 0.0000
vt 0.1266 0.3947 0.0000
vt 0.2114 0.3857 0.0000
vt 0.2229 0.3849 0.0000
vt 0.2057 0.1916 0.0000
vt 0.2178 0.1913 0.0000
vt 0.5954 0.1653 0.0000
vt 0.9905 0.5967 0.0000
vt 0.8650 0.6156 0.0000
vt 0.7324 0.5941 0.0000
vt 0.6432 0.5997 0.0000
vt 0.6415 0.5982 0.0000
vt 0.7341 0.5926 0.0000
vt 0.9983 0.9809 0.0000
vt 0.9979 0.9927 0.0000
vt 0.3173 0.6506 0.0000
vt 0.3479 0.6502 0.0000
vt 0.3812 0.6500 0.0000
vt 0.6100 0.6068 0.0000
vt 0.6447 0.2926 0.0000
vt 0.6661 0.2999 0.0000
vt 0.6324 0.6036 0.0000
vt 0.6723 0.2739 0.0000
vt 0.8076 0.2892 0.0000
vt 0.7991 0.3103 0.0000
vt 0.6715 0.2961 0.0000
vt 0.8262 0.3145 0.0000
vt 0.7625 0.6063 0.0000
vt 0.7416 0.5983 0.0000
vt 0.8033 0.3155 0.0000
vt 0.7432 0.6235 0.0000
vt 0.6364 0.6304 0.0000
vt 0.6375 0.6082 0.0000
vt 0.7368 0.6021 0.0000
vt 0.6739 0.3060 0.0000
vt 0.7924 0.3177 0.0000
vt 0.6758 0.3048 0.0000
vt 0.7940 0.3194 0.0000
vt 0.6354 0.6074 0.0000
vt 0.6692 0.2967 0.0000
vt 0.8011 0.3115 0.0000
vt 0.7391 0.6012 0.0000
vt 0.3862 0.6357 0.0000
vt 0.3770 0.4708 0.0000
vt 0.3806 0.1618 0.0000
vt 0.3755 0.0156 0.0000
vt 0.3808 0.1692 0.0000
vt 0.3049 0.6211 0.0000
vt 0.2949 0.4771 0.0000
vt 0.3064 0.1539 0.0000
vt 0.3005 0.0304 0.0000
vt 0.0346 0.1875 0.0000
vt 0.0270 0.1769 0.0000
vt 0.3056 0.1664 0.0000
vt 0.8776 0.9622 0.0000
vt 0.8845 0.9517 0.0000
vt 0.9231 0.9614 0.0000
vt 0.9236 0.9746 0.0000
vt 0.8480 0.9255 0.0000
vt 0.8602 0.9212 0.0000
vt 0.8479 0.8761 0.0000
vt 0.8602 0.8801 0.0000
vt 0.8761 0.8386 0.0000
vt 0.8836 0.8488 0.0000
vt 0.9208 0.8230 0.0000
vt 0.9213 0.8357 0.0000
vt 0.9667 0.8352 0.0000
vt 0.9598 0.8457 0.0000
vt 0.9963 0.8719 0.0000
vt 0.9842 0.8761 0.0000
vt 0.9965 0.9213 0.0000
vt 0.9842 0.9173 0.0000
vt 0.9683 0.9588 0.0000
vt 0.9608 0.9486 0.0000
vt 0.8862 0.9493 0.0000
vt 0.9230 0.9585 0.0000
vt 0.8624 0.9196 0.0000
vt 0.8626 0.8816 0.0000
vt 0.8855 0.8513 0.0000
vt 0.9213 0.8388 0.0000
vt 0.9582 0.8481 0.0000
vt 0.9819 0.8777 0.0000
vt 0.9818 0.9157 0.0000
vt 0.9589 0.9461 0.0000
vt 0.8989 0.9069 0.0000
vt 0.9073 0.9166 0.0000
vt 0.8995 0.8941 0.0000
vt 0.9089 0.8830 0.0000
vt 0.9232 0.8780 0.0000
vt 0.9374 0.8808 0.0000
vt 0.9458 0.8905 0.0000
vt 0.9452 0.9033 0.0000
vt 0.9359 0.9143 0.0000
vt 0.9216 0.9193 0.0000
vt 0.0311 0.3944 0.0000
vt 0.0221 0.4045 0.0000
vt 0.0246 0.3907 0.0000
vt 0.0131 0.3899 0.0000
vt 0.0153 0.1927 0.0000
vt 0.0274 0.1931 0.0000
vt 0.1252 0.1926 0.0000
vt 0.1266 0.3875 0.0000
# 160 texture coords

g Collumn_A_Top
s 1
f 1/1/1 2/2/2 3/3/3 4/4/4 
f 5/5/5 6/6/6 7/7/7 8/8/8 
f 9/9/9 10/10/10 11/11/11 12/12/12 
f 10/10/10 13/13/13 14/14/14 11/11/11 
f 4/4/4 3/3/3 15/15/15 16/16/16 
f 1/1/1 4/4/4 17/17/17 18/18/18 
f 7/7/7 6/6/6 19/19/19 20/20/20 
f 21/21/21 22/22/22 23/23/23 24/24/24 
f 22/22/22 25/25/25 26/26/26 23/23/23 
f 27/27/27 28/28/28 29/29/29 30/30/30 
f 31/31/31 25/25/25 22/22/22 32/32/32 
f 32/32/32 22/22/22 21/21/21 33/33/33 
f 9/9/9 18/34/18 17/35/17 10/10/10 
f 11/11/11 23/36/23 26/37/26 12/12/12 
f 34/38/34 29/39/29 28/40/28 35/41/35 
f 24/42/24 23/36/23 11/11/11 14/14/14 
f 10/10/10 17/35/17 36/43/36 37/44/37 
f 38/45/38 20/46/20 19/47/19 39/48/39 
f 40/49/40 2/50/2 1/51/1 41/52/41 
f 18/53/18 28/28/28 27/27/27 1/54/1 
f 25/55/25 30/30/30 29/29/29 26/56/26 
f 42/57/42 25/58/25 31/59/31 43/60/43 
f 9/9/9 35/41/35 28/40/28 18/34/18 
f 34/38/34 12/12/12 26/37/26 29/39/29 
f 12/12/12 34/38/34 35/41/35 9/9/9 
f 25/58/25 42/57/42 44/61/44 
f 30/62/30 44/61/44 45/63/45 27/64/27 
f 45/63/45 41/52/41 1/51/1 27/64/27 
f 7/7/7 16/16/16 15/15/15 8/8/8 
f 16/16/16 7/7/7 20/20/20 36/65/36 
f 38/45/38 37/44/37 36/43/36 20/46/20 
f 38/45/38 39/48/39 46/66/46 47/67/47 
f 46/66/46 13/13/13 47/67/47 
f 48/68/48 49/69/49 50/70/50 51/71/51 
f 52/72/52 53/73/53 24/42/24 14/14/14 
f 53/74/53 54/75/54 21/21/21 24/24/24 
f 54/75/54 55/76/33 33/33/33 21/21/21 
f 4/4/4 16/16/16 36/65/36 17/17/17 
f 13/13/13 10/10/10 37/44/37 38/45/38 
f 47/67/47 13/13/13 38/45/38 
f 46/77/46 52/78/52 56/79/55 57/80/56 
f 52/81/52 14/82/14 58/83/57 59/84/58 
f 14/85/14 13/86/13 60/87/59 61/88/60 
f 13/89/13 46/90/46 62/91/61 63/92/62 
f 57/80/56 56/79/55 64/93/63 50/70/50 
f 59/84/58 58/83/57 65/94/64 66/95/65 
f 61/88/60 60/87/59 51/71/51 67/96/66 
f 63/92/62 62/91/61 49/69/49 48/68/48 
f 46/90/46 57/97/56 62/91/61 
f 52/81/52 59/84/58 56/98/55 
f 14/82/14 61/99/60 58/83/57 
f 13/89/13 63/92/62 60/100/59 
f 62/91/61 57/97/56 50/70/50 49/69/49 
f 56/98/55 59/84/58 66/95/65 64/93/63 
f 58/83/57 61/99/60 67/96/66 65/94/64 
f 60/100/59 63/92/62 48/68/48 51/71/51 
f 66/95/65 65/94/64 67/96/66 64/93/63 
f 64/93/63 67/96/66 51/71/51 50/70/50 
f 44/61/44 30/62/30 25/58/25 
f 68/101/67 69/102/68 3/3/3 2/2/2 
f 5/5/5 8/8/8 70/103/69 71/104/70 
f 69/102/68 72/105/71 15/15/15 3/3/3 
f 68/101/67 73/106/72 74/107/73 69/102/68 
f 70/103/69 75/108/74 76/109/75 71/104/70 
f 40/49/40 77/110/76 68/111/67 2/50/2 
f 70/103/69 8/8/8 15/15/15 72/105/71 
f 72/105/71 78/112/77 75/108/74 70/103/69 
f 69/102/68 74/107/73 78/112/77 72/105/71 
f 79/113/78 80/114/79 81/115/80 82/116/81 
f 83/117/82 84/118/83 80/114/79 79/113/78 
f 85/119/84 86/120/85 84/118/83 83/117/82 
f 87/121/86 88/122/87 86/120/85 85/119/84 
f 89/123/88 90/124/89 88/122/87 87/121/86 
f 91/125/90 92/126/91 90/124/89 89/123/88 
f 93/127/92 94/128/93 92/126/91 91/125/90 
f 95/129/94 96/130/95 94/128/93 93/127/92 
f 97/131/96 98/132/97 96/130/95 95/129/94 
f 82/116/81 81/115/80 98/132/97 97/131/96 
f 80/114/79 99/133/98 100/134/99 81/115/80 
f 84/118/83 101/135/100 99/133/98 80/114/79 
f 86/120/85 102/136/101 101/135/100 84/118/83 
f 88/122/87 103/137/102 102/136/101 86/120/85 
f 90/124/89 104/138/103 103/137/102 88/122/87 
f 92/126/91 105/139/104 104/138/103 90/124/89 
f 94/128/93 106/140/105 105/139/104 92/126/91 
f 96/130/95 107/141/106 106/140/105 94/128/93 
f 98/132/97 108/142/107 107/141/106 96/130/95 
f 81/115/80 100/134/99 108/142/107 98/132/97 
f 99/133/98 101/135/100 109/143/108 110/144/109 
f 101/135/100 102/136/101 111/145/110 109/143/108 
f 102/136/101 103/137/102 112/146/111 111/145/110 
f 103/137/102 104/138/103 113/147/112 112/146/111 
f 104/138/103 105/139/104 114/148/113 113/147/112 
f 105/139/104 106/140/105 115/149/114 114/148/113 
f 106/140/105 107/141/106 116/150/115 115/149/114 
f 107/141/106 108/142/107 117/151/116 116/150/115 
f 108/142/107 100/134/99 118/152/117 117/151/116 
f 100/134/99 99/133/98 110/144/109 118/152/117 
f 116/150/115 117/151/116 118/152/117 110/144/109 
f 115/149/114 116/150/115 110/144/109 109/143/108 
f 111/145/110 114/148/113 115/149/114 109/143/108 
f 112/146/111 113/147/112 114/148/113 111/145/110 
f 119/9/118 120/12/119 121/11/120 122/10/121 
f 122/10/121 121/11/120 123/14/122 124/13/123 
f 125/21/124 126/24/125 127/23/126 128/22/127 
f 128/22/127 127/23/126 129/26/128 130/25/129 
f 131/27/130 132/30/131 133/29/132 134/28/133 
f 31/31/31 32/32/32 128/22/127 130/25/129 
f 32/32/32 33/33/33 125/21/124 128/22/127 
f 119/9/118 122/10/121 74/35/73 73/34/72 
f 121/11/120 120/12/119 129/37/128 127/36/126 
f 135/38/134 136/41/135 134/40/133 133/39/132 
f 126/42/125 123/14/122 121/11/120 127/36/126 
f 122/10/121 137/44/136 78/43/77 74/35/73 
f 138/45/137 139/48/138 76/47/75 75/46/74 
f 73/53/72 68/54/67 131/27/130 134/28/133 
f 133/29/132 132/30/131 130/55/129 129/56/128 
f 140/153/139 43/60/43 31/59/31 130/154/129 
f 119/9/118 73/34/72 134/40/133 136/41/135 
f 135/38/134 133/39/132 129/37/128 120/12/119 
f 120/12/119 119/9/118 136/41/135 135/38/134 
f 130/154/129 141/155/140 140/153/139 
f 132/156/131 131/157/130 142/158/141 141/155/140 
f 142/158/141 131/157/130 68/111/67 77/110/76 
f 138/45/137 75/46/74 78/43/77 137/44/136 
f 143/67/142 124/13/123 144/66/143 138/45/137 
f 138/45/137 144/66/143 139/48/138 
f 145/70/144 146/69/145 147/68/146 148/71/147 
f 149/72/148 123/14/122 126/42/125 150/73/149 
f 150/74/149 126/24/125 125/21/124 151/75/150 
f 151/75/150 125/21/124 33/33/33 55/76/33 
f 137/44/136 122/10/121 124/13/123 138/45/137 
f 143/67/142 138/45/137 124/13/123 
f 144/77/143 152/80/151 153/79/152 149/78/148 
f 149/81/148 154/84/153 155/83/154 123/82/122 
f 123/85/122 156/88/155 157/87/156 124/86/123 
f 124/89/123 158/92/157 159/91/158 144/90/143 
f 152/80/151 145/70/144 160/93/159 153/79/152 
f 154/84/153 161/95/160 162/94/161 155/83/154 
f 156/88/155 163/96/162 148/71/147 157/87/156 
f 158/92/157 147/68/146 146/69/145 159/91/158 
f 144/90/143 159/91/158 152/97/151 
f 149/81/148 153/98/152 154/84/153 
f 123/82/122 155/83/154 156/99/155 
f 124/89/123 157/100/156 158/92/157 
f 159/91/158 146/69/145 145/70/144 152/97/151 
f 153/98/152 160/93/159 161/95/160 154/84/153 
f 155/83/154 162/94/161 163/96/162 156/99/155 
f 157/100/156 148/71/147 147/68/146 158/92/157 
f 161/95/160 160/93/159 163/96/162 162/94/161 
f 160/93/159 145/70/144 148/71/147 163/96/162 
f 141/155/140 130/154/129 132/156/131 
f 164/113/163 165/116/164 166/115/165 167/114/166 
f 168/117/167 164/113/163 167/114/166 169/118/168 
f 170/119/169 168/117/167 169/118/168 171/120/170 
f 172/121/171 170/119/169 171/120/170 173/122/172 
f 174/123/173 172/121/171 173/122/172 175/124/174 
f 176/125/175 174/123/173 175/124/174 177/126/176 
f 178/127/177 176/125/175 177/126/176 179/128/178 
f 180/129/179 178/127/177 179/128/178 181/130/180 
f 182/131/181 180/129/179 181/130/180 183/132/182 
f 165/116/164 182/131/181 183/132/182 166/115/165 
f 167/114/166 166/115/165 184/134/183 185/133/184 
f 169/118/168 167/114/166 185/133/184 186/135/185 
f 171/120/170 169/118/168 186/135/185 187/136/186 
f 173/122/172 171/120/170 187/136/186 188/137/187 
f 175/124/174 173/122/172 188/137/187 189/138/188 
f 177/126/176 175/124/174 189/138/188 190/139/189 
f 179/128/178 177/126/176 190/139/189 191/140/190 
f 181/130/180 179/128/178 191/140/190 192/141/191 
f 183/132/182 181/130/180 192/141/191 193/142/192 
f 166/115/165 183/132/182 193/142/192 184/134/183 
f 185/133/184 194/144/193 195/143/194 186/135/185 
f 186/135/185 195/143/194 196/145/195 187/136/186 
f 187/136/186 196/145/195 197/146/196 188/137/187 
f 188/137/187 197/146/196 198/147/197 189/138/188 
f 189/138/188 198/147/197 199/148/198 190/139/189 
f 190/139/189 199/148/198 200/149/199 191/140/190 
f 191/140/190 200/149/199 201/150/200 192/141/191 
f 192/141/191 201/150/200 202/151/201 193/142/192 
f 193/142/192 202/151/201 203/152/202 184/134/183 
f 184/134/183 203/152/202 194/144/193 185/133/184 
f 201/150/200 194/144/193 203/152/202 202/151/201 
f 200/149/199 195/143/194 194/144/193 201/150/200 
f 196/145/195 195/143/194 200/149/199 199/148/198 
f 197/146/196 196/145/195 199/148/198 198/147/197 
f 40/49/40 41/52/41 45/63/45 204/159/203 
f 77/110/76 40/49/40 204/159/203 142/158/141 
f 204/159/203 45/63/45 44/61/44 205/160/204 
f 142/158/141 204/159/203 205/160/204 141/155/140 
f 205/160/204 44/61/44 42/57/42 43/60/43 
f 141/155/140 205/160/204 43/60/43 140/153/139 
# 176 polygons - 16 triangles

