# 3ds Max Wavefront OBJ Exporter v0.97b - (c)2007 guruware
# File Created: 01.07.2013 22:24:11

#
# object Floor_A_Panel_Left
#

v  -252.2599 57.6387 -16.6630
v  -252.2599 57.6387 63.0121
v  252.2599 57.6387 63.0121
v  252.2599 57.6387 -16.6631
v  252.2599 56.1623 -18.8202
v  -252.2599 56.1623 -18.8202
v  -252.2599 -57.6387 -63.0121
v  -252.2599 -20.1701 -48.4620
v  252.2599 -20.1701 -48.4621
v  252.2599 -57.6387 -63.0121
v  252.2599 18.6937 -33.3702
v  -252.2599 18.6937 -33.3702
v  -252.2599 -19.7056 -47.7826
v  -252.2599 -19.7135 -40.4114
v  252.2599 -19.7135 -40.4114
v  252.2599 -19.7056 -47.7826
v  252.2599 18.2286 -33.0520
v  252.2599 18.2286 -25.7079
v  -252.2599 18.2286 -25.7079
v  -252.2599 18.2286 -33.0520
v  252.2599 17.7634 -25.3893
v  252.2599 -19.2489 -39.7322
v  -252.2599 -19.2489 -39.7322
v  -252.2599 17.7634 -25.3893
v  -248.3474 20.2168 -31.4620
v  -248.3474 -21.3094 -47.6166
v  -252.2521 -21.3094 -47.6166
v  -252.2521 20.2168 -31.4620
v  -248.0818 20.2168 -31.1771
v  -248.0818 20.2168 -20.9206
v  -248.0818 -21.3094 -37.0752
v  -248.0818 -21.3094 -47.3317
v  4.3813 20.2168 -31.4620
v  4.3813 -21.3094 -47.6166
v  -2.1800 -21.3094 -47.6166
v  -2.1800 20.2168 -31.4620
v  4.6469 20.2168 -31.1771
v  4.6469 20.2168 -20.9206
v  4.6469 -21.3094 -37.0752
v  4.6469 -21.3094 -47.3317
v  -2.4456 -21.3094 -47.3317
v  -2.4456 -21.3094 -37.0752
v  -2.4456 20.2168 -20.9206
v  -2.4456 20.2168 -31.1770
v  252.1658 20.2168 -31.4620
v  252.1658 -21.3094 -47.6166
v  249.1203 -21.3094 -47.6166
v  249.1203 20.2168 -31.4620
v  248.8547 -21.3094 -47.3317
v  248.8547 -21.3094 -37.0752
v  248.8547 20.2168 -20.9206
v  248.8547 20.2168 -31.1770
v  -209.6177 28.7910 -31.0132
v  -210.1823 29.7926 -30.6294
v  -208.2638 29.7926 -30.6294
v  -208.2638 28.2433 -31.2230
v  -192.7941 29.7926 -30.6294
v  -192.7941 28.2436 -31.2229
v  -190.8782 29.7926 -30.6294
v  -191.5305 28.7618 -31.0244
v  -210.1751 49.2462 -23.1756
v  -208.2638 49.2462 -23.1756
v  -192.7941 49.2462 -23.1756
v  -190.8762 49.2462 -23.1756
v  -209.4994 50.1528 -22.8282
v  -208.2638 50.7885 -22.5846
v  -192.7941 50.7950 -22.5822
v  -191.4520 50.2414 -22.7943
v  -208.2638 27.9692 -31.1638
v  -209.8397 28.5900 -30.9259
v  -210.4738 29.7377 -30.4862
v  -192.7941 27.9692 -31.1638
v  -191.3138 28.5591 -30.9378
v  -190.5842 29.7377 -30.4862
v  -210.4738 49.1913 -23.0324
v  -190.5841 49.1913 -23.0324
v  -209.7145 50.2396 -22.6307
v  -208.2638 50.9598 -22.3548
v  -192.7941 50.9598 -22.3548
v  -191.2308 50.3323 -22.5952
v  -210.9603 29.4231 -30.6114
v  -210.7992 29.4968 -30.3398
v  -210.0891 28.2926 -30.8302
v  -210.2433 28.1974 -31.1176
v  -208.4089 27.6284 -31.0862
v  -208.5366 27.5220 -31.3792
v  -192.6486 27.6285 -31.0862
v  -192.5209 27.5221 -31.3792
v  -191.0684 28.2596 -30.8432
v  -190.2607 29.4952 -30.3419
v  -190.0995 29.4214 -30.6140
v  -190.9156 28.1638 -31.1310
v  -210.9555 49.5165 -22.9171
v  -210.7940 49.2792 -22.7637
v  -190.2591 49.2734 -22.7625
v  -190.0980 49.5099 -22.9154
v  -209.9613 50.3969 -22.3603
v  -210.1138 50.6588 -22.5114
v  -208.4160 51.1597 -22.0708
v  -208.5438 51.4346 -22.2176
v  -192.5207 51.4365 -22.2162
v  -192.6484 51.1615 -22.0695
v  -190.8277 50.7527 -22.4754
v  -190.9818 50.4898 -22.3252
v  -210.7788 27.6624 -30.8232
v  -211.7717 29.1451 -30.3422
v  -208.7239 26.8373 -31.1359
v  -192.3323 26.8377 -31.1356
v  -189.2960 29.1327 -30.3426
v  -190.3904 27.6219 -30.8380
v  -211.7467 49.5600 -22.5090
v  -189.2883 49.5383 -22.5274
v  -210.6469 50.8650 -21.9352
v  -208.7614 51.7714 -21.5796
v  -192.3312 51.7824 -21.5776
v  -190.2928 50.9545 -21.8987
v  -210.7788 27.2422 -29.6612
v  -211.7717 28.7250 -29.1803
v  -208.7239 26.4171 -29.9740
v  -192.3323 26.4176 -29.9736
v  -189.2960 28.7125 -29.1806
v  -190.3904 27.2017 -29.6760
v  -211.7467 49.1398 -21.3471
v  -189.2883 49.1181 -21.3654
v  -210.6469 50.4449 -20.7733
v  -208.7614 51.3513 -20.4177
v  -192.3312 51.3623 -20.4157
v  -190.2928 50.5343 -20.7367
v  198.1687 28.7910 -31.0132
v  197.6041 29.7926 -30.6294
v  199.5226 29.7926 -30.6294
v  199.5226 28.2433 -31.2231
v  214.9923 29.7926 -30.6294
v  214.9923 28.2436 -31.2229
v  216.9082 29.7926 -30.6294
v  216.2560 28.7618 -31.0244
v  197.6113 49.2462 -23.1756
v  199.5226 49.2462 -23.1756
v  214.9923 49.2462 -23.1756
v  216.9102 49.2462 -23.1756
v  198.2870 50.1528 -22.8282
v  199.5226 50.7885 -22.5846
v  214.9923 50.7950 -22.5822
v  216.3344 50.2414 -22.7943
v  199.5226 27.9692 -31.1638
v  197.9467 28.5900 -30.9259
v  197.3127 29.7377 -30.4862
v  214.9923 27.9692 -31.1638
v  216.4726 28.5591 -30.9378
v  217.2023 29.7377 -30.4862
v  197.3127 49.1913 -23.0324
v  217.2023 49.1913 -23.0324
v  198.0718 50.2396 -22.6307
v  199.5226 50.9598 -22.3548
v  214.9923 50.9598 -22.3548
v  216.5556 50.3323 -22.5952
v  196.8262 29.4231 -30.6114
v  196.9871 29.4968 -30.3398
v  197.6973 28.2926 -30.8302
v  197.5432 28.1974 -31.1176
v  199.3776 27.6284 -31.0862
v  199.2498 27.5220 -31.3792
v  215.1378 27.6285 -31.0862
v  215.2655 27.5221 -31.3792
v  216.7180 28.2596 -30.8432
v  217.5257 29.4952 -30.3419
v  217.6869 29.4214 -30.6140
v  216.8707 28.1638 -31.1310
v  196.8310 49.5165 -22.9171
v  196.9924 49.2792 -22.7637
v  217.5273 49.2734 -22.7625
v  217.6884 49.5099 -22.9154
v  197.8251 50.3969 -22.3603
v  197.6726 50.6588 -22.5114
v  199.3704 51.1597 -22.0708
v  199.2426 51.4346 -22.2176
v  215.2657 51.4365 -22.2162
v  215.1380 51.1615 -22.0695
v  216.9587 50.7527 -22.4754
v  216.8047 50.4898 -22.3252
v  197.0075 27.6624 -30.8232
v  196.0147 29.1451 -30.3422
v  199.0625 26.8373 -31.1359
v  215.4541 26.8377 -31.1356
v  218.4905 29.1327 -30.3426
v  217.3961 27.6219 -30.8380
v  196.0398 49.5600 -22.5090
v  218.4980 49.5383 -22.5274
v  197.1396 50.8650 -21.9352
v  199.0252 51.7714 -21.5796
v  215.4553 51.7824 -21.5776
v  217.4936 50.9545 -21.8987
v  197.0075 27.2422 -29.6612
v  196.0147 28.7250 -29.1803
v  199.0625 26.4171 -29.9740
v  215.4541 26.4176 -29.9736
v  218.4905 28.7125 -29.1806
v  217.3961 27.2017 -29.6760
v  196.0398 49.1398 -21.3471
v  218.4980 49.1181 -21.3654
v  197.1396 50.4449 -20.7733
v  199.0252 51.3513 -20.4177
v  215.4553 51.3623 -20.4157
v  217.4935 50.5343 -20.7367
# 204 vertices

vn -0.0000 0.9553 -0.2956
vn 0.0000 1.0000 0.0000
vn -0.0000 0.6214 -0.7835
vn 0.0000 0.6214 -0.7835
vn -0.0000 0.3620 -0.9322
vn -0.0000 0.6216 -0.7833
vn 0.0000 0.3620 -0.9322
vn -0.0000 0.9555 -0.2948
vn 0.0000 0.9555 -0.2950
vn -0.0000 0.9555 -0.2949
vn 0.0000 -1.0000 0.0000
vn 0.0000 0.3613 -0.9324
vn 0.0000 0.6212 -0.7837
vn 0.0000 -0.5647 -0.8253
vn 0.0000 -0.5651 -0.8250
vn 0.4125 0.3303 -0.8490
vn 0.3466 0.3401 -0.8742
vn 0.0000 0.3626 -0.9320
vn 1.0000 0.0000 -0.0000
vn 0.7070 0.2564 -0.6591
vn 0.7069 0.2564 -0.6592
vn -0.3466 0.3401 -0.8742
vn -0.4125 0.3303 -0.8490
vn -1.0000 0.0000 -0.0000
vn -0.7070 0.2564 -0.6591
vn -0.2003 0.1140 -0.9731
vn -0.2719 0.2694 -0.9238
vn 0.0000 0.3578 -0.9338
vn -0.0743 0.0428 -0.9963
vn -0.0000 0.3578 -0.9338
vn 0.0732 0.0436 -0.9964
vn 0.2727 0.2591 -0.9265
vn 0.1964 0.1139 -0.9739
vn -0.2732 0.4416 -0.8546
vn 0.2721 0.4190 -0.8662
vn -0.1969 0.5571 -0.8068
vn -0.0918 0.6314 -0.7700
vn 0.0758 0.6338 -0.7698
vn 0.1998 0.5651 -0.8005
vn -0.1014 -0.2084 -0.9728
vn -0.3494 -0.0208 -0.9368
vn -0.4621 0.2215 -0.8588
vn 0.1006 -0.2095 -0.9726
vn 0.3466 -0.0327 -0.9375
vn 0.4583 0.2138 -0.8627
vn -0.4516 0.4292 -0.7822
vn 0.4613 0.4109 -0.7864
vn -0.3541 0.6535 -0.6690
vn -0.1176 0.7964 -0.5933
vn 0.1028 0.8043 -0.5853
vn 0.3494 0.6427 -0.6818
vn 0.7071 0.4538 -0.5423
vn 0.7565 0.3600 -0.5461
vn 0.4646 0.7357 -0.4928
vn 0.4529 0.7451 -0.4897
vn 0.1182 0.9157 -0.3841
vn 0.1627 0.9025 -0.3987
vn -0.1194 0.9154 -0.3845
vn -0.1640 0.9021 -0.3991
vn -0.4528 0.7458 -0.4885
vn -0.7501 0.3734 -0.5457
vn -0.6979 0.4695 -0.5408
vn -0.4443 0.7525 -0.4862
vn 0.6836 -0.0066 -0.7298
vn 0.7401 0.0714 -0.6687
vn -0.7551 0.0948 -0.6488
vn -0.7050 0.0218 -0.7089
vn 0.4576 -0.2292 -0.8591
vn 0.4509 -0.2344 -0.8613
vn 0.1447 -0.4130 -0.8992
vn 0.1916 -0.3916 -0.9000
vn -0.1648 -0.4037 -0.8999
vn -0.1201 -0.4235 -0.8979
vn -0.4523 -0.2277 -0.8623
vn -0.4634 -0.2190 -0.8586
vn -0.3753 -0.0830 -0.9232
vn -0.3726 0.2115 -0.9035
vn -0.3942 0.1978 -0.8975
vn -0.3795 -0.1245 -0.9168
vn -0.1332 -0.2995 -0.9448
vn -0.1176 -0.3039 -0.9454
vn 0.1185 -0.3038 -0.9453
vn 0.1342 -0.2993 -0.9447
vn 0.4039 0.2138 -0.8895
vn 0.3703 -0.1378 -0.9186
vn 0.3374 -0.1414 -0.9307
vn 0.3853 0.2333 -0.8928
vn -0.3926 0.4388 -0.8083
vn -0.4094 0.4481 -0.7948
vn 0.3951 0.4544 -0.7984
vn 0.3738 0.4477 -0.8123
vn -0.3720 0.7123 -0.5951
vn -0.3474 0.7151 -0.6066
vn -0.1568 0.8502 -0.5025
vn -0.1366 0.8545 -0.5011
vn 0.1192 0.8579 -0.4999
vn 0.1350 0.8539 -0.5027
vn 0.3750 0.6796 -0.6305
vn 0.3791 0.7059 -0.5984
vn -0.6493 -0.7153 -0.2586
vn -0.6460 -0.7179 -0.2596
vn -0.9600 -0.2634 -0.0953
vn -0.9604 -0.2620 -0.0947
vn -0.2010 -0.9212 -0.3331
vn -0.2018 -0.9211 -0.3330
vn 0.2020 -0.9210 -0.3330
vn 0.2028 -0.9209 -0.3330
vn 0.9550 -0.2789 -0.1008
vn 0.9547 -0.2800 -0.1012
vn 0.6334 -0.7277 -0.2631
vn 0.6361 -0.7257 -0.2624
vn -0.9487 0.2973 0.1075
vn -0.9436 0.3114 0.1126
vn 0.9609 0.2603 0.0941
vn 0.9567 0.2737 0.0989
vn -0.6364 0.7254 0.2623
vn -0.6435 0.7198 0.2603
vn -0.2354 0.9140 0.3305
vn -0.2372 0.9136 0.3303
vn 0.2042 0.9206 0.3329
vn 0.2030 0.9208 0.3330
vn 0.6411 0.7217 0.2609
vn 0.6511 0.7137 0.2581
vn -0.2733 0.4416 -0.8545
vn 0.2721 0.4190 -0.8663
vn 0.1999 0.5651 -0.8004
vn -0.3494 -0.0209 -0.9367
vn -0.4621 0.2215 -0.8587
vn 0.3466 -0.0327 -0.9374
vn -0.4517 0.4292 -0.7822
vn 0.7074 0.4538 -0.5419
vn 0.7568 0.3598 -0.5457
vn 0.4647 0.7357 -0.4927
vn 0.4530 0.7451 -0.4896
vn -0.1640 0.9021 -0.3992
vn -0.4528 0.7458 -0.4886
vn -0.7502 0.3734 -0.5457
vn -0.6979 0.4696 -0.5408
vn 0.6837 -0.0066 -0.7297
vn 0.7402 0.0713 -0.6686
vn -0.7550 0.0949 -0.6489
vn -0.7049 0.0219 -0.7090
vn 0.1446 -0.4130 -0.8992
vn -0.1201 -0.4234 -0.8979
vn -0.4635 -0.2191 -0.8586
vn -0.3753 -0.0829 -0.9232
vn -0.3726 0.2116 -0.9036
vn -0.3794 -0.1245 -0.9168
vn -0.1176 -0.3038 -0.9454
vn 0.1341 -0.2993 -0.9447
vn -0.3925 0.4388 -0.8083
vn -0.4093 0.4481 -0.7948
vn -0.1367 0.8545 -0.5011
vn -0.6493 -0.7152 -0.2586
vn -0.9600 -0.2634 -0.0952
vn 0.6360 -0.7257 -0.2624
vn 0.9567 0.2737 0.0990
vn -0.6436 0.7198 0.2603
vn 0.2030 0.9208 0.3329
vn 0.6411 0.7217 0.2610
# 160 vertex normals

vt 0.8422 0.9907 0.0000
vt 0.9984 0.9905 0.0000
vt 0.9971 0.0013 0.0000
vt 0.8409 0.0016 0.0000
vt 0.8357 0.0016 0.0000
vt 0.8371 0.9907 0.0000
vt 0.5673 0.9911 0.0000
vt 0.6461 0.9910 0.0000
vt 0.6448 0.0018 0.0000
vt 0.5660 0.0019 0.0000
vt 0.7569 0.0017 0.0000
vt 0.7583 0.9908 0.0000
vt 0.6478 0.9910 0.0000
vt 0.6622 0.9909 0.0000
vt 0.6609 0.0018 0.0000
vt 0.6464 0.0018 0.0000
vt 0.7558 0.0017 0.0000
vt 0.7414 0.0017 0.0000
vt 0.7428 0.9908 0.0000
vt 0.7571 0.9908 0.0000
vt 0.7403 0.0017 0.0000
vt 0.6625 0.0018 0.0000
vt 0.6638 0.9909 0.0000
vt 0.7416 0.9908 0.0000
vt 0.0099 0.9158 0.0000
vt 0.0099 0.8498 0.0000
vt 0.0041 0.8498 0.0000
vt 0.0041 0.9158 0.0000
vt 0.0105 0.9160 0.0000
vt 0.0246 0.9215 0.0000
vt 0.0246 0.8555 0.0000
vt 0.0105 0.8500 0.0000
vt 0.0296 0.9914 0.0000
vt 0.0296 0.9254 0.0000
vt 0.0199 0.9254 0.0000
vt 0.0199 0.9914 0.0000
vt 0.0302 0.9915 0.0000
vt 0.0443 0.9970 0.0000
vt 0.0443 0.9310 0.0000
vt 0.0302 0.9255 0.0000
vt 0.0193 0.9255 0.0000
vt 0.0052 0.9310 0.0000
vt 0.0052 0.9970 0.0000
vt 0.0193 0.9915 0.0000
vt 0.0484 0.9148 0.0000
vt 0.0484 0.8487 0.0000
vt 0.0439 0.8487 0.0000
vt 0.0439 0.9148 0.0000
vt 0.0433 0.8489 0.0000
vt 0.0292 0.8544 0.0000
vt 0.0292 0.9204 0.0000
vt 0.0433 0.9149 0.0000
vt 0.0733 0.8068 0.0000
vt 0.0694 0.8143 0.0000
vt 0.0828 0.8143 0.0000
vt 0.0828 0.8027 0.0000
vt 0.1909 0.8143 0.0000
vt 0.1909 0.8027 0.0000
vt 0.2043 0.8143 0.0000
vt 0.1997 0.8066 0.0000
vt 0.0694 0.9599 0.0000
vt 0.0828 0.9599 0.0000
vt 0.1909 0.9599 0.0000
vt 0.2043 0.9599 0.0000
vt 0.0741 0.9667 0.0000
vt 0.0828 0.9714 0.0000
vt 0.1909 0.9715 0.0000
vt 0.2002 0.9673 0.0000
vt 0.0827 0.8008 0.0000
vt 0.0716 0.8055 0.0000
vt 0.0671 0.8142 0.0000
vt 0.1910 0.8008 0.0000
vt 0.2014 0.8053 0.0000
vt 0.2066 0.8142 0.0000
vt 0.0671 0.9600 0.0000
vt 0.2066 0.9600 0.0000
vt 0.0725 0.9679 0.0000
vt 0.0827 0.9734 0.0000
vt 0.1910 0.9734 0.0000
vt 0.2020 0.9686 0.0000
vt 0.0598 0.8085 0.0000
vt 0.0614 0.8099 0.0000
vt 0.0674 0.8017 0.0000
vt 0.0660 0.7998 0.0000
vt 0.0793 0.7970 0.0000
vt 0.0783 0.7949 0.0000
vt 0.1944 0.7970 0.0000
vt 0.1955 0.7949 0.0000
vt 0.2056 0.8015 0.0000
vt 0.2123 0.8098 0.0000
vt 0.2139 0.8084 0.0000
vt 0.2070 0.7995 0.0000
vt 0.0595 0.9660 0.0000
vt 0.0611 0.9645 0.0000
vt 0.2126 0.9645 0.0000
vt 0.2142 0.9659 0.0000
vt 0.0680 0.9717 0.0000
vt 0.0666 0.9736 0.0000
vt 0.0791 0.9769 0.0000
vt 0.0781 0.9790 0.0000
vt 0.1954 0.9790 0.0000
vt 0.1944 0.9769 0.0000
vt 0.2077 0.9743 0.0000
vt 0.2064 0.9724 0.0000
vt 0.0616 0.7961 0.0000
vt 0.0539 0.8071 0.0000
vt 0.0767 0.7898 0.0000
vt 0.1970 0.7898 0.0000
vt 0.2197 0.8070 0.0000
vt 0.2113 0.7958 0.0000
vt 0.0537 0.9676 0.0000
vt 0.2201 0.9674 0.0000
vt 0.0624 0.9774 0.0000
vt 0.0764 0.9840 0.0000
vt 0.1969 0.9841 0.0000
vt 0.2119 0.9780 0.0000
vt 0.0596 0.7936 0.0000
vt 0.0509 0.8062 0.0000
vt 0.0760 0.7865 0.0000
vt 0.1977 0.7865 0.0000
vt 0.2227 0.8061 0.0000
vt 0.2133 0.7932 0.0000
vt 0.0508 0.9686 0.0000
vt 0.2231 0.9684 0.0000
vt 0.0603 0.9801 0.0000
vt 0.0756 0.9873 0.0000
vt 0.1976 0.9875 0.0000
vt 0.2140 0.9807 0.0000
vt 0.2481 0.8087 0.0000
vt 0.2441 0.8163 0.0000
vt 0.2577 0.8163 0.0000
vt 0.2577 0.8046 0.0000
vt 0.3668 0.8163 0.0000
vt 0.3668 0.8046 0.0000
vt 0.3803 0.8163 0.0000
vt 0.3757 0.8085 0.0000
vt 0.2442 0.9633 0.0000
vt 0.2576 0.9633 0.0000
vt 0.3668 0.9633 0.0000
vt 0.3803 0.9633 0.0000
vt 0.2490 0.9701 0.0000
vt 0.2577 0.9749 0.0000
vt 0.3668 0.9750 0.0000
vt 0.3763 0.9708 0.0000
vt 0.2576 0.8026 0.0000
vt 0.2464 0.8074 0.0000
vt 0.2418 0.8162 0.0000
vt 0.3669 0.8026 0.0000
vt 0.3774 0.8072 0.0000
vt 0.3826 0.8162 0.0000
vt 0.2418 0.9634 0.0000
vt 0.3827 0.9634 0.0000
vt 0.2473 0.9714 0.0000
vt 0.2576 0.9769 0.0000
vt 0.3669 0.9769 0.0000
vt 0.3780 0.9721 0.0000
vt 0.2355 0.8103 0.0000
vt 0.2371 0.8117 0.0000
vt 0.2431 0.8035 0.0000
vt 0.2417 0.8016 0.0000
vt 0.2550 0.7988 0.0000
vt 0.2540 0.7967 0.0000
vt 0.3702 0.7988 0.0000
vt 0.3712 0.7967 0.0000
vt 0.3813 0.8033 0.0000
vt 0.3880 0.8116 0.0000
vt 0.3896 0.8103 0.0000
vt 0.3827 0.8013 0.0000
vt 0.2352 0.9678 0.0000
vt 0.2368 0.9664 0.0000
vt 0.3884 0.9663 0.0000
vt 0.3900 0.9677 0.0000
vt 0.2437 0.9735 0.0000
vt 0.2424 0.9754 0.0000
vt 0.2549 0.9787 0.0000
vt 0.2538 0.9809 0.0000
vt 0.3711 0.9809 0.0000
vt 0.3701 0.9787 0.0000
vt 0.3834 0.9761 0.0000
vt 0.3821 0.9742 0.0000
vt 0.2374 0.7980 0.0000
vt 0.2296 0.8090 0.0000
vt 0.2524 0.7916 0.0000
vt 0.3728 0.7916 0.0000
vt 0.3955 0.8089 0.0000
vt 0.3870 0.7976 0.0000
vt 0.2294 0.9694 0.0000
vt 0.3959 0.9692 0.0000
vt 0.2381 0.9793 0.0000
vt 0.2521 0.9859 0.0000
vt 0.3726 0.9860 0.0000
vt 0.3877 0.9799 0.0000
vt 0.2353 0.7954 0.0000
vt 0.2266 0.8080 0.0000
vt 0.2518 0.7883 0.0000
vt 0.3735 0.7883 0.0000
vt 0.3984 0.8079 0.0000
vt 0.3891 0.7950 0.0000
vt 0.2266 0.9704 0.0000
vt 0.3988 0.9702 0.0000
vt 0.2360 0.9820 0.0000
vt 0.2514 0.9892 0.0000
vt 0.3733 0.9893 0.0000
vt 0.3897 0.9825 0.0000
# 204 texture coords

g Floor_A_Panel_Left
s 1
f 1/1/1 2/2/2 3/3/2 4/4/1 
f 1/1/1 4/4/1 5/5/3 6/6/4 
f 7/7/5 8/8/6 9/9/6 10/10/7 
f 5/5/3 11/11/7 12/12/7 6/6/4 
f 13/13/8 14/14/9 15/15/9 16/16/10 
f 17/17/11 18/18/11 19/19/11 20/20/11 
f 21/21/12 22/22/13 23/23/13 24/24/12 
f 9/9/6 8/8/6 13/13/8 16/16/10 
s 2
f 12/12/14 11/11/14 17/17/14 20/20/14 
s 1
f 15/15/9 14/14/9 23/23/13 22/22/13 
s 2
f 19/19/15 18/18/15 21/21/15 24/24/15 
s 1
f 25/25/16 26/26/17 27/27/18 28/28/18 
s 2
f 29/29/19 30/30/19 31/31/19 32/32/19 
s 1
f 26/26/17 25/25/16 29/29/20 32/32/21 
f 33/33/16 34/34/17 35/35/22 36/36/23 
s 2
f 37/37/19 38/38/19 39/39/19 40/40/19 
f 41/41/24 42/42/24 43/43/24 44/44/24 
s 1
f 34/34/17 33/33/16 37/37/20 40/40/21 
f 36/36/23 35/35/22 41/41/25 44/44/25 
f 45/45/18 46/46/18 47/47/22 48/48/23 
s 2
f 49/49/24 50/50/24 51/51/24 52/52/24 
s 1
f 48/48/23 47/47/22 49/49/25 52/52/25 
f 53/53/26 54/54/27 55/55/28 56/56/29 
f 56/56/29 55/55/28 57/57/30 58/58/31 
f 57/57/30 59/59/32 60/60/33 58/58/31 
f 55/55/28 54/54/27 61/61/34 62/62/28 
f 55/55/28 62/62/28 63/63/30 57/57/30 
f 57/57/30 63/63/30 64/64/35 59/59/32 
f 61/61/34 65/65/36 66/66/37 62/62/28 
f 62/62/28 66/66/37 67/67/38 63/63/30 
f 63/63/30 67/67/38 68/68/39 64/64/35 
f 53/53/26 56/56/29 69/69/40 70/70/41 
f 53/53/26 70/70/41 71/71/42 54/54/27 
f 56/56/29 58/58/31 72/72/43 69/69/40 
f 73/73/44 72/72/43 58/58/31 60/60/33 
f 74/74/45 73/73/44 60/60/33 59/59/32 
f 61/61/34 54/54/27 71/71/42 75/75/46 
f 59/59/32 64/64/35 76/76/47 74/74/45 
f 75/75/46 77/77/48 65/65/36 61/61/34 
f 66/66/37 65/65/36 77/77/48 78/78/49 
f 67/67/38 66/66/37 78/78/49 79/79/50 
f 68/68/39 80/80/51 76/76/47 64/64/35 
f 68/68/39 67/67/38 79/79/50 80/80/51 
f 81/81/52 82/82/53 83/83/54 84/84/55 
f 84/84/55 83/83/54 85/85/56 86/86/57 
f 85/85/56 87/87/58 88/88/59 86/86/57 
f 89/89/60 90/90/61 91/91/62 92/92/63 
f 88/88/59 87/87/58 89/89/60 92/92/63 
f 93/93/64 94/94/65 82/82/53 81/81/52 
f 90/90/61 95/95/66 96/96/67 91/91/62 
f 97/97/68 94/94/65 93/93/64 98/98/69 
f 99/99/70 97/97/68 98/98/69 100/100/71 
f 101/101/72 102/102/73 99/99/70 100/100/71 
f 103/103/74 104/104/75 102/102/73 101/101/72 
f 96/96/67 95/95/66 104/104/75 103/103/74 
s 2
f 105/105/76 106/106/77 81/81/78 84/84/79 
f 107/107/80 105/105/76 84/84/79 86/86/81 
f 86/86/81 88/88/82 108/108/83 107/107/80 
f 109/109/84 110/110/85 92/92/86 91/91/87 
f 110/110/85 108/108/83 88/88/82 92/92/86 
f 93/93/88 81/81/78 106/106/77 111/111/89 
f 91/91/87 96/96/90 112/112/91 109/109/84 
f 111/111/89 113/113/92 98/98/93 93/93/88 
f 113/113/92 114/114/94 100/100/95 98/98/93 
f 101/101/96 100/100/95 114/114/94 115/115/97 
f 115/115/97 116/116/98 103/103/99 101/101/96 
f 116/116/98 112/112/91 96/96/90 103/103/99 
s 1
f 105/105/100 117/117/101 118/118/102 106/106/103 
f 107/107/104 119/119/105 117/117/101 105/105/100 
f 108/108/106 120/120/107 119/119/105 107/107/104 
f 109/109/108 121/121/109 122/122/110 110/110/111 
f 110/110/111 122/122/110 120/120/107 108/108/106 
f 111/111/112 106/106/103 118/118/102 123/123/113 
f 112/112/114 124/124/115 121/121/109 109/109/108 
f 111/111/112 123/123/113 125/125/116 113/113/117 
f 113/113/117 125/125/116 126/126/118 114/114/119 
f 115/115/120 114/114/119 126/126/118 127/127/121 
f 115/115/120 127/127/121 128/128/122 116/116/123 
f 116/116/123 128/128/122 124/124/115 112/112/114 
f 129/129/26 130/130/27 131/131/28 132/132/29 
f 132/132/29 131/131/28 133/133/30 134/134/31 
f 133/133/30 135/135/32 136/136/33 134/134/31 
f 131/131/28 130/130/27 137/137/124 138/138/28 
f 131/131/28 138/138/28 139/139/30 133/133/30 
f 133/133/30 139/139/30 140/140/125 135/135/32 
f 137/137/124 141/141/36 142/142/37 138/138/28 
f 138/138/28 142/142/37 143/143/38 139/139/30 
f 139/139/30 143/143/38 144/144/126 140/140/125 
f 129/129/26 132/132/29 145/145/40 146/146/127 
f 129/129/26 146/146/127 147/147/128 130/130/27 
f 132/132/29 134/134/31 148/148/43 145/145/40 
f 149/149/129 148/148/43 134/134/31 136/136/33 
f 150/150/45 149/149/129 136/136/33 135/135/32 
f 137/137/124 130/130/27 147/147/128 151/151/130 
f 135/135/32 140/140/125 152/152/47 150/150/45 
f 151/151/130 153/153/48 141/141/36 137/137/124 
f 142/142/37 141/141/36 153/153/48 154/154/49 
f 143/143/38 142/142/37 154/154/49 155/155/50 
f 144/144/126 156/156/51 152/152/47 140/140/125 
f 144/144/126 143/143/38 155/155/50 156/156/51 
f 157/157/131 158/158/132 159/159/133 160/160/134 
f 160/160/134 159/159/133 161/161/56 162/162/57 
f 161/161/56 163/163/58 164/164/135 162/162/57 
f 165/165/136 166/166/137 167/167/138 168/168/63 
f 164/164/135 163/163/58 165/165/136 168/168/63 
f 169/169/139 170/170/140 158/158/132 157/157/131 
f 166/166/137 171/171/141 172/172/142 167/167/138 
f 173/173/68 170/170/140 169/169/139 174/174/69 
f 175/175/143 173/173/68 174/174/69 176/176/71 
f 177/177/72 178/178/144 175/175/143 176/176/71 
f 179/179/74 180/180/145 178/178/144 177/177/72 
f 172/172/142 171/171/141 180/180/145 179/179/74 
s 2
f 181/181/146 182/182/147 157/157/78 160/160/148 
f 183/183/80 181/181/146 160/160/148 162/162/149 
f 162/162/149 164/164/82 184/184/150 183/183/80 
f 185/185/84 186/186/85 168/168/86 167/167/87 
f 186/186/85 184/184/150 164/164/82 168/168/86 
f 169/169/151 157/157/78 182/182/147 187/187/152 
f 167/167/87 172/172/90 188/188/91 185/185/84 
f 187/187/152 189/189/92 174/174/93 169/169/151 
f 189/189/92 190/190/94 176/176/153 174/174/93 
f 177/177/96 176/176/153 190/190/94 191/191/97 
f 191/191/97 192/192/98 179/179/99 177/177/96 
f 192/192/98 188/188/91 172/172/90 179/179/99 
s 1
f 181/181/154 193/193/101 194/194/155 182/182/103 
f 183/183/104 195/195/105 193/193/101 181/181/154 
f 184/184/106 196/196/107 195/195/105 183/183/104 
f 185/185/108 197/197/109 198/198/110 186/186/156 
f 186/186/156 198/198/110 196/196/107 184/184/106 
f 187/187/112 182/182/103 194/194/155 199/199/113 
f 188/188/114 200/200/157 197/197/109 185/185/108 
f 187/187/112 199/199/113 201/201/116 189/189/158 
f 189/189/158 201/201/116 202/202/118 190/190/119 
f 191/191/120 190/190/119 202/202/118 203/203/159 
f 191/191/120 203/203/159 204/204/160 192/192/123 
f 192/192/123 204/204/160 200/200/157 188/188/114 
# 136 polygons

