# 3ds Max Wavefront OBJ Exporter v0.97b - (c)2007 guruware
# File Created: 01.07.2013 21:09:00

#
# object Hose_Straight_A
#

v  -0.2776 -82.5436 10.1209
v  1.6688 -82.5964 9.6021
v  1.6689 -68.0987 8.4519
v  -0.2776 -68.0716 8.9727
v  3.0938 -82.7406 8.1847
v  3.0939 -68.1730 7.0290
v  3.6156 -82.9376 6.2482
v  3.6156 -68.2744 5.0851
v  3.0942 -83.1345 4.3115
v  3.0941 -68.3758 3.1411
v  1.6692 -83.2788 2.8936
v  1.6691 -68.4500 1.7180
v  -0.2776 -83.3316 2.3746
v  -0.2776 -68.4772 1.1970
v  -2.2243 -83.2788 2.8936
v  -2.2242 -68.4500 1.7180
v  -3.6493 -83.1346 4.3115
v  -3.6492 -68.3758 3.1411
v  -4.1707 -82.9376 6.2482
v  -4.1707 -68.2744 5.0851
v  -3.6489 -82.7406 8.1847
v  -3.6490 -68.1730 7.0290
v  -2.2239 -82.5964 9.6021
v  -2.2240 -68.0987 8.4519
v  1.6696 -56.1475 8.3575
v  -0.2776 -56.1627 8.8792
v  3.0945 -56.1059 6.9325
v  3.6156 -56.0491 4.9865
v  3.0934 -55.9923 3.0410
v  1.6685 -55.9507 1.6173
v  -0.2776 -55.9355 1.0962
v  -2.2236 -55.9507 1.6173
v  -3.6486 -55.9923 3.0410
v  -4.1707 -56.0491 4.9865
v  -3.6497 -56.1059 6.9325
v  -2.2247 -56.1475 8.3575
v  1.6703 -46.5692 8.5770
v  -0.2776 -46.5660 9.0993
v  3.0953 -46.5778 7.1505
v  3.6156 -46.5896 5.2031
v  3.0926 -46.6012 3.2573
v  1.6676 -46.6097 1.8339
v  -0.2776 -46.6128 1.3131
v  -2.2227 -46.6097 1.8339
v  -3.6478 -46.6012 3.2573
v  -4.1707 -46.5896 5.2031
v  -3.6504 -46.5778 7.1505
v  -2.2254 -46.5692 8.5770
v  1.6702 -35.7735 8.5779
v  -0.2776 -35.7772 9.1002
v  3.0953 -35.7633 7.1515
v  3.6156 -35.7494 5.2042
v  3.0927 -35.7355 3.2584
v  1.6677 -35.7253 1.8350
v  -0.2776 -35.7216 1.3142
v  -2.2228 -35.7253 1.8350
v  -3.6478 -35.7355 3.2584
v  -4.1707 -35.7494 5.2042
v  -3.6504 -35.7633 7.1515
v  -2.2254 -35.7735 8.5779
v  1.6697 -23.3962 8.2318
v  -0.2776 -23.3989 8.7537
v  3.0947 -23.3886 6.8060
v  3.6156 -23.3783 4.8590
v  3.0933 -23.3680 2.9129
v  1.6683 -23.3605 1.4887
v  -0.2776 -23.3577 0.9676
v  -2.2234 -23.3605 1.4887
v  -3.6484 -23.3680 2.9129
v  -4.1707 -23.3783 4.8590
v  -3.6498 -23.3886 6.8060
v  -2.2248 -23.3962 8.2318
v  1.6691 -5.7150 7.7948
v  -0.2776 -5.6986 8.3162
v  3.0941 -5.7599 6.3705
v  3.6156 -5.8212 4.4248
v  3.0939 -5.8825 2.4793
v  1.6690 -5.9274 1.0550
v  -0.2776 -5.9438 0.5337
v  -2.2241 -5.9274 1.0550
v  -3.6490 -5.8825 2.4793
v  -4.1707 -5.8212 4.4248
v  -3.6492 -5.7599 6.3705
v  -2.2242 -5.7150 7.7948
v  1.6682 16.0016 7.1854
v  -0.2776 16.0075 7.7064
v  3.0932 15.9855 5.7614
v  3.6156 15.9636 3.8154
v  3.0947 15.9417 1.8685
v  1.6698 15.9257 0.4427
v  -0.2776 15.9198 -0.0793
v  -2.2249 15.9257 0.4427
v  -3.6499 15.9417 1.8685
v  -4.1707 15.9636 3.8154
v  -3.6483 15.9855 5.7614
v  -2.2233 16.0016 7.1853
v  1.6682 33.1995 6.4547
v  -0.2776 33.2099 6.9758
v  3.0932 33.1713 5.0309
v  3.6156 33.1327 3.0852
v  3.0947 33.0941 1.1385
v  1.6698 33.0658 -0.2871
v  -0.2776 33.0554 -0.8090
v  -2.2249 33.0658 -0.2871
v  -3.6499 33.0941 1.1385
v  -4.1707 33.1327 3.0852
v  -3.6483 33.1713 5.0309
v  -2.2234 33.1995 6.4547
v  1.6690 44.9029 5.8659
v  -0.2776 44.8997 6.3875
v  3.0940 44.9115 4.4409
v  3.6156 44.9231 2.4944
v  3.0940 44.9348 0.5478
v  1.6691 44.9432 -0.8773
v  -0.2776 44.9463 -1.3989
v  -2.2242 44.9432 -0.8773
v  -3.6492 44.9348 0.5478
v  -4.1707 44.9231 2.4944
v  -3.6491 44.9115 4.4409
v  -2.2241 44.9029 5.8659
v  1.6704 54.1433 5.3121
v  -0.2776 54.1674 5.8339
v  3.0954 54.0777 3.8869
v  3.6156 53.9884 1.9414
v  3.0926 53.8993 -0.0024
v  1.6676 53.8342 -1.4243
v  -0.2776 53.8104 -1.9445
v  -2.2227 53.8342 -1.4243
v  -3.6477 53.8993 -0.0024
v  -4.1707 53.9884 1.9414
v  -3.6506 54.0777 3.8869
v  -2.2256 54.1433 5.3121
v  1.6709 62.2926 4.8574
v  -0.2776 62.2700 5.3795
v  3.0959 62.3541 3.4315
v  3.6156 62.4382 1.4855
v  3.0920 62.5221 -0.4583
v  1.6669 62.5836 -1.8796
v  -0.2776 62.6061 -2.3995
v  -2.2221 62.5836 -1.8796
v  -3.6471 62.5221 -0.4583
v  -4.1708 62.4382 1.4855
v  -3.6511 62.3541 3.4315
v  -2.2260 62.2926 4.8574
v  1.6705 70.6639 4.3095
v  -0.2776 70.6288 4.8309
v  3.0953 70.7597 2.8860
v  3.6156 70.8905 0.9430
v  3.0931 71.0214 -0.9986
v  1.6682 71.1173 -2.4196
v  -0.2776 71.1525 -2.9396
v  -2.2234 71.1173 -2.4196
v  -3.6482 71.0214 -0.9986
v  -4.1707 70.8905 0.9430
v  -3.6505 70.7597 2.8859
v  -2.2256 70.6639 4.3095
v  -4.3154 80.3723 -4.9236
v  -6.9687 80.3746 -1.1970
v  -6.9687 81.5877 -1.1977
v  -4.3154 81.5855 -4.9244
v  0.0217 81.5846 -6.3797
v  0.0217 80.3715 -6.3789
v  4.3859 81.5854 -5.0077
v  4.3859 80.3723 -5.0070
v  7.1102 81.5876 -1.3327
v  7.1102 80.3745 -1.3319
v  7.1540 81.5904 3.2419
v  7.1540 80.3772 3.2426
v  4.5007 81.5926 6.9685
v  4.5007 80.3795 6.9692
v  0.1636 81.5935 8.4238
v  0.1636 80.3804 8.4246
v  -4.2006 81.5927 7.0519
v  -4.2006 80.3795 7.0526
v  -6.9249 81.5905 3.3768
v  -6.9249 80.3773 3.3775
v  -4.2695 81.6615 -4.8626
v  -6.8953 81.6637 -1.1747
v  -5.6932 81.7775 -0.7969
v  -3.5191 81.7757 -3.8503
v  0.0345 81.7749 -5.0428
v  0.0224 81.6607 -6.3027
v  3.6104 81.7756 -3.9187
v  4.3412 81.6615 -4.9451
v  5.8426 81.7774 -0.9074
v  7.0372 81.6637 -1.3082
v  5.8785 81.7797 2.8408
v  7.0806 81.6664 3.2188
v  3.7044 81.7815 5.8943
v  4.4548 81.6686 6.9067
v  0.1508 81.7823 7.0867
v  0.1628 81.6695 8.3468
v  -3.4251 81.7816 5.9626
v  -4.1559 81.6687 6.9892
v  -5.6573 81.7798 2.9513
v  -6.8519 81.6665 3.3523
v  -3.5487 80.0437 -3.8892
v  -5.7406 80.0456 -0.8107
v  -6.8953 80.2986 -1.1739
v  -4.2695 80.2964 -4.8617
v  0.0224 80.2955 -6.3019
v  0.0341 80.0430 -5.0914
v  4.3412 80.2963 -4.9443
v  3.6392 80.0437 -3.9581
v  7.0372 80.2985 -1.3074
v  5.8896 80.0455 -0.9222
v  7.0806 80.3012 3.2196
v  5.9259 80.0478 2.8567
v  4.4548 80.3034 6.9075
v  3.7340 80.0496 5.9352
v  0.1628 80.3043 8.3476
v  0.1512 80.0503 7.1374
v  -4.1559 80.3035 6.9900
v  -3.4539 80.0497 6.0041
v  -6.8519 80.3013 3.3531
v  -5.7043 80.0478 2.9682
v  -5.6932 85.7288 -0.7992
v  -3.5191 85.7270 -3.8527
v  0.0345 85.7263 -5.0451
v  3.6104 85.7269 -3.9211
v  5.8426 85.7288 -0.9098
v  5.8785 85.7310 2.8384
v  3.7044 85.7328 5.8919
v  0.1508 85.7336 7.0843
v  -3.4251 85.7329 5.9602
v  -5.6573 85.7311 2.9490
v  -6.8474 85.8636 -1.1622
v  -4.2397 85.8614 -4.8248
v  0.0229 85.8606 -6.2551
v  4.3121 85.8614 -4.9067
v  6.9897 85.8635 -1.2948
v  7.0328 85.8663 3.2012
v  4.4250 85.8685 6.8638
v  0.1624 85.8693 8.2941
v  -4.1268 85.8685 6.9458
v  -6.8044 85.8663 3.3338
v  -7.0489 86.0340 -1.2256
v  -4.3654 86.0317 -4.9945
v  0.0209 86.0308 -6.4663
v  4.4346 86.0317 -5.0789
v  7.1898 86.0339 -1.3621
v  7.2342 86.0367 3.2644
v  4.5507 86.0389 7.0333
v  0.1644 86.0398 8.5052
v  -4.2493 86.0390 7.1177
v  -7.0045 86.0368 3.4009
v  -7.0489 88.7092 -1.2272
v  -4.3654 88.7069 -4.9961
v  0.0209 88.7060 -6.4679
v  4.4346 88.7068 -5.0805
v  7.1898 88.7091 -1.3637
v  7.2342 88.7119 3.2628
v  4.5507 88.7142 7.0317
v  0.1644 88.7150 8.5035
v  -4.2493 88.7142 7.1161
v  -7.0045 88.7120 3.3992
v  -3.4796 79.9293 -3.7960
v  0.0352 79.9286 -4.9753
v  0.0352 78.1654 -4.9743
v  -3.4796 78.1661 -3.7949
v  3.5719 79.9292 -3.8635
v  3.5719 78.1661 -3.8625
v  5.7797 79.9310 -0.8852
v  5.7797 78.1679 -0.8841
v  5.8153 79.9332 2.8220
v  5.8153 78.1701 2.8231
v  3.6649 79.9350 5.8421
v  3.6649 78.1719 5.8432
v  0.1501 79.9358 7.0215
v  0.1501 78.1726 7.0226
v  -3.3866 79.9351 5.9097
v  -3.3866 78.1720 5.9108
v  -5.5944 79.9333 2.9314
v  -5.5944 78.1702 2.9324
v  -5.6300 79.9311 -0.7759
v  -5.6300 78.1679 -0.7748
v  -3.4106 78.0517 -3.7017
v  0.0363 78.0510 -4.8583
v  0.0439 77.9555 -4.0632
v  -2.9371 77.9561 -3.0629
v  3.5047 78.0516 -3.7680
v  3.0435 77.9561 -3.1202
v  5.6698 78.0534 -0.8472
v  4.9160 77.9576 -0.5942
v  5.7047 78.0556 2.7884
v  4.9462 77.9595 2.5500
v  3.5959 78.0574 5.7501
v  3.1224 77.9610 5.1114
v  0.1490 78.0580 6.9067
v  0.1414 77.9616 6.1117
v  -3.3194 78.0574 5.8164
v  -2.8582 77.9610 5.1688
v  -5.4845 78.0556 2.8956
v  -4.7307 77.9595 2.6428
v  -5.5194 78.0535 -0.7400
v  -4.7609 77.9576 -0.5015
v  0.0439 71.9825 -4.0596
v  -2.9371 71.9830 -3.0593
v  3.0435 71.9830 -3.1166
v  4.9160 71.9845 -0.5906
v  4.9462 71.9864 2.5536
v  3.1224 71.9880 5.1150
v  0.1414 71.9886 6.1153
v  -2.8582 71.9880 5.1724
v  -4.7307 71.9865 2.6463
v  -4.7609 71.9846 -0.4979
v  0.0537 70.6874 -3.0330
v  -2.3262 70.6879 -2.2344
v  2.4485 70.6878 -2.2802
v  3.9435 70.6890 -0.2635
v  3.9676 70.6906 2.2468
v  2.5115 70.6918 4.2917
v  0.1316 70.6922 5.0903
v  -2.2633 70.6918 4.3375
v  -3.7582 70.6906 2.3208
v  -3.7823 70.6891 -0.1895
v  -2.3262 72.5662 -2.2599
v  -3.7823 72.5674 -0.2150
v  0.0537 72.5657 -3.0585
v  2.4485 72.5662 -2.3057
v  3.9435 72.5674 -0.2890
v  3.9676 72.5689 2.2213
v  2.5115 72.5701 4.2662
v  0.1316 72.5706 5.0648
v  -2.2633 72.5702 4.3120
v  -3.7582 72.5690 2.2953
v  -5.5882 88.7092 -0.7680
v  -3.4536 88.7069 -3.7661
v  0.0356 88.7060 -4.9369
v  3.5466 88.7068 -3.8332
v  5.7383 88.7091 -0.8766
v  5.7735 88.7119 2.8036
v  3.6389 88.7142 5.8017
v  0.1497 88.7150 6.9725
v  -3.3613 88.7142 5.8688
v  -5.5529 88.7120 2.9122
v  -5.5882 86.1950 -0.7680
v  -3.4536 86.1927 -3.7661
v  0.0356 86.1918 -4.9369
v  3.5466 86.1927 -3.8332
v  5.7383 86.1949 -0.8766
v  5.7735 86.1977 2.8036
v  3.6389 86.2000 5.8017
v  0.1497 86.2009 6.9725
v  -3.3613 86.2000 5.8688
v  -5.5529 86.1978 2.9122
v  4.1401 -81.6667 -0.6527
v  6.7935 -81.6689 3.0739
v  6.7935 -82.8821 3.0732
v  4.1401 -82.8798 -0.6534
v  -0.1970 -82.8790 -2.1087
v  -0.1970 -81.6658 -2.1080
v  -4.5612 -82.8798 -0.7368
v  -4.5612 -81.6666 -0.7361
v  -7.2855 -82.8820 2.9383
v  -7.2855 -81.6688 2.9390
v  -7.3293 -82.8847 7.5128
v  -7.3293 -81.6716 7.5135
v  -4.6759 -82.8870 11.2394
v  -4.6759 -81.6738 11.2402
v  -0.3389 -82.8879 12.6947
v  -0.3389 -81.6747 12.6955
v  4.0253 -82.8870 11.3228
v  4.0253 -81.6739 11.3236
v  6.7496 -82.8848 7.6477
v  6.7496 -81.6717 7.6485
v  4.0943 -82.9559 -0.5917
v  6.7201 -82.9581 3.0962
v  5.5180 -83.0719 3.4741
v  3.3439 -83.0700 0.4206
v  -0.2098 -83.0693 -0.7719
v  -0.1977 -82.9550 -2.0318
v  -3.7857 -83.0700 0.3522
v  -4.5165 -82.9558 -0.6742
v  -6.0179 -83.0718 3.3635
v  -7.2125 -82.9580 2.9627
v  -6.0538 -83.0741 7.1117
v  -7.2559 -82.9607 7.4897
v  -3.8797 -83.0759 10.1652
v  -4.6301 -82.9630 11.1776
v  -0.3260 -83.0766 11.3577
v  -0.3381 -82.9638 12.6177
v  3.2498 -83.0759 10.2335
v  3.9807 -82.9630 11.2601
v  5.4820 -83.0741 7.2223
v  6.6767 -82.9608 7.6232
v  3.3734 -81.3381 0.3818
v  5.5653 -81.3399 3.4602
v  6.7201 -81.5929 3.0971
v  4.0943 -81.5907 -0.5908
v  -0.1977 -81.5899 -2.0310
v  -0.2093 -81.3373 -0.8204
v  -4.5165 -81.5906 -0.6734
v  -3.8144 -81.3380 0.3129
v  -7.2125 -81.5928 2.9635
v  -6.0649 -81.3398 3.3487
v  -7.2559 -81.5956 7.4905
v  -6.1011 -81.3421 7.1277
v  -4.6301 -81.5978 11.1784
v  -3.9093 -81.3440 10.2061
v  -0.3381 -81.5987 12.6186
v  -0.3265 -81.3447 11.4083
v  3.9807 -81.5978 11.2609
v  3.2786 -81.3440 10.2750
v  6.6767 -81.5956 7.6240
v  5.5291 -81.3422 7.2391
v  5.5180 -87.0232 3.4717
v  3.3439 -87.0213 0.4182
v  -0.2098 -87.0206 -0.7742
v  -3.7857 -87.0213 0.3499
v  -6.0179 -87.0231 3.3611
v  -6.0538 -87.0254 7.1093
v  -3.8797 -87.0272 10.1628
v  -0.3260 -87.0279 11.3553
v  3.2498 -87.0273 10.2312
v  5.4820 -87.0254 7.2199
v  6.6722 -87.1580 3.1088
v  4.0644 -87.1558 -0.5539
v  -0.1982 -87.1549 -1.9842
v  -4.4874 -87.1557 -0.6358
v  -7.1649 -87.1579 2.9761
v  -7.2080 -87.1606 7.4721
v  -4.6002 -87.1628 11.1347
v  -0.3376 -87.1637 12.5650
v  3.9516 -87.1629 11.2167
v  6.6291 -87.1607 7.6047
v  6.8736 -87.3283 3.0453
v  4.1901 -87.3261 -0.7236
v  -0.1962 -87.3252 -2.1954
v  -4.6099 -87.3260 -0.8079
v  -7.3651 -87.3282 2.9089
v  -7.4095 -87.3310 7.5353
v  -4.7260 -87.3333 11.3042
v  -0.3397 -87.3342 12.7761
v  4.0741 -87.3334 11.3886
v  6.8293 -87.3311 7.6718
v  6.8736 -90.0035 3.0437
v  4.1901 -90.0013 -0.7252
v  -0.1962 -90.0004 -2.1970
v  -4.6099 -90.0012 -0.8095
v  -7.3651 -90.0034 2.9073
v  -7.4095 -90.0062 7.5337
v  -4.7260 -90.0085 11.3027
v  -0.3397 -90.0094 12.7745
v  4.0741 -90.0085 11.3870
v  6.8293 -90.0063 7.6702
v  3.3044 -81.2236 0.4750
v  -0.2104 -81.2229 -0.7044
v  -0.2104 -79.4597 -0.7034
v  3.3044 -79.4604 0.4760
v  -3.7472 -81.2235 0.4074
v  -3.7472 -79.4604 0.4084
v  -5.9550 -81.2254 3.3857
v  -5.9550 -79.4622 3.3868
v  -5.9905 -81.2276 7.0930
v  -5.9905 -79.4644 7.0940
v  -3.8402 -81.2294 10.1130
v  -3.8402 -79.4663 10.1141
v  -0.3254 -81.2301 11.2924
v  -0.3254 -79.4670 11.2935
v  3.2114 -81.2294 10.1806
v  3.2114 -79.4663 10.1817
v  5.4192 -81.2277 7.2023
v  5.4192 -79.4645 7.2033
v  5.4547 -81.2254 3.4950
v  5.4547 -79.4623 3.4961
v  3.2354 -79.3460 0.5692
v  -0.2115 -79.3453 -0.5874
v  -0.2191 -79.2498 0.2077
v  2.7619 -79.2504 1.2080
v  -3.6799 -79.3460 0.5030
v  -3.2188 -79.2504 1.1507
v  -5.8451 -79.3477 3.4237
v  -5.0913 -79.2519 3.6767
v  -5.8799 -79.3499 7.0593
v  -5.1214 -79.2538 6.8209
v  -3.7712 -79.3517 10.0211
v  -3.2977 -79.2554 9.3824
v  -0.3243 -79.3524 11.1776
v  -0.3167 -79.2560 10.3826
v  3.1441 -79.3517 10.0873
v  2.6830 -79.2554 9.4397
v  5.3093 -79.3500 7.1665
v  4.5555 -79.2539 6.9137
v  5.3441 -79.3478 3.5310
v  4.5856 -79.2520 3.7694
v  -0.2191 -73.2768 0.2113
v  2.7619 -73.2774 1.2116
v  -3.2188 -73.2774 1.1543
v  -5.0913 -73.2789 3.6803
v  -5.1214 -73.2808 6.8245
v  -3.2977 -73.2823 9.3860
v  -0.3167 -73.2830 10.3862
v  2.6830 -73.2824 9.4433
v  4.5555 -73.2808 6.9173
v  4.5856 -73.2789 3.7730
v  -0.2290 -71.9817 1.2379
v  2.1510 -71.9822 2.0365
v  -2.6238 -71.9822 1.9907
v  -4.1188 -71.9834 4.0074
v  -4.1428 -71.9849 6.5177
v  -2.6868 -71.9861 8.5626
v  -0.3068 -71.9866 9.3612
v  2.0880 -71.9862 8.6084
v  3.5829 -71.9849 6.5917
v  3.6070 -71.9835 4.0814
v  2.1510 -73.8606 2.0110
v  3.6070 -73.8618 4.0560
v  -0.2290 -73.8601 1.2124
v  -2.6238 -73.8606 1.9652
v  -4.1188 -73.8617 3.9819
v  -4.1428 -73.8633 6.4922
v  -2.6868 -73.8645 8.5372
v  -0.3068 -73.8650 9.3357
v  2.0880 -73.8645 8.5829
v  3.5829 -73.8633 6.5662
v  5.4130 -90.0035 3.5029
v  3.2783 -90.0013 0.5048
v  -0.2108 -90.0004 -0.6660
v  -3.7218 -90.0012 0.4377
v  -5.9135 -90.0034 3.3943
v  -5.9488 -90.0062 7.0745
v  -3.8141 -90.0085 10.0726
v  -0.3250 -90.0094 11.2434
v  3.1860 -90.0085 10.1397
v  5.3777 -90.0063 7.1831
v  5.4130 -87.4893 3.5029
v  3.2783 -87.4871 0.5048
v  -0.2108 -87.4862 -0.6660
v  -3.7218 -87.4870 0.4377
v  -5.9135 -87.4893 3.3943
v  -5.9488 -87.4921 7.0745
v  -3.8141 -87.4943 10.0726
v  -0.3250 -87.4952 11.2434
v  3.1860 -87.4944 10.1397
v  5.3777 -87.4921 7.1831
# 536 vertices

vn -0.0000 0.0791 0.9969
vn 0.5015 0.0684 0.8625
vn 0.5025 0.0376 0.8637
vn 0.0000 0.0435 0.9991
vn 0.8675 0.0393 0.4959
vn 0.8685 0.0216 0.4952
vn 1.0000 -0.0003 -0.0035
vn 1.0000 -0.0002 -0.0058
vn 0.8644 -0.0397 -0.5012
vn 0.8635 -0.0219 -0.5039
vn 0.4984 -0.0685 -0.8642
vn 0.4975 -0.0378 -0.8666
vn 0.0000 -0.0790 -0.9969
vn 0.0000 -0.0436 -0.9990
vn -0.4984 -0.0685 -0.8642
vn -0.4975 -0.0378 -0.8666
vn -0.8644 -0.0397 -0.5012
vn -0.8635 -0.0219 -0.5039
vn -1.0000 -0.0003 -0.0035
vn -1.0000 -0.0002 -0.0058
vn -0.8675 0.0393 0.4959
vn -0.8685 0.0216 0.4952
vn -0.5015 0.0684 0.8625
vn -0.5025 0.0376 0.8637
vn 0.5012 -0.0065 0.8653
vn 0.0000 -0.0075 1.0000
vn 0.8672 -0.0038 0.4979
vn 1.0000 -0.0000 -0.0029
vn 0.8647 0.0038 -0.5022
vn 0.4987 0.0066 -0.8668
vn 0.0000 0.0077 -1.0000
vn -0.4987 0.0066 -0.8668
vn -0.8647 0.0038 -0.5022
vn -1.0000 -0.0000 -0.0029
vn -0.8672 -0.0038 0.4979
vn -0.5011 -0.0065 0.8653
vn 0.4994 -0.0100 0.8663
vn 0.0000 -0.0115 0.9999
vn 0.8655 -0.0058 0.5009
vn 1.0000 -0.0001 0.0012
vn 0.8665 0.0058 -0.4991
vn 0.5005 0.0101 -0.8657
vn 0.0000 0.0117 -0.9999
vn -0.5004 0.0101 -0.8657
vn -0.8665 0.0058 -0.4992
vn -1.0000 -0.0000 0.0012
vn -0.8655 -0.0058 0.5009
vn -0.4994 -0.0100 0.8663
vn 0.4992 0.0121 0.8664
vn 0.0000 0.0139 0.9999
vn 0.8653 0.0070 0.5012
vn 1.0000 0.0001 0.0016
vn 0.8667 -0.0070 -0.4988
vn 0.5006 -0.0121 -0.8656
vn -0.0000 -0.0140 -0.9999
vn -0.5006 -0.0121 -0.8656
vn -0.8667 -0.0069 -0.4988
vn -1.0000 0.0001 0.0016
vn -0.8653 0.0070 0.5012
vn -0.4992 0.0121 0.8664
vn 0.5001 0.0228 0.8657
vn 0.0000 0.0264 0.9997
vn 0.8662 0.0132 0.4995
vn 1.0000 -0.0000 -0.0006
vn 0.8656 -0.0132 -0.5005
vn 0.4996 -0.0229 -0.8660
vn -0.0000 -0.0264 -0.9997
vn -0.4996 -0.0229 -0.8660
vn -0.8657 -0.0132 -0.5005
vn -1.0000 -0.0000 -0.0007
vn -0.8662 0.0132 0.4995
vn -0.5001 0.0228 0.8657
vn 0.4999 0.0229 0.8658
vn -0.0000 0.0264 0.9997
vn 0.8659 0.0132 0.5000
vn 1.0000 0.0000 0.0002
vn 0.8661 -0.0132 -0.4996
vn 0.5001 -0.0229 -0.8657
vn -0.0000 -0.0265 -0.9996
vn -0.5001 -0.0229 -0.8657
vn -0.8661 -0.0132 -0.4997
vn -1.0000 0.0000 0.0002
vn -0.8659 0.0132 0.5000
vn -0.4999 0.0229 0.8658
vn 0.4992 0.0305 0.8659
vn -0.0000 0.0352 0.9994
vn 0.8653 0.0177 0.5010
vn 0.8667 -0.0176 -0.4986
vn 0.5006 -0.0306 -0.8651
vn -0.0000 -0.0353 -0.9994
vn -0.5006 -0.0306 -0.8651
vn -0.8667 -0.0176 -0.4986
vn -0.8653 0.0177 0.5010
vn -0.4992 0.0305 0.8659
vn 0.4994 0.0401 0.8654
vn -0.0000 0.0463 0.9989
vn 0.8655 0.0232 0.5004
vn 1.0000 0.0001 0.0010
vn 0.8664 -0.0230 -0.4988
vn 0.5003 -0.0399 -0.8649
vn 0.0000 -0.0461 -0.9989
vn -0.5003 -0.0399 -0.8649
vn -0.8664 -0.0231 -0.4988
vn -1.0000 0.0001 0.0010
vn -0.8655 0.0232 0.5004
vn -0.4994 0.0401 0.8654
vn 0.4991 0.0477 0.8652
vn 0.0000 0.0549 0.9985
vn 0.8653 0.0277 0.5004
vn 1.0000 0.0001 0.0009
vn 0.8661 -0.0277 -0.4991
vn 0.4999 -0.0481 -0.8648
vn -0.0000 -0.0556 -0.9985
vn -0.4999 -0.0480 -0.8648
vn -0.8661 -0.0276 -0.4991
vn -1.0000 0.0001 0.0009
vn -0.8653 0.0275 0.5004
vn -0.4991 0.0476 0.8652
vn 0.5004 0.0498 0.8644
vn -0.0000 0.0578 0.9983
vn 0.8665 0.0285 0.4983
vn 1.0000 -0.0001 -0.0014
vn 0.8653 -0.0284 -0.5004
vn 0.4993 -0.0490 -0.8651
vn 0.0000 -0.0566 -0.9984
vn -0.4992 -0.0492 -0.8651
vn -0.8653 -0.0286 -0.5004
vn -1.0000 -0.0000 -0.0013
vn -0.8665 0.0289 0.4984
vn -0.5004 0.0501 0.8643
vn 0.4984 0.0524 0.8654
vn -0.0001 0.0606 0.9982
vn 0.8651 0.0301 0.5006
vn 1.0000 0.0001 -0.0003
vn 0.8650 -0.0292 -0.5010
vn 0.4983 -0.0501 -0.8656
vn 0.0001 -0.0575 -0.9983
vn -0.4982 -0.0500 -0.8656
vn -0.8650 -0.0290 -0.5009
vn -1.0000 0.0002 -0.0001
vn -0.8651 0.0301 0.5007
vn -0.4984 0.0523 0.8654
vn 0.5068 0.0564 0.8602
vn -0.0001 0.0654 0.9979
vn 0.8740 0.0317 0.4849
vn 0.9997 -0.0013 -0.0225
vn 0.8545 -0.0331 -0.5183
vn 0.4877 -0.0553 -0.8713
vn 0.0000 -0.0631 -0.9980
vn -0.4877 -0.0552 -0.8713
vn -0.8546 -0.0330 -0.5183
vn -0.9997 -0.0014 -0.0224
vn -0.8740 0.0314 0.4849
vn -0.5069 0.0561 0.8602
vn -0.5554 -0.3614 -0.7490
vn -0.8897 -0.3611 -0.2795
vn -0.8897 0.3607 -0.2799
vn -0.5554 0.3605 -0.7494
vn -0.0089 0.3603 -0.9328
vn -0.0089 -0.3614 -0.9324
vn 0.5409 0.3604 -0.7599
vn 0.5409 -0.3613 -0.7595
vn 0.8842 0.3607 -0.2969
vn 0.8842 -0.3611 -0.2965
vn 0.8897 0.3610 0.2795
vn 0.8897 -0.3607 0.2799
vn 0.5554 0.3613 0.7490
vn 0.5554 -0.3605 0.7494
vn 0.0089 0.3614 0.9324
vn 0.0089 -0.3603 0.9328
vn -0.5409 0.3615 0.7595
vn -0.5409 -0.3604 0.7599
vn -0.8842 0.3611 0.2965
vn -0.8842 -0.3607 0.2969
vn -0.2818 0.8807 -0.3807
vn -0.4515 0.8808 -0.1425
vn -0.0856 0.9959 -0.0275
vn -0.0534 0.9959 -0.0727
vn -0.0009 0.9959 -0.0903
vn -0.0045 0.8806 -0.4738
vn 0.0520 0.9959 -0.0737
vn 0.2745 0.8807 -0.3861
vn 0.0851 0.9959 -0.0291
vn 0.4487 0.8808 -0.1511
vn 0.0856 0.9960 0.0263
vn 0.4516 0.8810 0.1414
vn 0.0534 0.9960 0.0715
vn 0.2819 0.8811 0.3798
vn 0.0009 0.9960 0.0892
vn 0.0045 0.8812 0.4728
vn -0.0520 0.9960 0.0725
vn -0.2744 0.8812 0.3849
vn -0.0851 0.9960 0.0279
vn -0.4487 0.8810 0.1500
vn -0.2543 -0.9045 -0.3425
vn -0.4073 -0.9043 -0.1275
vn -0.4907 -0.8576 -0.1537
vn -0.3063 -0.8578 -0.4127
vn -0.0049 -0.8578 -0.5139
vn -0.0041 -0.9046 -0.4263
vn 0.2984 -0.8578 -0.4186
vn 0.2477 -0.9045 -0.3473
vn 0.4877 -0.8576 -0.1631
vn 0.4047 -0.9044 -0.1353
vn 0.4908 -0.8574 0.1548
vn 0.4073 -0.9042 0.1286
vn 0.3063 -0.8573 0.4138
vn 0.2543 -0.9040 0.3436
vn 0.0049 -0.8572 0.5149
vn 0.0041 -0.9040 0.4275
vn -0.2984 -0.8573 0.4196
vn -0.2477 -0.9040 0.3484
vn -0.4877 -0.8574 0.1642
vn -0.4048 -0.9042 0.1364
vn -0.5955 -0.0005 -0.8033
vn -0.9540 -0.0002 -0.2999
vn -0.0096 -0.0006 -1.0000
vn 0.5800 -0.0005 -0.8146
vn 0.9481 -0.0002 -0.3181
vn 0.9540 0.0002 0.2999
vn 0.5955 0.0005 0.8033
vn 0.0096 0.0006 1.0000
vn -0.5800 0.0005 0.8146
vn -0.9481 0.0002 0.3181
vn -0.0660 -0.9939 -0.0885
vn -0.1058 -0.9938 -0.0327
vn -0.4106 -0.9027 -0.1285
vn -0.2563 -0.9028 -0.3452
vn -0.0011 -0.9939 -0.1103
vn -0.0041 -0.9029 -0.4298
vn 0.0643 -0.9939 -0.0898
vn 0.2496 -0.9029 -0.3500
vn 0.1051 -0.9939 -0.0347
vn 0.4080 -0.9027 -0.1364
vn 0.1058 -0.9938 0.0339
vn 0.4106 -0.9026 0.1296
vn 0.0660 -0.9938 0.0897
vn 0.2563 -0.9024 0.3463
vn 0.0011 -0.9938 0.1115
vn 0.0041 -0.9024 0.4309
vn -0.0643 -0.9938 0.0909
vn -0.2496 -0.9024 0.3511
vn -0.1052 -0.9938 0.0359
vn -0.4080 -0.9026 0.1374
vn -0.5991 -0.7784 -0.1879
vn -0.3740 -0.7785 -0.5040
vn -0.0060 -0.7787 -0.6274
vn 0.3642 -0.7786 -0.5111
vn 0.5954 -0.7783 -0.1993
vn 0.5991 -0.7781 0.1888
vn 0.3740 -0.7779 0.5049
vn 0.0060 -0.7779 0.6284
vn -0.3642 -0.7779 0.5120
vn -0.5953 -0.7781 0.2002
vn -0.5417 -0.4159 -0.7305
vn -0.0087 -0.4162 -0.9093
vn -0.0089 -0.3615 -0.9323
vn 0.5276 -0.4159 -0.7407
vn 0.8623 -0.4158 -0.2891
vn 0.8842 -0.3610 -0.2965
vn 0.8677 -0.4153 0.2730
vn 0.5417 -0.4150 0.7310
vn 0.0087 -0.4149 0.9098
vn 0.0089 -0.3604 0.9328
vn -0.5276 -0.4150 0.7412
vn -0.8623 -0.4154 0.2896
vn -0.8677 -0.4156 -0.2725
vn -0.2882 -0.8753 -0.3883
vn -0.0046 -0.8753 -0.4835
vn -0.0011 -0.9929 -0.1192
vn -0.0714 -0.9929 -0.0957
vn 0.2808 -0.8753 -0.3938
vn 0.0695 -0.9929 -0.0970
vn 0.4590 -0.8751 -0.1535
vn 0.1136 -0.9928 -0.0375
vn 0.4618 -0.8750 0.1457
vn 0.1143 -0.9928 0.0365
vn 0.2883 -0.8748 0.3894
vn 0.0714 -0.9927 0.0969
vn 0.0046 -0.8748 0.4845
vn 0.0012 -0.9927 0.1204
vn -0.2808 -0.8748 0.3949
vn -0.0695 -0.9927 0.0982
vn -0.4590 -0.8749 0.1545
vn -0.1136 -0.9928 0.0387
vn -0.4617 -0.8752 -0.1446
vn -0.1143 -0.9928 -0.0353
vn -0.0091 -0.3107 -0.9505
vn -0.5662 -0.3106 -0.7636
vn 0.5514 -0.3106 -0.7743
vn 0.9013 -0.3103 -0.3022
vn 0.9069 -0.3099 0.2853
vn 0.5662 -0.3097 0.7639
vn 0.0091 -0.3095 0.9508
vn -0.5514 -0.3096 0.7746
vn -0.9013 -0.3099 0.3026
vn -0.9069 -0.3103 -0.2849
vn -0.0075 -0.6212 -0.7836
vn -0.4669 -0.6211 -0.6295
vn 0.4547 -0.6211 -0.6383
vn 0.7433 -0.6209 -0.2490
vn 0.7479 -0.6206 0.2355
vn 0.4669 -0.6203 0.6302
vn 0.0075 -0.6202 0.7844
vn -0.4547 -0.6203 0.6391
vn -0.7433 -0.6206 0.2498
vn -0.7479 -0.6209 -0.2347
vn 0.9547 0.0040 0.2976
vn 0.5967 0.0109 0.8024
vn 0.5943 0.0109 0.8042
vn 0.9532 0.0041 0.3022
vn 0.0096 0.0136 0.9999
vn -0.5812 0.0110 0.8137
vn -0.5788 0.0111 0.8154
vn -0.9488 0.0043 0.3158
vn -0.9473 0.0043 0.3204
vn -0.9532 -0.0041 -0.3022
vn -0.9547 -0.0040 -0.2976
vn -0.5943 -0.0109 -0.8042
vn -0.5967 -0.0109 -0.8024
vn -0.0096 -0.0136 -0.9999
vn 0.5788 -0.0111 -0.8154
vn 0.5812 -0.0110 -0.8137
vn 0.9473 -0.0043 -0.3204
vn 0.9488 -0.0043 -0.3158
vn 0.0003 1.0000 -0.0004
vn 0.0002 1.0000 -0.0001
vn -0.0002 1.0000 -0.0001
vn -0.0003 1.0000 -0.0004
vn -0.0000 1.0000 -0.0007
vn 0.8146 0.0000 0.5800
vn 0.3181 0.0000 0.9481
vn -0.2999 0.0000 0.9540
vn -0.8033 0.0000 0.5955
vn -1.0000 0.0000 0.0096
vn -0.8146 0.0000 -0.5800
vn -0.3181 0.0000 -0.9481
vn 0.2999 0.0000 -0.9540
vn 0.8033 0.0000 -0.5955
vn 1.0000 0.0000 -0.0096
vn -0.0000 1.0000 -0.0008
vn 0.0000 1.0000 -0.0008
vn 0.5554 0.3614 -0.7490
vn 0.8897 0.3611 -0.2795
vn 0.8897 -0.3607 -0.2799
vn 0.5554 -0.3605 -0.7494
vn 0.0089 -0.3603 -0.9328
vn 0.0089 0.3614 -0.9324
vn -0.5409 -0.3604 -0.7599
vn -0.5409 0.3613 -0.7595
vn -0.8842 -0.3607 -0.2969
vn -0.8842 0.3611 -0.2965
vn -0.8897 -0.3610 0.2795
vn -0.8897 0.3607 0.2799
vn -0.5554 -0.3613 0.7490
vn -0.5554 0.3605 0.7494
vn -0.0089 -0.3614 0.9324
vn -0.0089 0.3603 0.9328
vn 0.5409 -0.3615 0.7595
vn 0.5409 0.3604 0.7599
vn 0.8842 -0.3611 0.2965
vn 0.8842 0.3607 0.2969
vn 0.2818 -0.8807 -0.3807
vn 0.4515 -0.8808 -0.1425
vn 0.0856 -0.9959 -0.0275
vn 0.0534 -0.9959 -0.0727
vn 0.0009 -0.9959 -0.0903
vn 0.0045 -0.8806 -0.4738
vn -0.0520 -0.9959 -0.0737
vn -0.2745 -0.8807 -0.3861
vn -0.0851 -0.9959 -0.0291
vn -0.4487 -0.8808 -0.1511
vn -0.0856 -0.9960 0.0263
vn -0.4516 -0.8810 0.1414
vn -0.0534 -0.9960 0.0715
vn -0.2819 -0.8811 0.3798
vn -0.0009 -0.9960 0.0892
vn -0.0045 -0.8812 0.4728
vn 0.0520 -0.9960 0.0725
vn 0.2744 -0.8812 0.3849
vn 0.0851 -0.9960 0.0279
vn 0.4487 -0.8810 0.1500
vn 0.2543 0.9045 -0.3425
vn 0.4073 0.9043 -0.1275
vn 0.4907 0.8576 -0.1537
vn 0.3063 0.8578 -0.4127
vn 0.0049 0.8578 -0.5139
vn 0.0041 0.9046 -0.4263
vn -0.2984 0.8578 -0.4186
vn -0.2477 0.9045 -0.3473
vn -0.4877 0.8576 -0.1631
vn -0.4047 0.9044 -0.1353
vn -0.4908 0.8574 0.1548
vn -0.4073 0.9042 0.1286
vn -0.3063 0.8573 0.4138
vn -0.2543 0.9040 0.3436
vn -0.0049 0.8572 0.5149
vn -0.0041 0.9040 0.4275
vn 0.2984 0.8573 0.4196
vn 0.2477 0.9040 0.3484
vn 0.4877 0.8574 0.1642
vn 0.4048 0.9042 0.1364
vn 0.5955 0.0005 -0.8033
vn 0.9540 0.0002 -0.2999
vn 0.0096 0.0006 -1.0000
vn -0.5800 0.0005 -0.8146
vn -0.9481 0.0002 -0.3181
vn -0.9540 -0.0002 0.2999
vn -0.5955 -0.0005 0.8033
vn -0.0096 -0.0006 1.0000
vn 0.5800 -0.0005 0.8146
vn 0.9481 -0.0002 0.3181
vn 0.0660 0.9939 -0.0885
vn 0.1058 0.9938 -0.0327
vn 0.4106 0.9027 -0.1285
vn 0.2563 0.9028 -0.3452
vn 0.0011 0.9939 -0.1103
vn 0.0041 0.9029 -0.4298
vn -0.0643 0.9939 -0.0898
vn -0.2496 0.9029 -0.3500
vn -0.1051 0.9939 -0.0347
vn -0.4080 0.9027 -0.1364
vn -0.1058 0.9938 0.0339
vn -0.4106 0.9026 0.1296
vn -0.0660 0.9938 0.0897
vn -0.2563 0.9024 0.3463
vn -0.0011 0.9938 0.1115
vn -0.0041 0.9024 0.4309
vn 0.0643 0.9938 0.0909
vn 0.2496 0.9024 0.3511
vn 0.1052 0.9938 0.0359
vn 0.4080 0.9026 0.1374
vn 0.5991 0.7784 -0.1879
vn 0.3740 0.7785 -0.5040
vn 0.0060 0.7787 -0.6274
vn -0.3642 0.7786 -0.5111
vn -0.5954 0.7783 -0.1993
vn -0.5991 0.7781 0.1888
vn -0.3740 0.7779 0.5049
vn -0.0060 0.7779 0.6284
vn 0.3642 0.7779 0.5120
vn 0.5953 0.7781 0.2002
vn 0.5417 0.4159 -0.7305
vn 0.0087 0.4162 -0.9093
vn 0.0089 0.3615 -0.9323
vn -0.5276 0.4159 -0.7407
vn -0.8623 0.4158 -0.2891
vn -0.8842 0.3610 -0.2965
vn -0.8677 0.4153 0.2730
vn -0.5417 0.4150 0.7310
vn -0.0087 0.4149 0.9098
vn -0.0089 0.3604 0.9328
vn 0.5276 0.4150 0.7412
vn 0.8623 0.4154 0.2896
vn 0.8677 0.4156 -0.2725
vn 0.2882 0.8753 -0.3883
vn 0.0046 0.8753 -0.4835
vn 0.0011 0.9929 -0.1192
vn 0.0714 0.9929 -0.0957
vn -0.2808 0.8753 -0.3938
vn -0.0695 0.9929 -0.0970
vn -0.4590 0.8751 -0.1535
vn -0.1136 0.9928 -0.0375
vn -0.4618 0.8750 0.1457
vn -0.1143 0.9928 0.0365
vn -0.2883 0.8748 0.3894
vn -0.0714 0.9927 0.0969
vn -0.0046 0.8748 0.4845
vn -0.0012 0.9927 0.1204
vn 0.2808 0.8748 0.3949
vn 0.0695 0.9927 0.0982
vn 0.4590 0.8749 0.1545
vn 0.1136 0.9928 0.0387
vn 0.4617 0.8752 -0.1446
vn 0.1143 0.9928 -0.0353
vn 0.0091 0.3107 -0.9505
vn 0.5662 0.3106 -0.7636
vn -0.5514 0.3106 -0.7743
vn -0.9013 0.3103 -0.3022
vn -0.9069 0.3099 0.2853
vn -0.5662 0.3097 0.7639
vn -0.0091 0.3095 0.9508
vn 0.5514 0.3096 0.7746
vn 0.9013 0.3099 0.3026
vn 0.9069 0.3103 -0.2849
vn 0.0075 0.6212 -0.7836
vn 0.4669 0.6211 -0.6295
vn -0.4547 0.6211 -0.6383
vn -0.7433 0.6209 -0.2490
vn -0.7479 0.6206 0.2355
vn -0.4669 0.6203 0.6302
vn -0.0075 0.6202 0.7844
vn 0.4547 0.6203 0.6391
vn 0.7433 0.6206 0.2498
vn 0.7479 0.6209 -0.2347
vn -0.9547 -0.0040 0.2976
vn -0.5967 -0.0109 0.8024
vn -0.5943 -0.0109 0.8042
vn -0.9532 -0.0041 0.3022
vn -0.0096 -0.0136 0.9999
vn 0.5812 -0.0110 0.8137
vn 0.5788 -0.0111 0.8154
vn 0.9488 -0.0043 0.3158
vn 0.9473 -0.0043 0.3204
vn 0.9532 0.0041 -0.3022
vn 0.9547 0.0040 -0.2976
vn 0.5943 0.0109 -0.8042
vn 0.5967 0.0109 -0.8024
vn 0.0096 0.0136 -0.9999
vn -0.5788 0.0111 -0.8154
vn -0.5812 0.0110 -0.8137
vn -0.9473 0.0043 -0.3204
vn -0.9488 0.0043 -0.3158
vn -0.0003 -1.0000 -0.0004
vn -0.0002 -1.0000 -0.0001
vn 0.0002 -1.0000 -0.0001
vn 0.0003 -1.0000 -0.0004
vn 0.0000 -1.0000 -0.0007
vn -0.8146 -0.0000 0.5800
vn -0.3181 -0.0000 0.9481
vn 0.2999 -0.0000 0.9540
vn 0.8033 -0.0000 0.5955
vn 1.0000 -0.0000 0.0096
vn 0.8146 0.0000 -0.5800
vn 0.3181 0.0000 -0.9481
vn -0.2999 0.0000 -0.9540
vn -0.8033 0.0000 -0.5955
vn -1.0000 0.0000 -0.0096
vn 0.0000 -1.0000 -0.0008
vn -0.0000 -1.0000 -0.0008
# 530 vertex normals

vt 0.2935 0.5225 0.0000
vt 0.2993 0.5224 0.0000
vt 0.2993 0.5654 0.0000
vt 0.2932 0.5655 0.0000
vt 0.3051 0.5221 0.0000
vt 0.3053 0.5653 0.0000
vt 0.3109 0.5217 0.0000
vt 0.3114 0.5652 0.0000
vt 0.3169 0.5213 0.0000
vt 0.3174 0.5651 0.0000
vt 0.3228 0.5210 0.0000
vt 0.3233 0.5650 0.0000
vt 0.3288 0.5209 0.0000
vt 0.3293 0.5650 0.0000
vt 0.2583 0.5208 0.0000
vt 0.2642 0.5210 0.0000
vt 0.2632 0.5650 0.0000
vt 0.2572 0.5649 0.0000
vt 0.2702 0.5213 0.0000
vt 0.2692 0.5651 0.0000
vt 0.2761 0.5217 0.0000
vt 0.2752 0.5652 0.0000
vt 0.2819 0.5221 0.0000
vt 0.2812 0.5654 0.0000
vt 0.2877 0.5224 0.0000
vt 0.2872 0.5655 0.0000
vt 0.2987 0.6009 0.0000
vt 0.2928 0.6008 0.0000
vt 0.3047 0.6011 0.0000
vt 0.3106 0.6014 0.0000
vt 0.3166 0.6016 0.0000
vt 0.3225 0.6019 0.0000
vt 0.3285 0.6020 0.0000
vt 0.2630 0.6019 0.0000
vt 0.2571 0.6020 0.0000
vt 0.2690 0.6017 0.0000
vt 0.2749 0.6014 0.0000
vt 0.2808 0.6011 0.0000
vt 0.2868 0.6009 0.0000
vt 0.2984 0.6293 0.0000
vt 0.2928 0.6293 0.0000
vt 0.3041 0.6293 0.0000
vt 0.3099 0.6293 0.0000
vt 0.3159 0.6294 0.0000
vt 0.3218 0.6294 0.0000
vt 0.3278 0.6295 0.0000
vt 0.2636 0.6295 0.0000
vt 0.2577 0.6296 0.0000
vt 0.2696 0.6295 0.0000
vt 0.2755 0.6294 0.0000
vt 0.2814 0.6294 0.0000
vt 0.2871 0.6293 0.0000
vt 0.2983 0.6613 0.0000
vt 0.2927 0.6612 0.0000
vt 0.3040 0.6613 0.0000
vt 0.3098 0.6614 0.0000
vt 0.3157 0.6615 0.0000
vt 0.3217 0.6616 0.0000
vt 0.3277 0.6616 0.0000
vt 0.2637 0.6618 0.0000
vt 0.2578 0.6618 0.0000
vt 0.2697 0.6617 0.0000
vt 0.2757 0.6616 0.0000
vt 0.2815 0.6614 0.0000
vt 0.2871 0.6613 0.0000
vt 0.2987 0.6979 0.0000
vt 0.2927 0.6979 0.0000
vt 0.3046 0.6979 0.0000
vt 0.3105 0.6980 0.0000
vt 0.3165 0.6981 0.0000
vt 0.3225 0.6982 0.0000
vt 0.3284 0.6981 0.0000
vt 0.2629 0.6985 0.0000
vt 0.2570 0.6985 0.0000
vt 0.2689 0.6984 0.0000
vt 0.2749 0.6982 0.0000
vt 0.2808 0.6981 0.0000
vt 0.2868 0.6979 0.0000
vt 0.2992 0.7501 0.0000
vt 0.2928 0.7502 0.0000
vt 0.3055 0.7501 0.0000
vt 0.3115 0.7499 0.0000
vt 0.3175 0.7498 0.0000
vt 0.3236 0.7497 0.0000
vt 0.3295 0.7496 0.0000
vt 0.2619 0.7503 0.0000
vt 0.2560 0.7503 0.0000
vt 0.2678 0.7502 0.0000
vt 0.2738 0.7502 0.0000
vt 0.2799 0.7502 0.0000
vt 0.2863 0.7502 0.0000
vt 0.3008 0.8143 0.0000
vt 0.2948 0.8143 0.0000
vt 0.3069 0.8144 0.0000
vt 0.3129 0.8144 0.0000
vt 0.3190 0.8144 0.0000
vt 0.3249 0.8145 0.0000
vt 0.3309 0.8144 0.0000
vt 0.2649 0.8151 0.0000
vt 0.2589 0.8153 0.0000
vt 0.2709 0.8149 0.0000
vt 0.2769 0.8147 0.0000
vt 0.2828 0.8145 0.0000
vt 0.2888 0.8144 0.0000
vt 0.3027 0.8652 0.0000
vt 0.2966 0.8652 0.0000
vt 0.3088 0.8652 0.0000
vt 0.3148 0.8652 0.0000
vt 0.3207 0.8653 0.0000
vt 0.3265 0.8653 0.0000
vt 0.3325 0.8652 0.0000
vt 0.2665 0.8659 0.0000
vt 0.2605 0.8660 0.0000
vt 0.2725 0.8657 0.0000
vt 0.2785 0.8656 0.0000
vt 0.2845 0.8654 0.0000
vt 0.2905 0.8653 0.0000
vt 0.3024 0.8998 0.0000
vt 0.2965 0.8998 0.0000
vt 0.3083 0.8999 0.0000
vt 0.3143 0.9002 0.0000
vt 0.3202 0.9004 0.0000
vt 0.3261 0.9005 0.0000
vt 0.3321 0.9006 0.0000
vt 0.2669 0.9011 0.0000
vt 0.2609 0.9013 0.0000
vt 0.2728 0.9008 0.0000
vt 0.2787 0.9005 0.0000
vt 0.2847 0.9002 0.0000
vt 0.2906 0.8999 0.0000
vt 0.3025 0.9272 0.0000
vt 0.2966 0.9273 0.0000
vt 0.3083 0.9272 0.0000
vt 0.3141 0.9271 0.0000
vt 0.3201 0.9269 0.0000
vt 0.3261 0.9268 0.0000
vt 0.3321 0.9267 0.0000
vt 0.2671 0.9275 0.0000
vt 0.2611 0.9275 0.0000
vt 0.2730 0.9274 0.0000
vt 0.2789 0.9274 0.0000
vt 0.2849 0.9274 0.0000
vt 0.2908 0.9273 0.0000
vt 0.3033 0.9514 0.0000
vt 0.2973 0.9514 0.0000
vt 0.3093 0.9517 0.0000
vt 0.3153 0.9521 0.0000
vt 0.3213 0.9524 0.0000
vt 0.3272 0.9527 0.0000
vt 0.3332 0.9526 0.0000
vt 0.2676 0.9533 0.0000
vt 0.2616 0.9534 0.0000
vt 0.2736 0.9530 0.0000
vt 0.2797 0.9525 0.0000
vt 0.2856 0.9520 0.0000
vt 0.2914 0.9516 0.0000
vt 0.3040 0.9763 0.0000
vt 0.2975 0.9762 0.0000
vt 0.3105 0.9767 0.0000
vt 0.3168 0.9771 0.0000
vt 0.3227 0.9776 0.0000
vt 0.3286 0.9779 0.0000
vt 0.3346 0.9778 0.0000
vt 0.2664 0.9786 0.0000
vt 0.2604 0.9786 0.0000
vt 0.2722 0.9781 0.0000
vt 0.2782 0.9775 0.0000
vt 0.2845 0.9769 0.0000
vt 0.2910 0.9764 0.0000
vt 0.2079 0.1322 0.0000
vt 0.1866 0.1254 0.0000
vt 0.1879 0.1194 0.0000
vt 0.2095 0.1261 0.0000
vt 0.2319 0.1329 0.0000
vt 0.2295 0.1409 0.0000
vt 0.0133 0.1316 0.0000
vt 0.0357 0.1249 0.0000
vt 0.0373 0.1310 0.0000
vt 0.0156 0.1395 0.0000
vt 0.0575 0.1189 0.0000
vt 0.0588 0.1248 0.0000
vt 0.0791 0.1139 0.0000
vt 0.0800 0.1198 0.0000
vt 0.1009 0.1110 0.0000
vt 0.1013 0.1169 0.0000
vt 0.1227 0.1110 0.0000
vt 0.1227 0.1169 0.0000
vt 0.1446 0.1109 0.0000
vt 0.1441 0.1168 0.0000
vt 0.1662 0.1147 0.0000
vt 0.1652 0.1207 0.0000
vt 0.2087 0.1252 0.0000
vt 0.1873 0.1190 0.0000
vt 0.1878 0.1130 0.0000
vt 0.2088 0.1183 0.0000
vt 0.2288 0.1224 0.0000
vt 0.2311 0.1303 0.0000
vt 0.0165 0.1212 0.0000
vt 0.0366 0.1173 0.0000
vt 0.0366 0.1241 0.0000
vt 0.0141 0.1290 0.0000
vt 0.0577 0.1123 0.0000
vt 0.0581 0.1184 0.0000
vt 0.0791 0.1081 0.0000
vt 0.0795 0.1138 0.0000
vt 0.1009 0.1056 0.0000
vt 0.1011 0.1111 0.0000
vt 0.1227 0.1050 0.0000
vt 0.1227 0.1109 0.0000
vt 0.1446 0.1057 0.0000
vt 0.1444 0.1111 0.0000
vt 0.1663 0.1087 0.0000
vt 0.1659 0.1145 0.0000
vt 0.2034 0.1383 0.0000
vt 0.1838 0.1317 0.0000
vt 0.1862 0.1257 0.0000
vt 0.2071 0.1326 0.0000
vt 0.2276 0.1429 0.0000
vt 0.2211 0.1479 0.0000
vt 0.0174 0.1414 0.0000
vt 0.0380 0.1314 0.0000
vt 0.0417 0.1371 0.0000
vt 0.0239 0.1464 0.0000
vt 0.0592 0.1251 0.0000
vt 0.0615 0.1309 0.0000
vt 0.0802 0.1203 0.0000
vt 0.0817 0.1264 0.0000
vt 0.1014 0.1173 0.0000
vt 0.1021 0.1236 0.0000
vt 0.1227 0.1172 0.0000
vt 0.1227 0.1232 0.0000
vt 0.1440 0.1173 0.0000
vt 0.1433 0.1237 0.0000
vt 0.1651 0.1210 0.0000
vt 0.1636 0.1270 0.0000
vt 0.1908 0.0925 0.0000
vt 0.2123 0.0974 0.0000
vt 0.2322 0.1023 0.0000
vt 0.0133 0.1011 0.0000
vt 0.0333 0.0964 0.0000
vt 0.0548 0.0918 0.0000
vt 0.0771 0.0878 0.0000
vt 0.0999 0.0854 0.0000
vt 0.1228 0.0847 0.0000
vt 0.1458 0.0856 0.0000
vt 0.1686 0.0884 0.0000
vt 0.1918 0.0864 0.0000
vt 0.2141 0.0914 0.0000
vt 0.2364 0.0977 0.0000
vt 0.0092 0.0964 0.0000
vt 0.0315 0.0904 0.0000
vt 0.0538 0.0857 0.0000
vt 0.0765 0.0817 0.0000
vt 0.0996 0.0793 0.0000
vt 0.1229 0.0786 0.0000
vt 0.1461 0.0795 0.0000
vt 0.1692 0.0823 0.0000
vt 0.1922 0.0849 0.0000
vt 0.2149 0.0902 0.0000
vt 0.2378 0.0966 0.0000
vt 0.0078 0.0954 0.0000
vt 0.0307 0.0892 0.0000
vt 0.0535 0.0842 0.0000
vt 0.0764 0.0803 0.0000
vt 0.0996 0.0779 0.0000
vt 0.1229 0.0772 0.0000
vt 0.1462 0.0781 0.0000
vt 0.1693 0.0808 0.0000
vt 0.1950 0.0712 0.0000
vt 0.2185 0.0767 0.0000
vt 0.2417 0.0833 0.0000
vt 0.0040 0.0820 0.0000
vt 0.0273 0.0757 0.0000
vt 0.0508 0.0705 0.0000
vt 0.0746 0.0665 0.0000
vt 0.0987 0.0640 0.0000
vt 0.1229 0.0632 0.0000
vt 0.1472 0.0642 0.0000
vt 0.1713 0.0670 0.0000
vt 0.2019 0.1392 0.0000
vt 0.2192 0.1486 0.0000
vt 0.2140 0.1568 0.0000
vt 0.1972 0.1477 0.0000
vt 0.0257 0.1471 0.0000
vt 0.0432 0.1379 0.0000
vt 0.0477 0.1464 0.0000
vt 0.0308 0.1553 0.0000
vt 0.0624 0.1316 0.0000
vt 0.0657 0.1404 0.0000
vt 0.0822 0.1272 0.0000
vt 0.0843 0.1362 0.0000
vt 0.1024 0.1245 0.0000
vt 0.1034 0.1336 0.0000
vt 0.1227 0.1239 0.0000
vt 0.1226 0.1329 0.0000
vt 0.1430 0.1246 0.0000
vt 0.1418 0.1338 0.0000
vt 0.1631 0.1277 0.0000
vt 0.1608 0.1366 0.0000
vt 0.1828 0.1324 0.0000
vt 0.1794 0.1412 0.0000
vt 0.1961 0.1485 0.0000
vt 0.2127 0.1574 0.0000
vt 0.2091 0.1599 0.0000
vt 0.1938 0.1523 0.0000
vt 0.0321 0.1558 0.0000
vt 0.0488 0.1472 0.0000
vt 0.0510 0.1510 0.0000
vt 0.0356 0.1583 0.0000
vt 0.0665 0.1412 0.0000
vt 0.0681 0.1451 0.0000
vt 0.0849 0.1370 0.0000
vt 0.0859 0.1410 0.0000
vt 0.1036 0.1345 0.0000
vt 0.1041 0.1385 0.0000
vt 0.1226 0.1337 0.0000
vt 0.1225 0.1377 0.0000
vt 0.1416 0.1346 0.0000
vt 0.1410 0.1387 0.0000
vt 0.1603 0.1375 0.0000
vt 0.1592 0.1414 0.0000
vt 0.1786 0.1420 0.0000
vt 0.1770 0.1460 0.0000
vt 0.1955 0.1883 0.0000
vt 0.1814 0.1810 0.0000
vt 0.0627 0.1801 0.0000
vt 0.0484 0.1870 0.0000
vt 0.0770 0.1750 0.0000
vt 0.0918 0.1716 0.0000
vt 0.1070 0.1695 0.0000
vt 0.1222 0.1688 0.0000
vt 0.1374 0.1696 0.0000
vt 0.1524 0.1718 0.0000
vt 0.1671 0.1756 0.0000
vt 0.1895 0.1950 0.0000
vt 0.1775 0.1887 0.0000
vt 0.0664 0.1878 0.0000
vt 0.0542 0.1938 0.0000
vt 0.0797 0.1831 0.0000
vt 0.0936 0.1799 0.0000
vt 0.1078 0.1780 0.0000
vt 0.1221 0.1774 0.0000
vt 0.1364 0.1781 0.0000
vt 0.1505 0.1802 0.0000
vt 0.1643 0.1837 0.0000
vt 0.1734 0.1977 0.0000
vt 0.1613 0.1931 0.0000
vt 0.1850 0.2036 0.0000
vt 0.0703 0.1969 0.0000
vt 0.0585 0.2025 0.0000
vt 0.0825 0.1926 0.0000
vt 0.0953 0.1895 0.0000
vt 0.1086 0.1877 0.0000
vt 0.1220 0.1872 0.0000
vt 0.1354 0.1879 0.0000
vt 0.1486 0.1898 0.0000
vt 0.0866 0.1737 0.0000
vt 0.0797 0.1644 0.0000
vt 0.0825 0.1635 0.0000
vt 0.0884 0.1714 0.0000
vt 0.0979 0.1773 0.0000
vt 0.0980 0.1745 0.0000
vt 0.1093 0.1739 0.0000
vt 0.1076 0.1716 0.0000
vt 0.1164 0.1647 0.0000
vt 0.1136 0.1638 0.0000
vt 0.1166 0.1533 0.0000
vt 0.1137 0.1541 0.0000
vt 0.1096 0.1440 0.0000
vt 0.1079 0.1462 0.0000
vt 0.0983 0.1403 0.0000
vt 0.0983 0.1432 0.0000
vt 0.0869 0.1438 0.0000
vt 0.0886 0.1461 0.0000
vt 0.0798 0.1529 0.0000
vt 0.0826 0.1538 0.0000
vt 0.0865 0.1623 0.0000
vt 0.0909 0.1681 0.0000
vt 0.0980 0.1704 0.0000
vt 0.1052 0.1683 0.0000
vt 0.1096 0.1625 0.0000
vt 0.1097 0.1553 0.0000
vt 0.1054 0.1495 0.0000
vt 0.0982 0.1472 0.0000
vt 0.0911 0.1494 0.0000
vt 0.0866 0.1551 0.0000
# 386 texture coords

g Hose_Straight_A
s 1
f 1/1/1 2/2/2 3/3/3 4/4/4 
f 2/2/2 5/5/5 6/6/6 3/3/3 
f 5/5/5 7/7/7 8/8/8 6/6/6 
f 7/7/7 9/9/9 10/10/10 8/8/8 
f 9/9/9 11/11/11 12/12/12 10/10/10 
f 11/11/11 13/13/13 14/14/14 12/12/12 
f 13/15/13 15/16/15 16/17/16 14/18/14 
f 15/16/15 17/19/17 18/20/18 16/17/16 
f 17/19/17 19/21/19 20/22/20 18/20/18 
f 19/21/19 21/23/21 22/24/22 20/22/20 
f 21/23/21 23/25/23 24/26/24 22/24/22 
f 23/25/23 1/1/1 4/4/4 24/26/24 
f 4/4/4 3/3/3 25/27/25 26/28/26 
f 3/3/3 6/6/6 27/29/27 25/27/25 
f 6/6/6 8/8/8 28/30/28 27/29/27 
f 8/8/8 10/10/10 29/31/29 28/30/28 
f 10/10/10 12/12/12 30/32/30 29/31/29 
f 12/12/12 14/14/14 31/33/31 30/32/30 
f 14/18/14 16/17/16 32/34/32 31/35/31 
f 16/17/16 18/20/18 33/36/33 32/34/32 
f 18/20/18 20/22/20 34/37/34 33/36/33 
f 20/22/20 22/24/22 35/38/35 34/37/34 
f 22/24/22 24/26/24 36/39/36 35/38/35 
f 24/26/24 4/4/4 26/28/26 36/39/36 
f 26/28/26 25/27/25 37/40/37 38/41/38 
f 25/27/25 27/29/27 39/42/39 37/40/37 
f 27/29/27 28/30/28 40/43/40 39/42/39 
f 28/30/28 29/31/29 41/44/41 40/43/40 
f 29/31/29 30/32/30 42/45/42 41/44/41 
f 30/32/30 31/33/31 43/46/43 42/45/42 
f 31/35/31 32/34/32 44/47/44 43/48/43 
f 32/34/32 33/36/33 45/49/45 44/47/44 
f 33/36/33 34/37/34 46/50/46 45/49/45 
f 34/37/34 35/38/35 47/51/47 46/50/46 
f 35/38/35 36/39/36 48/52/48 47/51/47 
f 36/39/36 26/28/26 38/41/38 48/52/48 
f 38/41/38 37/40/37 49/53/49 50/54/50 
f 37/40/37 39/42/39 51/55/51 49/53/49 
f 39/42/39 40/43/40 52/56/52 51/55/51 
f 40/43/40 41/44/41 53/57/53 52/56/52 
f 41/44/41 42/45/42 54/58/54 53/57/53 
f 42/45/42 43/46/43 55/59/55 54/58/54 
f 43/48/43 44/47/44 56/60/56 55/61/55 
f 44/47/44 45/49/45 57/62/57 56/60/56 
f 45/49/45 46/50/46 58/63/58 57/62/57 
f 46/50/46 47/51/47 59/64/59 58/63/58 
f 47/51/47 48/52/48 60/65/60 59/64/59 
f 48/52/48 38/41/38 50/54/50 60/65/60 
f 50/54/50 49/53/49 61/66/61 62/67/62 
f 49/53/49 51/55/51 63/68/63 61/66/61 
f 51/55/51 52/56/52 64/69/64 63/68/63 
f 52/56/52 53/57/53 65/70/65 64/69/64 
f 53/57/53 54/58/54 66/71/66 65/70/65 
f 54/58/54 55/59/55 67/72/67 66/71/66 
f 55/61/55 56/60/56 68/73/68 67/74/67 
f 56/60/56 57/62/57 69/75/69 68/73/68 
f 57/62/57 58/63/58 70/76/70 69/75/69 
f 58/63/58 59/64/59 71/77/71 70/76/70 
f 59/64/59 60/65/60 72/78/72 71/77/71 
f 60/65/60 50/54/50 62/67/62 72/78/72 
f 62/67/62 61/66/61 73/79/73 74/80/74 
f 61/66/61 63/68/63 75/81/75 73/79/73 
f 63/68/63 64/69/64 76/82/76 75/81/75 
f 64/69/64 65/70/65 77/83/77 76/82/76 
f 65/70/65 66/71/66 78/84/78 77/83/77 
f 66/71/66 67/72/67 79/85/79 78/84/78 
f 67/74/67 68/73/68 80/86/80 79/87/79 
f 68/73/68 69/75/69 81/88/81 80/86/80 
f 69/75/69 70/76/70 82/89/82 81/88/81 
f 70/76/70 71/77/71 83/90/83 82/89/82 
f 71/77/71 72/78/72 84/91/84 83/90/83 
f 72/78/72 62/67/62 74/80/74 84/91/84 
f 74/80/74 73/79/73 85/92/85 86/93/86 
f 73/79/73 75/81/75 87/94/87 85/92/85 
f 75/81/75 76/82/76 88/95/52 87/94/87 
f 76/82/76 77/83/77 89/96/88 88/95/52 
f 77/83/77 78/84/78 90/97/89 89/96/88 
f 78/84/78 79/85/79 91/98/90 90/97/89 
f 79/87/79 80/86/80 92/99/91 91/100/90 
f 80/86/80 81/88/81 93/101/92 92/99/91 
f 81/88/81 82/89/82 94/102/58 93/101/92 
f 82/89/82 83/90/83 95/103/93 94/102/58 
f 83/90/83 84/91/84 96/104/94 95/103/93 
f 84/91/84 74/80/74 86/93/86 96/104/94 
f 86/93/86 85/92/85 97/105/95 98/106/96 
f 85/92/85 87/94/87 99/107/97 97/105/95 
f 87/94/87 88/95/52 100/108/98 99/107/97 
f 88/95/52 89/96/88 101/109/99 100/108/98 
f 89/96/88 90/97/89 102/110/100 101/109/99 
f 90/97/89 91/98/90 103/111/101 102/110/100 
f 91/100/90 92/99/91 104/112/102 103/113/101 
f 92/99/91 93/101/92 105/114/103 104/112/102 
f 93/101/92 94/102/58 106/115/104 105/114/103 
f 94/102/58 95/103/93 107/116/105 106/115/104 
f 95/103/93 96/104/94 108/117/106 107/116/105 
f 96/104/94 86/93/86 98/106/96 108/117/106 
f 98/106/96 97/105/95 109/118/107 110/119/108 
f 97/105/95 99/107/97 111/120/109 109/118/107 
f 99/107/97 100/108/98 112/121/110 111/120/109 
f 100/108/98 101/109/99 113/122/111 112/121/110 
f 101/109/99 102/110/100 114/123/112 113/122/111 
f 102/110/100 103/111/101 115/124/113 114/123/112 
f 103/113/101 104/112/102 116/125/114 115/126/113 
f 104/112/102 105/114/103 117/127/115 116/125/114 
f 105/114/103 106/115/104 118/128/116 117/127/115 
f 106/115/104 107/116/105 119/129/117 118/128/116 
f 107/116/105 108/117/106 120/130/118 119/129/117 
f 108/117/106 98/106/96 110/119/108 120/130/118 
f 110/119/108 109/118/107 121/131/119 122/132/120 
f 109/118/107 111/120/109 123/133/121 121/131/119 
f 111/120/109 112/121/110 124/134/122 123/133/121 
f 112/121/110 113/122/111 125/135/123 124/134/122 
f 113/122/111 114/123/112 126/136/124 125/135/123 
f 114/123/112 115/124/113 127/137/125 126/136/124 
f 115/126/113 116/125/114 128/138/126 127/139/125 
f 116/125/114 117/127/115 129/140/127 128/138/126 
f 117/127/115 118/128/116 130/141/128 129/140/127 
f 118/128/116 119/129/117 131/142/129 130/141/128 
f 119/129/117 120/130/118 132/143/130 131/142/129 
f 120/130/118 110/119/108 122/132/120 132/143/130 
f 122/132/120 121/131/119 133/144/131 134/145/132 
f 121/131/119 123/133/121 135/146/133 133/144/131 
f 123/133/121 124/134/122 136/147/134 135/146/133 
f 124/134/122 125/135/123 137/148/135 136/147/134 
f 125/135/123 126/136/124 138/149/136 137/148/135 
f 126/136/124 127/137/125 139/150/137 138/149/136 
f 127/139/125 128/138/126 140/151/138 139/152/137 
f 128/138/126 129/140/127 141/153/139 140/151/138 
f 129/140/127 130/141/128 142/154/140 141/153/139 
f 130/141/128 131/142/129 143/155/141 142/154/140 
f 131/142/129 132/143/130 144/156/142 143/155/141 
f 132/143/130 122/132/120 134/145/132 144/156/142 
f 134/145/132 133/144/131 145/157/143 146/158/144 
f 133/144/131 135/146/133 147/159/145 145/157/143 
f 135/146/133 136/147/134 148/160/146 147/159/145 
f 136/147/134 137/148/135 149/161/147 148/160/146 
f 137/148/135 138/149/136 150/162/148 149/161/147 
f 138/149/136 139/150/137 151/163/149 150/162/148 
f 139/152/137 140/151/138 152/164/150 151/165/149 
f 140/151/138 141/153/139 153/166/151 152/164/150 
f 141/153/139 142/154/140 154/167/152 153/166/151 
f 142/154/140 143/155/141 155/168/153 154/167/152 
f 143/155/141 144/156/142 156/169/154 155/168/153 
f 144/156/142 134/145/132 146/158/144 156/169/154 
f 157/170/155 158/171/156 159/172/157 160/173/158 
f 160/173/158 161/174/159 162/175/160 157/170/155 
f 161/176/159 163/177/161 164/178/162 162/179/160 
f 163/177/161 165/180/163 166/181/164 164/178/162 
f 165/180/163 167/182/165 168/183/166 166/181/164 
f 167/182/165 169/184/167 170/185/168 168/183/166 
f 169/184/167 171/186/169 172/187/170 170/185/168 
f 171/186/169 173/188/171 174/189/172 172/187/170 
f 173/188/171 175/190/173 176/191/174 174/189/172 
f 175/190/173 159/172/157 158/171/156 176/191/174 
f 177/192/175 178/193/176 179/194/177 180/195/178 
f 180/195/178 181/196/179 182/197/180 177/192/175 
f 181/198/179 183/199/181 184/200/182 182/201/180 
f 183/199/181 185/202/183 186/203/184 184/200/182 
f 185/202/183 187/204/185 188/205/186 186/203/184 
f 187/204/185 189/206/187 190/207/188 188/205/186 
f 189/206/187 191/208/189 192/209/190 190/207/188 
f 191/208/189 193/210/191 194/211/192 192/209/190 
f 193/210/191 195/212/193 196/213/194 194/211/192 
f 195/212/193 179/194/177 178/193/176 196/213/194 
f 197/214/195 198/215/196 199/216/197 200/217/198 
f 200/217/198 201/218/199 202/219/200 197/214/195 
f 201/220/199 203/221/201 204/222/202 202/223/200 
f 203/221/201 205/224/203 206/225/204 204/222/202 
f 205/224/203 207/226/205 208/227/206 206/225/204 
f 207/226/205 209/228/207 210/229/208 208/227/206 
f 209/228/207 211/230/209 212/231/210 210/229/208 
f 211/230/209 213/232/211 214/233/212 212/231/210 
f 213/232/211 215/234/213 216/235/214 214/233/212 
f 215/234/213 199/216/197 198/215/196 216/235/214 
s 2
f 180/195/215 179/194/216 217/236/216 218/237/215 
f 181/196/217 180/195/215 218/237/215 219/238/217 
f 183/199/218 181/198/217 219/239/217 220/240/218 
f 185/202/219 183/199/218 220/240/218 221/241/219 
f 187/204/220 185/202/219 221/241/219 222/242/220 
f 189/206/221 187/204/220 222/242/220 223/243/221 
f 191/208/222 189/206/221 223/243/221 224/244/222 
f 193/210/223 191/208/222 224/244/222 225/245/223 
f 195/212/224 193/210/223 225/245/223 226/246/224 
f 179/194/216 195/212/224 226/246/224 217/236/216 
s 1
f 218/237/225 217/236/226 227/247/227 228/248/228 
f 219/238/229 218/237/225 228/248/228 229/249/230 
f 220/240/231 219/239/229 229/250/230 230/251/232 
f 221/241/233 220/240/231 230/251/232 231/252/234 
f 222/242/235 221/241/233 231/252/234 232/253/236 
f 223/243/237 222/242/235 232/253/236 233/254/238 
f 224/244/239 223/243/237 233/254/238 234/255/240 
f 225/245/241 224/244/239 234/255/240 235/256/242 
f 226/246/243 225/245/241 235/256/242 236/257/244 
f 217/236/226 226/246/243 236/257/244 227/247/227 
f 228/248/228 227/247/227 237/258/245 238/259/246 
f 229/249/230 228/248/228 238/259/246 239/260/247 
f 230/251/232 229/250/230 239/261/247 240/262/248 
f 231/252/234 230/251/232 240/262/248 241/263/249 
f 232/253/236 231/252/234 241/263/249 242/264/250 
f 233/254/238 232/253/236 242/264/250 243/265/251 
f 234/255/240 233/254/238 243/265/251 244/266/252 
f 235/256/242 234/255/240 244/266/252 245/267/253 
f 236/257/244 235/256/242 245/267/253 246/268/254 
f 227/247/227 236/257/244 246/268/254 237/258/245 
s 2
f 237/258/216 247/269/216 248/270/215 238/259/215 
f 239/260/217 238/259/215 248/270/215 249/271/217 
f 240/262/218 239/261/217 249/272/217 250/273/218 
f 241/263/219 240/262/218 250/273/218 251/274/219 
f 242/264/220 241/263/219 251/274/219 252/275/220 
f 243/265/221 242/264/220 252/275/220 253/276/221 
f 244/266/222 243/265/221 253/276/221 254/277/222 
f 245/267/223 244/266/222 254/277/222 255/278/223 
f 246/268/224 245/267/223 255/278/223 256/279/224 
f 237/258/216 246/268/224 256/279/224 247/269/216 
s 1
f 157/170/155 200/217/198 199/216/197 158/171/156 
f 160/173/158 177/192/175 182/197/180 161/174/159 
f 162/175/160 201/218/199 200/217/198 157/170/155 
f 161/176/159 182/201/180 184/200/182 163/177/161 
f 164/178/162 203/221/201 201/220/199 162/179/160 
f 163/177/161 184/200/182 186/203/184 165/180/163 
f 166/181/164 205/224/203 203/221/201 164/178/162 
f 165/180/163 186/203/184 188/205/186 167/182/165 
f 168/183/166 207/226/205 205/224/203 166/181/164 
f 167/182/165 188/205/186 190/207/188 169/184/167 
f 170/185/168 209/228/207 207/226/205 168/183/166 
f 169/184/167 190/207/188 192/209/190 171/186/169 
f 172/187/170 211/230/209 209/228/207 170/185/168 
f 171/186/169 192/209/190 194/211/192 173/188/171 
f 174/189/172 213/232/211 211/230/209 172/187/170 
f 173/188/171 194/211/192 196/213/194 175/190/173 
f 176/191/174 215/234/213 213/232/211 174/189/172 
f 175/190/173 196/213/194 178/193/176 159/172/157 
f 158/171/156 199/216/197 215/234/213 176/191/174 
f 159/172/157 178/193/176 177/192/175 160/173/158 
f 257/280/255 258/281/256 259/282/257 260/283/155 
f 258/284/256 261/285/258 262/286/162 259/287/257 
f 261/285/258 263/288/259 264/289/260 262/286/162 
f 263/288/259 265/290/261 266/291/166 264/289/260 
f 265/290/261 267/292/262 268/293/168 266/291/166 
f 267/292/262 269/294/263 270/295/264 268/293/168 
f 269/294/263 271/296/265 272/297/172 270/295/264 
f 271/296/265 273/298/266 274/299/174 272/297/172 
f 273/298/266 275/300/267 276/301/156 274/299/174 
f 275/300/267 257/280/255 260/283/155 276/301/156 
f 277/302/268 278/303/269 279/304/270 280/305/271 
f 278/306/269 281/307/272 282/308/273 279/309/270 
f 281/307/272 283/310/274 284/311/275 282/308/273 
f 283/310/274 285/312/276 286/313/277 284/311/275 
f 285/312/276 287/314/278 288/315/279 286/313/277 
f 287/314/278 289/316/280 290/317/281 288/315/279 
f 289/316/280 291/318/282 292/319/283 290/317/281 
f 291/318/282 293/320/284 294/321/285 292/319/283 
f 293/320/284 295/322/286 296/323/287 294/321/285 
f 295/322/286 277/302/268 280/305/271 296/323/287 
f 202/219/200 258/281/256 257/280/255 197/214/195 
f 204/222/202 261/285/258 258/284/256 202/223/200 
f 206/225/204 263/288/259 261/285/258 204/222/202 
f 208/227/206 265/290/261 263/288/259 206/225/204 
f 210/229/208 267/292/262 265/290/261 208/227/206 
f 212/231/210 269/294/263 267/292/262 210/229/208 
f 214/233/212 271/296/265 269/294/263 212/231/210 
f 216/235/214 273/298/266 271/296/265 214/233/212 
f 198/215/196 275/300/267 273/298/266 216/235/214 
f 197/214/195 257/280/255 275/300/267 198/215/196 
f 260/283/155 277/302/268 295/322/286 276/301/156 
f 259/282/257 278/303/269 277/302/268 260/283/155 
f 262/286/162 281/307/272 278/306/269 259/287/257 
f 264/289/260 283/310/274 281/307/272 262/286/162 
f 266/291/166 285/312/276 283/310/274 264/289/260 
f 268/293/168 287/314/278 285/312/276 266/291/166 
f 270/295/264 289/316/280 287/314/278 268/293/168 
f 272/297/172 291/318/282 289/316/280 270/295/264 
f 274/299/174 293/320/284 291/318/282 272/297/172 
f 276/301/156 295/322/286 293/320/284 274/299/174 
s 2
f 280/305/215 279/304/217 297/324/288 298/325/289 
f 279/309/217 282/308/218 299/326/290 297/327/288 
f 282/308/218 284/311/219 300/328/291 299/326/290 
f 284/311/219 286/313/220 301/329/292 300/328/291 
f 286/313/220 288/315/221 302/330/293 301/329/292 
f 288/315/221 290/317/222 303/331/294 302/330/293 
f 290/317/222 292/319/223 304/332/295 303/331/294 
f 292/319/223 294/321/224 305/333/296 304/332/295 
f 294/321/224 296/323/216 306/334/297 305/333/296 
f 296/323/216 280/305/215 298/325/289 306/334/297 
f 297/324/288 307/335/298 308/336/299 298/325/289 
f 299/326/290 309/337/300 307/338/298 297/327/288 
f 300/328/291 310/339/301 309/337/300 299/326/290 
f 301/329/292 311/340/302 310/339/301 300/328/291 
f 302/330/293 312/341/303 311/340/302 301/329/292 
f 303/331/294 313/342/304 312/341/303 302/330/293 
f 304/332/295 314/343/305 313/342/304 303/331/294 
f 305/333/296 315/344/306 314/343/305 304/332/295 
f 306/334/297 316/345/307 315/344/306 305/333/296 
f 308/336/299 316/345/307 306/334/297 298/325/289 
s 1
f 316/345/308 308/336/309 317/346/310 318/347/311 
f 308/336/309 307/335/312 319/348/312 317/346/310 
f 307/338/312 309/337/313 320/349/314 319/350/312 
f 309/337/313 310/339/315 321/351/316 320/349/314 
f 310/339/315 311/340/317 322/352/318 321/351/316 
f 311/340/317 312/341/319 323/353/320 322/352/318 
f 312/341/319 313/342/321 324/354/321 323/353/320 
f 313/342/321 314/343/322 325/355/323 324/354/321 
f 314/343/322 315/344/324 326/356/325 325/355/323 
f 315/344/324 316/345/308 318/347/311 326/356/325 
s off
f 248/357/326 247/358/326 327/359/326 328/360/326 
f 249/361/327 248/357/327 328/360/327 329/362/327 
f 250/363/328 249/361/328 329/362/328 330/364/328 
f 251/365/329 250/363/329 330/364/329 331/366/329 
f 252/367/330 251/365/330 331/366/330 332/368/330 
f 253/369/326 252/367/326 332/368/326 333/370/326 
f 254/371/327 253/369/327 333/370/327 334/372/327 
f 255/373/328 254/371/328 334/372/328 335/374/328 
f 256/375/329 255/373/329 335/374/329 336/376/329 
f 247/358/330 256/375/330 336/376/330 327/359/330 
f 328/360/331 327/359/331 337/377/331 338/378/331 
f 329/362/332 328/360/332 338/378/332 339/379/332 
f 330/364/333 329/362/333 339/379/333 340/380/333 
f 331/366/334 330/364/334 340/380/334 341/381/334 
f 332/368/335 331/366/335 341/381/335 342/382/335 
f 333/370/336 332/368/336 342/382/336 343/383/336 
f 334/372/337 333/370/337 343/383/337 344/384/337 
f 335/374/338 334/372/338 344/384/338 345/385/338 
f 336/376/339 335/374/339 345/385/339 346/386/339 
f 327/359/340 336/376/340 346/386/340 337/377/340 
f 346/386/341 345/385/341 344/384/341 338/378/341 
f 344/384/341 343/383/341 342/382/341 338/378/341 
f 342/382/342 341/381/342 340/380/342 338/378/342 
f 340/380/342 339/379/342 338/378/342 
f 337/377/341 346/386/341 338/378/341 
s 1
f 347/170/343 348/171/344 349/172/345 350/173/346 
f 350/173/346 351/174/347 352/175/348 347/170/343 
f 351/176/347 353/177/349 354/178/350 352/179/348 
f 353/177/349 355/180/351 356/181/352 354/178/350 
f 355/180/351 357/182/353 358/183/354 356/181/352 
f 357/182/353 359/184/355 360/185/356 358/183/354 
f 359/184/355 361/186/357 362/187/358 360/185/356 
f 361/186/357 363/188/359 364/189/360 362/187/358 
f 363/188/359 365/190/361 366/191/362 364/189/360 
f 365/190/361 349/172/345 348/171/344 366/191/362 
f 367/192/363 368/193/364 369/194/365 370/195/366 
f 370/195/366 371/196/367 372/197/368 367/192/363 
f 371/198/367 373/199/369 374/200/370 372/201/368 
f 373/199/369 375/202/371 376/203/372 374/200/370 
f 375/202/371 377/204/373 378/205/374 376/203/372 
f 377/204/373 379/206/375 380/207/376 378/205/374 
f 379/206/375 381/208/377 382/209/378 380/207/376 
f 381/208/377 383/210/379 384/211/380 382/209/378 
f 383/210/379 385/212/381 386/213/382 384/211/380 
f 385/212/381 369/194/365 368/193/364 386/213/382 
f 387/214/383 388/215/384 389/216/385 390/217/386 
f 390/217/386 391/218/387 392/219/388 387/214/383 
f 391/220/387 393/221/389 394/222/390 392/223/388 
f 393/221/389 395/224/391 396/225/392 394/222/390 
f 395/224/391 397/226/393 398/227/394 396/225/392 
f 397/226/393 399/228/395 400/229/396 398/227/394 
f 399/228/395 401/230/397 402/231/398 400/229/396 
f 401/230/397 403/232/399 404/233/400 402/231/398 
f 403/232/399 405/234/401 406/235/402 404/233/400 
f 405/234/401 389/216/385 388/215/384 406/235/402 
s 2
f 370/195/403 369/194/404 407/236/404 408/237/403 
f 371/196/405 370/195/403 408/237/403 409/238/405 
f 373/199/406 371/198/405 409/239/405 410/240/406 
f 375/202/407 373/199/406 410/240/406 411/241/407 
f 377/204/408 375/202/407 411/241/407 412/242/408 
f 379/206/409 377/204/408 412/242/408 413/243/409 
f 381/208/410 379/206/409 413/243/409 414/244/410 
f 383/210/411 381/208/410 414/244/410 415/245/411 
f 385/212/412 383/210/411 415/245/411 416/246/412 
f 369/194/404 385/212/412 416/246/412 407/236/404 
s 1
f 408/237/413 407/236/414 417/247/415 418/248/416 
f 409/238/417 408/237/413 418/248/416 419/249/418 
f 410/240/419 409/239/417 419/250/418 420/251/420 
f 411/241/421 410/240/419 420/251/420 421/252/422 
f 412/242/423 411/241/421 421/252/422 422/253/424 
f 413/243/425 412/242/423 422/253/424 423/254/426 
f 414/244/427 413/243/425 423/254/426 424/255/428 
f 415/245/429 414/244/427 424/255/428 425/256/430 
f 416/246/431 415/245/429 425/256/430 426/257/432 
f 407/236/414 416/246/431 426/257/432 417/247/415 
f 418/248/416 417/247/415 427/258/433 428/259/434 
f 419/249/418 418/248/416 428/259/434 429/260/435 
f 420/251/420 419/250/418 429/261/435 430/262/436 
f 421/252/422 420/251/420 430/262/436 431/263/437 
f 422/253/424 421/252/422 431/263/437 432/264/438 
f 423/254/426 422/253/424 432/264/438 433/265/439 
f 424/255/428 423/254/426 433/265/439 434/266/440 
f 425/256/430 424/255/428 434/266/440 435/267/441 
f 426/257/432 425/256/430 435/267/441 436/268/442 
f 417/247/415 426/257/432 436/268/442 427/258/433 
s 2
f 427/258/404 437/269/404 438/270/403 428/259/403 
f 429/260/405 428/259/403 438/270/403 439/271/405 
f 430/262/406 429/261/405 439/272/405 440/273/406 
f 431/263/407 430/262/406 440/273/406 441/274/407 
f 432/264/408 431/263/407 441/274/407 442/275/408 
f 433/265/409 432/264/408 442/275/408 443/276/409 
f 434/266/410 433/265/409 443/276/409 444/277/410 
f 435/267/411 434/266/410 444/277/410 445/278/411 
f 436/268/412 435/267/411 445/278/411 446/279/412 
f 427/258/404 436/268/412 446/279/412 437/269/404 
s 1
f 347/170/343 390/217/386 389/216/385 348/171/344 
f 350/173/346 367/192/363 372/197/368 351/174/347 
f 352/175/348 391/218/387 390/217/386 347/170/343 
f 351/176/347 372/201/368 374/200/370 353/177/349 
f 354/178/350 393/221/389 391/220/387 352/179/348 
f 353/177/349 374/200/370 376/203/372 355/180/351 
f 356/181/352 395/224/391 393/221/389 354/178/350 
f 355/180/351 376/203/372 378/205/374 357/182/353 
f 358/183/354 397/226/393 395/224/391 356/181/352 
f 357/182/353 378/205/374 380/207/376 359/184/355 
f 360/185/356 399/228/395 397/226/393 358/183/354 
f 359/184/355 380/207/376 382/209/378 361/186/357 
f 362/187/358 401/230/397 399/228/395 360/185/356 
f 361/186/357 382/209/378 384/211/380 363/188/359 
f 364/189/360 403/232/399 401/230/397 362/187/358 
f 363/188/359 384/211/380 386/213/382 365/190/361 
f 366/191/362 405/234/401 403/232/399 364/189/360 
f 365/190/361 386/213/382 368/193/364 349/172/345 
f 348/171/344 389/216/385 405/234/401 366/191/362 
f 349/172/345 368/193/364 367/192/363 350/173/346 
f 447/280/443 448/281/444 449/282/445 450/283/343 
f 448/284/444 451/285/446 452/286/350 449/287/445 
f 451/285/446 453/288/447 454/289/448 452/286/350 
f 453/288/447 455/290/449 456/291/354 454/289/448 
f 455/290/449 457/292/450 458/293/356 456/291/354 
f 457/292/450 459/294/451 460/295/452 458/293/356 
f 459/294/451 461/296/453 462/297/360 460/295/452 
f 461/296/453 463/298/454 464/299/362 462/297/360 
f 463/298/454 465/300/455 466/301/344 464/299/362 
f 465/300/455 447/280/443 450/283/343 466/301/344 
f 467/302/456 468/303/457 469/304/458 470/305/459 
f 468/306/457 471/307/460 472/308/461 469/309/458 
f 471/307/460 473/310/462 474/311/463 472/308/461 
f 473/310/462 475/312/464 476/313/465 474/311/463 
f 475/312/464 477/314/466 478/315/467 476/313/465 
f 477/314/466 479/316/468 480/317/469 478/315/467 
f 479/316/468 481/318/470 482/319/471 480/317/469 
f 481/318/470 483/320/472 484/321/473 482/319/471 
f 483/320/472 485/322/474 486/323/475 484/321/473 
f 485/322/474 467/302/456 470/305/459 486/323/475 
f 392/219/388 448/281/444 447/280/443 387/214/383 
f 394/222/390 451/285/446 448/284/444 392/223/388 
f 396/225/392 453/288/447 451/285/446 394/222/390 
f 398/227/394 455/290/449 453/288/447 396/225/392 
f 400/229/396 457/292/450 455/290/449 398/227/394 
f 402/231/398 459/294/451 457/292/450 400/229/396 
f 404/233/400 461/296/453 459/294/451 402/231/398 
f 406/235/402 463/298/454 461/296/453 404/233/400 
f 388/215/384 465/300/455 463/298/454 406/235/402 
f 387/214/383 447/280/443 465/300/455 388/215/384 
f 450/283/343 467/302/456 485/322/474 466/301/344 
f 449/282/445 468/303/457 467/302/456 450/283/343 
f 452/286/350 471/307/460 468/306/457 449/287/445 
f 454/289/448 473/310/462 471/307/460 452/286/350 
f 456/291/354 475/312/464 473/310/462 454/289/448 
f 458/293/356 477/314/466 475/312/464 456/291/354 
f 460/295/452 479/316/468 477/314/466 458/293/356 
f 462/297/360 481/318/470 479/316/468 460/295/452 
f 464/299/362 483/320/472 481/318/470 462/297/360 
f 466/301/344 485/322/474 483/320/472 464/299/362 
s 2
f 470/305/403 469/304/405 487/324/476 488/325/477 
f 469/309/405 472/308/406 489/326/478 487/327/476 
f 472/308/406 474/311/407 490/328/479 489/326/478 
f 474/311/407 476/313/408 491/329/480 490/328/479 
f 476/313/408 478/315/409 492/330/481 491/329/480 
f 478/315/409 480/317/410 493/331/482 492/330/481 
f 480/317/410 482/319/411 494/332/483 493/331/482 
f 482/319/411 484/321/412 495/333/484 494/332/483 
f 484/321/412 486/323/404 496/334/485 495/333/484 
f 486/323/404 470/305/403 488/325/477 496/334/485 
f 487/324/476 497/335/486 498/336/487 488/325/477 
f 489/326/478 499/337/488 497/338/486 487/327/476 
f 490/328/479 500/339/489 499/337/488 489/326/478 
f 491/329/480 501/340/490 500/339/489 490/328/479 
f 492/330/481 502/341/491 501/340/490 491/329/480 
f 493/331/482 503/342/492 502/341/491 492/330/481 
f 494/332/483 504/343/493 503/342/492 493/331/482 
f 495/333/484 505/344/494 504/343/493 494/332/483 
f 496/334/485 506/345/495 505/344/494 495/333/484 
f 498/336/487 506/345/495 496/334/485 488/325/477 
s 1
f 506/345/496 498/336/497 507/346/498 508/347/499 
f 498/336/497 497/335/500 509/348/500 507/346/498 
f 497/338/500 499/337/501 510/349/502 509/350/500 
f 499/337/501 500/339/503 511/351/504 510/349/502 
f 500/339/503 501/340/505 512/352/506 511/351/504 
f 501/340/505 502/341/507 513/353/508 512/352/506 
f 502/341/507 503/342/509 514/354/509 513/353/508 
f 503/342/509 504/343/510 515/355/511 514/354/509 
f 504/343/510 505/344/512 516/356/513 515/355/511 
f 505/344/512 506/345/496 508/347/499 516/356/513 
s off
f 438/357/514 437/358/514 517/359/514 518/360/514 
f 439/361/515 438/357/515 518/360/515 519/362/515 
f 440/363/516 439/361/516 519/362/516 520/364/516 
f 441/365/517 440/363/517 520/364/517 521/366/517 
f 442/367/518 441/365/518 521/366/518 522/368/518 
f 443/369/514 442/367/514 522/368/514 523/370/514 
f 444/371/515 443/369/515 523/370/515 524/372/515 
f 445/373/516 444/371/516 524/372/516 525/374/516 
f 446/375/517 445/373/517 525/374/517 526/376/517 
f 437/358/518 446/375/518 526/376/518 517/359/518 
f 518/360/519 517/359/519 527/377/519 528/378/519 
f 519/362/520 518/360/520 528/378/520 529/379/520 
f 520/364/521 519/362/521 529/379/521 530/380/521 
f 521/366/522 520/364/522 530/380/522 531/381/522 
f 522/368/523 521/366/523 531/381/523 532/382/523 
f 523/370/524 522/368/524 532/382/524 533/383/524 
f 524/372/525 523/370/525 533/383/525 534/384/525 
f 525/374/526 524/372/526 534/384/526 535/385/526 
f 526/376/527 525/374/527 535/385/527 536/386/527 
f 517/359/528 526/376/528 536/386/528 527/377/528 
f 536/386/529 535/385/529 534/384/529 528/378/529 
f 534/384/529 533/383/529 532/382/529 528/378/529 
f 532/382/530 531/381/530 530/380/530 528/378/530 
f 530/380/530 529/379/530 528/378/530 
f 527/377/529 536/386/529 528/378/529 
# 510 polygons - 4 triangles

