# 3ds Max Wavefront OBJ Exporter v0.97b - (c)2007 guruware
# File Created: 01.07.2013 21:09:16

#
# object Hose_Curve_A
#

v  -32.1549 -89.4196 6.9669
v  -30.2145 -89.5866 6.4481
v  -29.0409 -66.4429 5.2978
v  -30.9804 -66.2565 5.8187
v  -28.8008 -89.8454 5.0306
v  -27.6300 -66.7565 3.8749
v  -28.2926 -90.1268 3.0942
v  -27.1256 -67.1136 1.9310
v  -28.8263 -90.3553 1.1575
v  -27.6632 -67.4187 -0.0129
v  -30.2589 -90.4698 -0.2604
v  -29.0986 -67.5899 -1.4361
v  -32.2066 -90.4395 -0.7795
v  -31.0473 -67.5808 -1.9570
v  -34.1474 -90.2725 -0.2604
v  -32.9870 -67.3935 -1.4361
v  -35.5611 -90.0136 1.1575
v  -34.3979 -67.0785 -0.0129
v  -36.0688 -89.7322 3.0942
v  -34.9019 -66.7208 1.9310
v  -35.5348 -89.5037 5.0306
v  -34.3642 -66.4165 3.8749
v  -34.1022 -89.3893 6.4481
v  -32.9289 -66.2467 5.2978
v  -27.3059 -31.9567 5.2035
v  -29.2525 -31.8969 5.7252
v  -25.8774 -31.9234 3.7784
v  -25.3498 -31.8059 1.8324
v  -25.8640 -31.6363 -0.1130
v  -27.2818 -31.4591 -1.5368
v  -29.2234 -31.3222 -2.0579
v  -31.1688 -31.2619 -1.5368
v  -32.5973 -31.2946 -0.1130
v  -33.1260 -31.4122 1.8324
v  -32.6130 -31.5823 3.7784
v  -31.1952 -31.7598 5.2035
v  -26.1717 -10.1121 5.4229
v  -28.1164 -10.0008 5.9452
v  -24.7497 -10.2064 3.9964
v  -24.2315 -10.2583 2.0491
v  -24.7549 -10.2539 0.1032
v  -26.1788 -10.1946 -1.3202
v  -28.1215 -10.0962 -1.8409
v  -30.0635 -9.9852 -1.3202
v  -31.4855 -9.8912 0.1032
v  -32.0065 -9.8392 2.0491
v  -31.4857 -9.8433 3.9964
v  -30.0618 -9.9024 5.4229
v  -25.0494 9.2252 5.4239
v  -26.9936 9.3440 5.9462
v  -23.6263 9.1499 3.9975
v  -23.1056 9.1383 2.0501
v  -23.6261 9.1934 0.1043
v  -25.0471 9.3005 -1.3191
v  -26.9880 9.4309 -1.8399
v  -28.9296 9.5497 -1.3191
v  -30.3527 9.6250 0.1043
v  -30.8760 9.6368 2.0501
v  -30.3581 9.5817 3.9975
v  -28.9370 9.4745 5.4239
v  -23.8102 25.6836 5.0777
v  -25.7495 25.8587 5.5997
v  -22.3904 25.5617 3.6519
v  -21.8706 25.5254 1.7050
v  -22.3897 25.5847 -0.2412
v  -23.8079 25.7237 -1.6653
v  -25.7453 25.9051 -2.1865
v  -27.6832 26.0803 -1.6653
v  -29.1030 26.2022 -0.2412
v  -29.6242 26.2384 1.7050
v  -29.1066 26.1790 3.6519
v  -27.6884 26.0400 5.0777
v  -21.7773 41.3162 4.6408
v  -23.6869 41.6942 5.1622
v  -20.3836 41.0176 3.2164
v  -19.8793 40.8783 1.2708
v  -20.3996 40.9344 -0.6748
v  -21.8053 41.1696 -2.0990
v  -23.7199 41.5211 -2.6204
v  -25.6301 41.8959 -2.0990
v  -27.0237 42.1947 -0.6748
v  -27.5275 42.3374 1.2708
v  -27.0067 42.2846 3.2164
v  -25.6009 42.0491 4.6408
v  -18.1641 53.4635 4.0313
v  -19.9538 54.2271 4.5524
v  -16.8558 52.8988 2.6073
v  -16.3794 52.6841 0.6613
v  -16.8634 52.8770 -1.2856
v  -18.1786 53.4253 -2.7114
v  -19.9728 54.1824 -3.2334
v  -21.7644 54.9454 -2.7114
v  -23.0727 55.5101 -1.2856
v  -23.5472 55.7253 0.6613
v  -23.0613 55.5331 2.6073
v  -21.7460 54.9847 4.0313
v  -13.7083 62.6327 3.3007
v  -15.4350 63.5297 3.8217
v  -12.4502 61.9632 1.8769
v  -11.9979 61.7006 -0.0689
v  -12.4730 61.9156 -2.0155
v  -13.7488 62.5507 -3.4411
v  -15.4834 63.4358 -3.9630
v  -17.2114 64.3335 -3.4411
v  -18.4695 65.0030 -2.0155
v  -18.9204 65.2649 -0.0689
v  -18.4440 65.0493 1.8769
v  -17.1682 64.4142 3.3007
v  -8.1902 73.0939 2.7118
v  -9.8595 74.0952 3.2334
v  -6.9630 72.3696 1.2868
v  -6.5067 72.1161 -0.6597
v  -6.9432 72.4023 -2.6063
v  -8.1551 73.1520 -4.0313
v  -9.8176 74.1645 -4.5529
v  -11.4858 75.1679 -4.0313
v  -12.7129 75.8924 -2.6063
v  -13.1702 76.1439 -0.6597
v  -12.7349 75.8558 1.2868
v  -11.5232 75.1059 2.7118
v  0.2997 83.5056 2.1580
v  -0.9543 84.9966 2.6799
v  1.1747 82.3778 0.7328
v  1.4362 81.9153 -1.2126
v  1.0087 82.2356 -3.1564
v  0.0010 83.2464 -4.5783
v  -1.3170 84.6773 -5.0986
v  -2.5868 86.1512 -4.5783
v  -3.4623 87.2795 -3.1564
v  -3.7089 87.7595 -1.2126
v  -3.2658 87.4564 0.7328
v  -2.2574 86.4450 2.1580
v  8.4163 88.5919 1.7033
v  7.6391 90.3788 2.2255
v  9.0270 87.3025 0.2775
v  9.3074 86.8562 -1.6686
v  9.1904 87.3741 -3.6123
v  8.7151 88.7193 -5.0336
v  8.0090 90.5312 -5.5535
v  7.2533 92.3231 -5.0336
v  6.6427 93.6132 -3.6123
v  6.3408 94.0553 -1.6686
v  6.4363 93.5323 0.2775
v  6.9116 92.1865 1.7033
v  17.3530 90.8531 1.1555
v  17.0924 92.7840 1.6769
v  17.6158 89.4488 -0.2681
v  17.8106 88.9467 -2.2110
v  17.8946 89.4809 -4.1527
v  17.8542 90.9090 -5.5736
v  17.7000 92.8491 -6.0937
v  17.4641 94.7810 -5.5736
v  17.2009 96.1864 -4.1527
v  16.9812 96.6887 -2.2111
v  16.8726 96.1535 -0.2681
v  16.9133 94.7243 1.1555
v  28.9733 96.7968 -8.0777
v  29.2168 99.4390 -4.3511
v  30.7804 99.2838 -4.3518
v  30.4951 96.6458 -8.0784
v  30.0324 92.3335 -9.5337
v  28.5791 92.4777 -9.5330
v  29.5688 87.9940 -8.1618
v  28.1844 88.1314 -8.1611
v  29.2813 85.2849 -4.4867
v  27.9398 85.4181 -4.4860
v  29.2797 85.2410 0.0878
v  27.9389 85.3741 0.0885
v  29.5649 87.8790 3.8144
v  28.1822 88.0163 3.8152
v  30.0279 92.1913 5.2697
v  28.5768 92.3354 5.2705
v  30.4919 96.5307 3.8979
v  28.9720 96.6817 3.8986
v  30.7793 99.2399 0.2228
v  29.2164 99.3950 0.2235
v  30.5854 96.5900 -8.0166
v  30.8702 99.2003 -4.3288
v  30.8854 97.9895 -3.9509
v  30.6467 95.8286 -7.0044
v  30.2594 92.2961 -8.1968
v  30.1236 92.3230 -9.4568
v  29.8714 88.7413 -7.0727
v  29.6609 88.0290 -8.0991
v  29.6308 86.5221 -4.0615
v  29.3739 85.3484 -4.4623
v  29.6294 86.4861 -0.3132
v  29.3722 85.3049 0.0647
v  29.8680 88.6470 2.7402
v  29.6568 87.9152 3.7526
v  30.2556 92.1795 3.9327
v  30.1190 92.1822 5.1928
v  30.6438 95.7343 2.8085
v  30.5821 96.4761 3.8351
v  30.8843 97.9535 -0.2027
v  30.8690 99.1568 0.1982
v  28.4944 96.0696 -7.0432
v  28.6853 98.2531 -3.9648
v  29.1119 99.3748 -4.3279
v  28.8738 96.7598 -8.0158
v  28.4882 92.4852 -9.4560
v  28.1853 92.5002 -8.2454
v  28.1021 88.1837 -8.0983
v  27.8760 88.9084 -7.1121
v  27.8630 85.4983 -4.4615
v  27.6843 86.6661 -4.0762
v  27.8621 85.4548 0.0655
v  27.6838 86.6298 -0.2973
v  28.1001 88.0698 3.7534
v  27.8746 88.8133 2.7811
v  28.4861 92.3444 5.1936
v  28.1840 92.3827 3.9833
v  28.8725 96.6459 3.8359
v  28.4937 95.9745 2.8500
v  29.1116 99.3312 0.1990
v  28.6851 98.2168 -0.1859
v  35.8573 97.3438 -3.9533
v  35.5388 95.1931 -7.0068
v  35.0210 91.6774 -8.1992
v  34.5016 88.1395 -7.0751
v  34.1790 85.9307 -4.0639
v  34.1764 85.8948 -0.3156
v  34.4949 88.0454 2.7378
v  35.0129 91.5611 3.9303
v  35.5324 95.0990 2.8062
v  35.8549 97.3078 -0.2051
v  36.1945 98.4608 -4.3162
v  35.8100 95.8815 -7.9789
v  35.1851 91.6649 -9.4091
v  34.5583 87.4218 -8.0608
v  34.1689 84.7727 -4.4489
v  34.1657 84.7296 0.0471
v  34.5501 87.3089 3.7097
v  35.1752 91.5254 5.1401
v  35.8023 95.7686 3.7917
v  36.1916 98.4176 0.1797
v  36.4378 98.6283 -4.3797
v  36.0392 95.9745 -8.1486
v  35.3913 91.6364 -9.6204
v  34.7414 87.2707 -8.2329
v  34.3377 84.5452 -4.5161
v  34.3344 84.5009 0.1103
v  34.7329 87.1546 3.8793
v  35.3810 91.4928 5.3511
v  36.0311 95.8584 3.9636
v  36.4348 98.5839 0.2468
v  39.7677 98.1075 -4.3813
v  39.3354 95.4591 -8.1502
v  38.6323 91.1295 -9.6220
v  37.9268 86.7725 -8.2345
v  37.4884 84.0524 -4.5177
v  37.4847 84.0081 0.1087
v  37.9170 86.6565 3.8777
v  38.6202 90.9861 5.3495
v  39.3258 95.3431 3.9620
v  39.7641 98.0632 0.2452
v  28.3460 96.0130 -6.9500
v  28.0485 92.5108 -8.1294
v  25.9482 92.6601 -8.1284
v  26.1481 96.1692 -6.9490
v  27.7508 88.9866 -7.0176
v  25.7486 89.1290 -7.0165
v  27.5665 86.7865 -4.0393
v  25.6255 86.9246 -4.0382
v  27.5660 86.7509 -0.3320
v  25.6259 86.8890 -0.3310
v  27.7496 88.8933 2.6880
v  25.7499 89.0357 2.6891
v  28.0474 92.3955 3.8675
v  25.9502 92.5448 3.8685
v  28.3454 95.9197 2.7556
v  26.1501 96.0759 2.7567
v  28.5296 98.1198 -0.2227
v  26.2731 98.2803 -0.2216
v  28.5297 98.1554 -3.9299
v  26.2722 98.3159 -3.9289
v  26.0016 96.1082 -6.8557
v  25.8122 92.6665 -8.0123
v  25.6984 92.6651 -7.2172
v  25.8573 95.6418 -6.2170
v  25.6233 89.2033 -6.9220
v  25.5400 89.6696 -6.2743
v  25.5068 87.0413 -4.0013
v  25.4423 87.7997 -3.7483
v  25.5073 87.0064 -0.3657
v  25.4428 87.7695 -0.6041
v  25.6248 89.1118 2.5961
v  25.5414 89.5905 1.9574
v  25.8144 92.5535 3.7526
v  25.7005 92.5673 2.9577
v  26.0037 96.0168 2.6623
v  25.8592 95.5627 2.0147
v  26.1200 98.1788 -0.2584
v  25.9568 97.4327 -0.5113
v  26.1192 98.2137 -3.8940
v  25.9560 97.4629 -3.6555
v  18.6908 92.6140 -7.2136
v  18.4619 95.5862 -6.2134
v  18.9224 89.6233 -6.2707
v  19.0681 87.7565 -3.7447
v  19.0724 87.7266 -0.6005
v  18.9338 89.5451 1.9610
v  18.7054 92.5173 2.9613
v  18.4741 95.5081 2.0183
v  18.3282 97.3749 -0.5077
v  18.3235 97.4047 -3.6519
v  17.1975 92.4626 -6.1871
v  16.9310 94.8275 -5.3885
v  17.4667 90.0829 -5.4343
v  17.6356 88.5975 -3.4176
v  17.6399 88.5738 -0.9073
v  17.4780 90.0208 1.1377
v  17.2118 92.3858 1.9363
v  16.9429 94.7655 1.1834
v  16.7738 96.2509 -0.8333
v  16.7693 96.2746 -3.3435
v  19.2208 95.0267 -5.4140
v  19.1321 96.4800 -3.3690
v  19.3676 92.6513 -6.2126
v  19.5165 90.2611 -5.4597
v  19.6104 88.7691 -3.4431
v  19.6135 88.7452 -0.9328
v  19.5248 90.1985 1.1122
v  19.3781 92.5739 1.9108
v  19.2295 94.9642 1.1579
v  19.1355 96.4561 -0.8588
v  39.5339 96.6657 -3.9221
v  39.1895 94.5591 -6.9202
v  38.6299 91.1150 -8.0909
v  38.0690 87.6492 -6.9872
v  37.7208 85.4853 -4.0306
v  37.7185 85.4500 -0.3504
v  38.0630 87.5566 2.6476
v  38.6226 91.0006 3.8184
v  39.1836 94.4665 2.7147
v  39.5318 96.6303 -0.2419
v  36.4228 97.1536 -3.9221
v  36.1031 95.0430 -6.9202
v  35.5839 91.5927 -8.0909
v  35.0637 88.1205 -6.9872
v  34.7409 85.9527 -4.0306
v  34.7389 85.9173 -0.3504
v  35.0586 88.0279 2.6476
v  35.5779 91.4782 3.8184
v  36.0983 94.9504 2.7147
v  36.4211 97.1182 -0.2419
v  -27.6853 -88.5084 -3.8068
v  -25.0355 -88.6458 -0.0801
v  -25.1152 -90.2160 -0.0809
v  -27.7650 -90.0787 -3.8075
v  -32.0964 -89.8577 -5.2628
v  -32.0167 -88.2875 -5.2620
v  -36.4550 -89.6376 -3.8909
v  -36.3754 -88.0674 -3.8902
v  -39.1760 -89.5024 -0.2158
v  -39.0963 -87.9322 -0.2151
v  -39.2200 -89.5038 4.3587
v  -39.1403 -87.9335 4.3594
v  -36.5701 -89.6411 8.0854
v  -36.4905 -88.0709 8.0861
v  -32.2387 -89.8620 9.5406
v  -32.1590 -88.2918 9.5414
v  -27.8801 -90.0822 8.1688
v  -27.8004 -88.5120 8.1695
v  -25.1591 -90.2174 4.4937
v  -25.0794 -88.6472 4.4944
v  -27.8157 -90.1748 -3.7457
v  -25.1935 -90.3107 -0.0579
v  -26.4015 -90.3970 0.3200
v  -28.5727 -90.2845 -2.7335
v  -32.1217 -90.1034 -3.9259
v  -32.1021 -89.9561 -5.1859
v  -35.6930 -89.9231 -2.8018
v  -36.4154 -89.7383 -3.8282
v  -37.9225 -89.8123 0.2094
v  -39.1081 -89.6045 -0.1914
v  -37.9585 -89.8134 3.9577
v  -39.1516 -89.6059 4.3356
v  -35.7873 -89.9259 7.0111
v  -36.5294 -89.7418 8.0235
v  -32.2383 -90.1070 8.2036
v  -32.2429 -89.9604 9.4637
v  -28.6670 -90.2873 7.0795
v  -27.9296 -90.1782 8.1060
v  -26.4375 -90.3981 4.0682
v  -25.2370 -90.3121 4.4691
v  -28.4294 -88.0442 -2.7723
v  -26.2405 -88.1577 0.3062
v  -25.1038 -88.5437 -0.0570
v  -27.7261 -88.4078 -3.7449
v  -32.0125 -88.1891 -5.1850
v  -32.0075 -87.8617 -3.9745
v  -36.3258 -87.9713 -3.8274
v  -35.6080 -87.6799 -2.8412
v  -39.0184 -87.8375 -0.1905
v  -37.8557 -87.5682 0.1947
v  -39.0620 -87.8389 4.3364
v  -37.8920 -87.5693 3.9736
v  -36.4397 -87.9748 8.0243
v  -35.7031 -87.6828 7.0520
v  -32.1533 -88.1934 9.4645
v  -32.1250 -87.8653 8.2542
v  -27.8400 -88.4113 8.1069
v  -28.5245 -88.0471 7.1209
v  -25.1473 -88.5450 4.4700
v  -26.2768 -88.1588 4.0850
v  -26.6610 -95.5114 0.3176
v  -28.8322 -95.3988 -2.7359
v  -32.3812 -95.2178 -3.9283
v  -35.9526 -95.0374 -2.8042
v  -38.1820 -94.9267 0.2071
v  -38.2180 -94.9277 3.9553
v  -36.0469 -95.0403 7.0087
v  -32.4978 -95.2213 8.2012
v  -28.9265 -95.4017 7.0771
v  -26.6970 -95.5124 4.0658
v  -25.5171 -95.7443 -0.0453
v  -28.1214 -95.6093 -3.7080
v  -32.3785 -95.3922 -5.1382
v  -36.6622 -95.1759 -3.7899
v  -39.3365 -95.0430 -0.1779
v  -39.3797 -95.0443 4.3180
v  -36.7754 -95.1793 7.9807
v  -32.5183 -95.3965 9.4110
v  -28.2346 -95.6128 8.0626
v  -25.5603 -95.7457 4.4506
v  -25.3271 -95.9750 -0.1087
v  -28.0070 -95.8361 -3.8777
v  -32.3876 -95.6126 -5.3495
v  -36.7957 -95.3901 -3.9620
v  -39.5476 -95.2533 -0.2452
v  -39.5920 -95.2547 4.3813
v  -36.9121 -95.3936 8.1502
v  -32.5315 -95.6170 9.6220
v  -28.1234 -95.8396 8.2345
v  -25.3716 -95.9764 4.5177
v  -25.5028 -99.4376 -0.1103
v  -28.1827 -99.2987 -3.8793
v  -32.5633 -99.0752 -5.3511
v  -36.9715 -98.8526 -3.9636
v  -39.7233 -98.7159 -0.2468
v  -39.7677 -98.7173 4.3797
v  -37.0879 -98.8562 8.1486
v  -32.7072 -99.0797 9.6204
v  -28.2991 -99.3022 8.2329
v  -25.5473 -99.4390 4.5161
v  -28.4908 -87.8926 -2.6791
v  -32.0011 -87.7136 -3.8585
v  -31.8853 -85.4314 -3.8574
v  -28.3750 -85.6105 -2.6780
v  -35.5333 -87.5351 -2.7467
v  -35.4175 -85.2531 -2.7456
v  -37.7384 -87.4256 0.2317
v  -37.6226 -85.1435 0.2327
v  -37.7740 -87.4267 3.9389
v  -37.6582 -85.1446 3.9399
v  -35.6266 -87.5380 6.9590
v  -35.5108 -85.2559 6.9600
v  -32.1164 -87.7171 8.1384
v  -32.0006 -85.4349 8.1394
v  -28.5841 -87.8954 7.0266
v  -28.4683 -85.6133 7.0276
v  -26.3790 -88.0050 4.0482
v  -26.2632 -85.7229 4.0493
v  -26.3434 -88.0039 0.3410
v  -26.2276 -85.7218 0.3420
v  -28.4364 -85.4589 -2.5848
v  -31.8789 -85.2833 -3.7414
v  -31.8802 -85.1593 -2.9463
v  -28.9031 -85.3111 -1.9460
v  -35.3429 -85.1083 -2.6511
v  -34.8760 -85.0080 -2.0034
v  -37.5053 -85.0009 0.2697
v  -36.7462 -84.9151 0.5227
v  -37.5403 -85.0019 3.9052
v  -36.7764 -84.9160 3.6669
v  -35.4344 -85.1112 6.8670
v  -34.9551 -85.0104 6.2283
v  -31.9919 -85.2867 8.0236
v  -31.9780 -85.1623 7.2286
v  -28.5279 -85.4616 6.9332
v  -28.9822 -85.3136 6.2856
v  -26.3655 -85.5691 4.0125
v  -27.1120 -85.4065 3.7596
v  -26.3305 -85.5680 0.3769
v  -27.0818 -85.4056 0.6154
v  -31.4879 -77.4282 -2.9427
v  -28.5107 -77.5800 -1.9425
v  -34.4837 -77.2769 -1.9998
v  -36.3539 -77.1840 0.5262
v  -36.3841 -77.1849 3.6704
v  -34.5628 -77.2793 6.2319
v  -31.5857 -77.4312 7.2322
v  -28.5899 -77.5825 6.2892
v  -26.7197 -77.6754 3.7632
v  -26.6894 -77.6745 0.6190
v  -31.4126 -75.7514 -1.9162
v  -29.0358 -75.8727 -1.1176
v  -33.8044 -75.6307 -1.1633
v  -35.2975 -75.5565 0.8533
v  -35.3217 -75.5572 3.3636
v  -33.8676 -75.6326 5.4086
v  -31.4907 -75.7538 6.2072
v  -29.0989 -75.8746 5.4543
v  -27.6058 -75.9488 3.4376
v  -27.5817 -75.9481 0.9274
v  -29.1591 -78.3039 -1.1431
v  -27.7051 -78.3793 0.9019
v  -31.5360 -78.1827 -1.9417
v  -33.9278 -78.0619 -1.1888
v  -35.4209 -77.9877 0.8279
v  -35.4451 -77.9884 3.3381
v  -33.9910 -78.0638 5.3831
v  -31.6141 -78.1850 6.1817
v  -29.2223 -78.3058 5.4289
v  -27.7292 -78.3800 3.4121
v  -26.9616 -99.3636 0.3488
v  -29.0934 -99.2525 -2.6492
v  -32.5780 -99.0745 -3.8200
v  -36.0845 -98.8976 -2.7163
v  -38.2735 -98.7895 0.2403
v  -38.3089 -98.7913 3.9205
v  -36.1772 -98.9024 6.9186
v  -32.6926 -99.0804 8.0893
v  -29.1861 -99.2572 6.9856
v  -26.9970 -99.3654 4.0290
v  -26.7965 -96.1094 0.3488
v  -28.9282 -95.9983 -2.6492
v  -32.4129 -95.8203 -3.8200
v  -35.9194 -95.6435 -2.7163
v  -38.1084 -95.5353 0.2403
v  -38.1438 -95.5371 3.9205
v  -36.0121 -95.6483 6.9186
v  -32.5275 -95.8262 8.0893
v  -29.0209 -96.0031 6.9856
v  -26.8319 -96.1113 4.0290
# 536 vertices

vn 0.0026 0.0494 0.9988
vn 0.5074 0.0172 0.8616
vn 0.5030 -0.0031 0.8643
vn 0.0013 0.0255 0.9997
vn 0.8719 -0.0197 0.4894
vn 0.8678 -0.0305 0.4960
vn 0.9986 -0.0514 -0.0131
vn 0.9987 -0.0500 -0.0039
vn 0.8579 -0.0696 -0.5090
vn 0.8631 -0.0567 -0.5018
vn 0.4915 -0.0696 -0.8681
vn 0.4974 -0.0488 -0.8661
vn -0.0026 -0.0513 -0.9987
vn -0.0014 -0.0276 -0.9996
vn -0.4960 -0.0193 -0.8681
vn -0.4998 0.0015 -0.8661
vn -0.8605 0.0177 -0.5091
vn -0.8644 0.0304 -0.5019
vn -0.9987 0.0499 -0.0132
vn -0.9987 0.0509 -0.0040
vn -0.8694 0.0685 0.4894
vn -0.8664 0.0571 0.4961
vn -0.5030 0.0683 0.8616
vn -0.5007 0.0477 0.8643
vn 0.4996 -0.0287 0.8658
vn -0.0003 -0.0036 1.0000
vn 0.8653 -0.0461 0.4991
vn 0.9987 -0.0511 -0.0014
vn 0.8643 -0.0423 -0.5011
vn 0.4988 -0.0222 -0.8664
vn 0.0001 0.0038 -1.0000
vn -0.4986 0.0287 -0.8663
vn -0.8642 0.0460 -0.5010
vn -0.9987 0.0510 -0.0013
vn -0.8656 0.0424 0.4990
vn -0.5001 0.0224 0.8657
vn 0.4986 -0.0318 0.8663
vn -0.0008 -0.0050 1.0000
vn 0.8644 -0.0501 0.5003
vn 0.9985 -0.0549 0.0001
vn 0.8648 -0.0450 -0.5002
vn 0.4991 -0.0230 -0.8662
vn -0.0002 0.0052 -1.0000
vn -0.4994 0.0319 -0.8658
vn -0.8647 0.0501 -0.4998
vn -0.9985 0.0549 0.0001
vn -0.8649 0.0450 0.4999
vn -0.4998 0.0231 0.8658
vn 0.4979 -0.0241 0.8669
vn -0.0007 0.0105 0.9999
vn 0.8636 -0.0523 0.5014
vn 0.9978 -0.0665 0.0010
vn 0.8638 -0.0629 -0.4999
vn 0.4976 -0.0423 -0.8664
vn -0.0021 -0.0104 -0.9999
vn -0.5009 0.0244 -0.8652
vn -0.8652 0.0526 -0.4987
vn -0.9978 0.0666 0.0010
vn -0.8636 0.0628 0.5002
vn -0.4988 0.0423 0.8657
vn 0.4959 -0.0294 0.8679
vn -0.0022 0.0246 0.9997
vn 0.8615 -0.0758 0.5021
vn 0.9948 -0.1019 0.0001
vn 0.8591 -0.1005 -0.5018
vn 0.4920 -0.0718 -0.8677
vn -0.0067 -0.0236 -0.9997
vn -0.5026 0.0309 -0.8640
vn -0.8638 0.0769 -0.4980
vn -0.9948 0.1022 0.0002
vn -0.8613 0.1004 0.4981
vn -0.4985 0.0720 0.8639
vn 0.4851 -0.0687 0.8718
vn -0.0056 0.0396 0.9992
vn 0.8470 -0.1594 0.5072
vn 0.9783 -0.2072 0.0022
vn 0.8409 -0.1978 -0.5038
vn 0.4737 -0.1337 -0.8705
vn -0.0198 -0.0331 -0.9993
vn -0.5051 0.0756 -0.8597
vn -0.8543 0.1633 -0.4935
vn -0.9782 0.2076 0.0009
vn -0.8462 0.1978 0.4948
vn -0.4918 0.1367 0.8599
vn 0.4752 -0.1286 0.8704
vn 0.0101 0.0583 0.9982
vn 0.8145 -0.2826 0.5066
vn 0.9324 -0.3613 0.0022
vn 0.7935 -0.3409 -0.5042
vn 0.4369 -0.2262 -0.8706
vn -0.0356 -0.0498 -0.9981
vn -0.4950 0.1389 -0.8577
vn -0.8214 0.2893 -0.4915
vn -0.9320 0.3624 0.0027
vn -0.7988 0.3401 0.4962
vn -0.4554 0.2291 0.8603
vn 0.4683 -0.1783 0.8654
vn 0.0249 0.0545 0.9982
vn 0.7862 -0.3639 0.4995
vn 0.8920 -0.4520 -0.0015
vn 0.7572 -0.4180 -0.5019
vn 0.4193 -0.2713 -0.8664
vn -0.0297 -0.0519 -0.9982
vn -0.4703 0.1810 -0.8637
vn -0.7858 0.3652 -0.4992
vn -0.8921 0.4517 -0.0012
vn -0.7603 0.4177 0.4975
vn -0.4248 0.2723 0.8633
vn 0.4285 -0.2344 0.8726
vn 0.0101 0.0478 0.9988
vn 0.7324 -0.4551 0.5064
vn 0.8345 -0.5511 -0.0010
vn 0.7059 -0.4945 -0.5071
vn 0.3856 -0.3020 -0.8718
vn -0.0362 -0.0283 -0.9989
vn -0.4458 0.2515 -0.8591
vn -0.7365 0.4627 -0.4935
vn -0.8340 0.5517 -0.0004
vn -0.7143 0.4976 0.4921
vn -0.4072 0.3145 0.8575
vn 0.3467 -0.3340 0.8765
vn 0.0144 0.0479 0.9987
vn 0.5868 -0.6281 0.5111
vn 0.6631 -0.7485 -0.0004
vn 0.5526 -0.6577 -0.5119
vn 0.2897 -0.3831 -0.8771
vn -0.0487 -0.0069 -0.9988
vn -0.3704 0.3659 -0.8537
vn -0.5930 0.6400 -0.4887
vn -0.6621 0.7494 -0.0007
vn -0.5622 0.6677 0.4879
vn -0.3170 0.4132 0.8537
vn 0.2323 -0.4209 0.8769
vn 0.0364 0.0429 0.9984
vn 0.3629 -0.7777 0.5133
vn 0.3898 -0.9209 0.0009
vn 0.3068 -0.8019 -0.5127
vn 0.1421 -0.4580 -0.8775
vn -0.0552 0.0063 -0.9985
vn -0.2351 0.4629 -0.8547
vn -0.3568 0.7949 -0.4907
vn -0.3908 0.9205 -0.0012
vn -0.3240 0.8096 0.4895
vn -0.1683 0.4905 0.8550
vn 0.1703 -0.4680 0.8672
vn 0.0489 0.0296 0.9984
vn 0.2403 -0.8347 0.4956
vn 0.2392 -0.9708 -0.0146
vn 0.1711 -0.8357 -0.5218
vn 0.0604 -0.4698 -0.8807
vn -0.0603 0.0143 -0.9981
vn -0.1630 0.4839 -0.8598
vn -0.2278 0.8287 -0.5112
vn -0.2400 0.9702 -0.0322
vn -0.1909 0.8637 0.4665
vn -0.0855 0.5205 0.8496
vn -0.2586 0.5924 -0.7630
vn -0.2201 0.9328 -0.2853
vn 0.3996 0.8711 -0.2856
vn 0.3694 0.5301 -0.7633
vn 0.3209 -0.0245 -0.9468
vn -0.3213 0.0391 -0.9462
vn 0.2730 -0.5786 -0.7686
vn -0.3843 -0.5131 -0.7675
vn 0.2436 -0.9224 -0.2996
vn -0.4236 -0.8552 -0.2987
vn 0.2434 -0.9281 0.2819
vn -0.4240 -0.8606 0.2820
vn 0.2723 -0.5933 0.7575
vn -0.3854 -0.5275 0.7571
vn 0.3201 -0.0427 0.9464
vn -0.3225 0.0211 0.9464
vn 0.3690 0.5153 0.7735
vn -0.2595 0.5776 0.7740
vn 0.3995 0.8654 0.3025
vn -0.2204 0.9271 0.3031
vn 0.8732 0.2269 -0.4314
vn 0.8905 0.4247 -0.1634
vn 0.9994 0.0014 -0.0349
vn 0.9950 -0.0410 -0.0906
vn 0.9884 -0.1064 -0.1085
vn 0.8463 -0.0863 -0.5256
vn 0.9822 -0.1673 -0.0851
vn 0.8211 -0.3880 -0.4187
vn 0.9786 -0.2030 -0.0327
vn 0.8064 -0.5689 -0.1613
vn 0.9786 -0.2037 0.0299
vn 0.8064 -0.5718 0.1509
vn 0.9821 -0.1691 0.0831
vn 0.8211 -0.3957 0.4113
vn 0.9882 -0.1085 0.1076
vn 0.8463 -0.0965 0.5239
vn 0.9949 -0.0427 0.0909
vn 0.8733 0.2181 0.4357
vn 0.9994 0.0008 0.0360
vn 0.8905 0.4211 0.1720
vn -0.8395 0.3699 -0.3980
vn -0.8189 0.5538 -0.1506
vn -0.7512 0.6358 -0.1774
vn -0.7772 0.4194 -0.4692
vn -0.8179 0.0789 -0.5699
vn -0.8722 0.0809 -0.4824
vn -0.8575 -0.2463 -0.4518
vn -0.9037 -0.1940 -0.3817
vn -0.8812 -0.4400 -0.1730
vn -0.9226 -0.3570 -0.1460
vn -0.8813 -0.4432 0.1641
vn -0.9229 -0.3594 0.1381
vn -0.8575 -0.2551 0.4467
vn -0.9045 -0.2006 0.3763
vn -0.8179 0.0680 0.5713
vn -0.8733 0.0718 0.4819
vn -0.7770 0.4106 0.4772
vn -0.8404 0.3617 0.4035
vn -0.7512 0.6324 0.1893
vn -0.8193 0.5505 0.1604
vn 0.0767 0.5932 -0.8014
vn 0.1228 0.9464 -0.2988
vn 0.0766 0.5928 -0.8017
vn 0.0013 0.0135 -0.9999
vn 0.0012 0.0128 -0.9999
vn -0.0748 -0.5725 -0.8165
vn -0.0749 -0.5730 -0.8161
vn -0.1223 -0.9397 -0.3193
vn -0.1224 -0.9398 -0.3190
vn -0.1228 -0.9457 0.3010
vn -0.1228 -0.9457 0.3008
vn -0.0761 -0.5881 0.8052
vn -0.0761 -0.5885 0.8049
vn -0.0002 -0.0056 1.0000
vn -0.0003 -0.0063 1.0000
vn 0.0755 0.5778 0.8127
vn 0.0754 0.5773 0.8130
vn 0.1223 0.9406 0.3168
vn 0.1223 0.9405 0.3171
vn -0.9679 0.2259 -0.1103
vn -0.9602 0.2764 -0.0413
vn -0.7870 0.5986 -0.1493
vn -0.8160 0.4194 -0.3978
vn -0.9801 0.1459 -0.1347
vn -0.8623 0.1325 -0.4887
vn -0.9919 0.0687 -0.1073
vn -0.9077 -0.1484 -0.3925
vn -0.9989 0.0222 -0.0410
vn -0.9353 -0.3198 -0.1517
vn -0.9990 0.0215 0.0397
vn -0.9355 -0.3226 0.1439
vn -0.9920 0.0668 0.1068
vn -0.9083 -0.1558 0.3881
vn -0.9803 0.1433 0.1356
vn -0.8632 0.1232 0.4897
vn -0.9681 0.2236 0.1129
vn -0.8167 0.4117 0.4044
vn -0.9602 0.2755 0.0450
vn -0.7873 0.5956 0.1595
vn -0.5913 0.7776 -0.2140
vn -0.6344 0.5220 -0.5701
vn -0.7037 0.1115 -0.7017
vn -0.7718 -0.2921 -0.5648
vn -0.8134 -0.5391 -0.2186
vn -0.8137 -0.5432 0.2070
vn -0.7726 -0.3029 0.5580
vn -0.7047 0.0980 0.7027
vn -0.6352 0.5110 0.5791
vn -0.5916 0.7733 0.2279
vn 0.1473 0.9427 -0.2995
vn 0.0917 0.5892 -0.8028
vn 0.0918 0.5893 -0.8027
vn 0.0012 0.0109 -0.9999
vn 0.0012 0.0106 -0.9999
vn -0.0899 -0.5720 -0.8153
vn -0.0899 -0.5723 -0.8151
vn -0.1466 -0.9365 -0.3186
vn -0.1467 -0.9365 -0.3184
vn -0.1473 -0.9424 0.3002
vn -0.0915 -0.5876 0.8040
vn -0.0915 -0.5877 0.8039
vn -0.0008 -0.0082 1.0000
vn -0.0008 -0.0085 1.0000
vn 0.0902 0.5739 0.8139
vn 0.0901 0.5737 0.8141
vn 0.1467 0.9368 0.3176
vn 0.1466 0.9367 0.3178
vn -0.3123 0.5852 -0.7484
vn -0.3661 0.0417 -0.9296
vn -0.3243 0.0289 -0.9455
vn -0.2789 0.5836 -0.7626
vn -0.4202 -0.5028 -0.7554
vn -0.3700 -0.5246 -0.7667
vn -0.4540 -0.8410 -0.2942
vn -0.3985 -0.8673 -0.2983
vn -0.4541 -0.8465 0.2781
vn -0.3988 -0.8727 0.2817
vn -0.4205 -0.5170 0.7456
vn -0.3707 -0.5389 0.7564
vn -0.3664 0.0238 0.9302
vn -0.3250 0.0108 0.9456
vn -0.3126 0.5706 0.7594
vn -0.2794 0.5687 0.7736
vn -0.2795 0.9130 0.2972
vn -0.2513 0.9193 0.3030
vn -0.2793 0.9186 -0.2795
vn -0.2512 0.9250 -0.2851
vn -0.8186 0.3711 -0.4384
vn -0.8449 0.0516 -0.5325
vn -0.9884 0.0547 -0.1417
vn -0.9827 0.1417 -0.1189
vn -0.8704 -0.2535 -0.4221
vn -0.9936 -0.0252 -0.1101
vn -0.8857 -0.4352 -0.1615
vn -0.9966 -0.0711 -0.0415
vn -0.8857 -0.4381 0.1535
vn -0.9966 -0.0717 0.0398
vn -0.8702 -0.2615 0.4176
vn -0.9937 -0.0270 0.1091
vn -0.8446 0.0415 0.5338
vn -0.9885 0.0521 0.1421
vn -0.8183 0.3627 0.4459
vn -0.9828 0.1392 0.1211
vn -0.8019 0.5707 0.1771
vn -0.9791 0.1974 0.0489
vn -0.8020 0.5739 -0.1656
vn -0.9791 0.1985 -0.0452
vn -0.0049 0.6038 -0.7971
vn -0.0007 0.0215 -0.9998
vn -0.2780 -0.0060 -0.9606
vn -0.2967 0.5605 -0.7732
vn 0.0035 -0.5728 -0.8197
vn -0.2630 -0.5704 -0.7781
vn 0.0062 -0.9470 -0.3212
vn -0.2554 -0.9185 -0.3018
vn 0.0066 -0.9530 0.3028
vn -0.2565 -0.9232 0.2861
vn 0.0045 -0.5885 0.8085
vn -0.2657 -0.5839 0.7671
vn 0.0005 0.0023 1.0000
vn -0.2808 -0.0246 0.9594
vn -0.0040 0.5885 0.8085
vn -0.2972 0.5434 0.7851
vn -0.0071 0.9494 0.3141
vn -0.3078 0.9003 0.3079
vn -0.0074 0.9552 -0.2959
vn -0.3083 0.9060 -0.2900
vn -0.5671 -0.0459 -0.8223
vn -0.5879 0.4513 -0.6714
vn -0.5456 -0.5226 -0.6552
vn -0.5321 -0.8089 -0.2503
vn -0.5288 -0.8135 0.2418
vn -0.5371 -0.5347 0.6524
vn -0.5567 -0.0607 0.8285
vn -0.5817 0.4348 0.6874
vn -0.6006 0.7517 0.2725
vn -0.6012 0.7569 -0.2563
vn 0.0860 -0.9511 0.2966
vn 0.0609 -0.5967 0.8001
vn 0.0606 -0.5949 0.8015
vn 0.0858 -0.9500 0.3002
vn 0.0131 -0.0134 0.9998
vn 0.0128 -0.0135 0.9998
vn -0.0399 0.5767 0.8160
vn -0.0399 0.5744 0.8176
vn -0.0780 0.9451 0.3173
vn -0.0779 0.9437 0.3216
vn -0.0863 0.9489 -0.3034
vn -0.0864 0.9503 -0.2990
vn -0.0609 0.5881 -0.8065
vn -0.0614 0.5906 -0.8047
vn -0.0119 0.0034 -0.9999
vn -0.0122 0.0038 -0.9999
vn 0.0415 -0.5812 -0.8127
vn 0.0414 -0.5828 -0.8115
vn 0.0787 -0.9447 -0.3182
vn 0.0788 -0.9459 -0.3148
vn 0.9870 -0.1605 -0.0005
vn 0.9871 -0.1603 -0.0001
vn 0.9871 -0.1598 -0.0001
vn 0.9872 -0.1597 -0.0005
vn 0.9871 -0.1601 -0.0008
vn -0.1262 -0.8048 0.5800
vn -0.0493 -0.3143 0.9481
vn 0.0465 0.2963 0.9540
vn 0.1245 0.7936 0.5955
vn 0.1549 0.9879 0.0096
vn 0.1262 0.8048 -0.5800
vn 0.0493 0.3143 -0.9481
vn -0.0465 -0.2963 -0.9540
vn -0.1245 -0.7937 -0.5955
vn -0.1549 -0.9879 -0.0096
vn 0.9889 -0.1485 -0.0009
vn 0.9889 -0.1484 -0.0010
vn 0.5816 0.2787 -0.7643
vn 0.9222 0.2611 -0.2852
vn 0.8911 -0.3528 -0.2856
vn 0.5504 -0.3353 -0.7646
vn -0.0064 -0.3069 -0.9517
vn 0.0247 0.3070 -0.9514
vn -0.5668 -0.2786 -0.7754
vn -0.5357 0.3353 -0.7750
vn -0.9166 -0.2611 -0.3029
vn -0.8854 0.3529 -0.3025
vn -0.9222 -0.2611 0.2852
vn -0.8910 0.3528 0.2856
vn -0.5816 -0.2786 0.7643
vn -0.5504 0.3353 0.7646
vn -0.0247 -0.3070 0.9514
vn 0.0064 0.3069 0.9517
vn 0.5356 -0.3354 0.7750
vn 0.5668 0.2786 0.7754
vn 0.8854 -0.3528 0.3025
vn 0.9165 0.2611 0.3029
vn 0.2809 -0.8542 -0.4375
vn 0.4757 -0.8642 -0.1638
vn 0.0602 -0.9976 -0.0356
vn 0.0187 -0.9954 -0.0939
vn -0.0492 -0.9919 -0.1167
vn -0.0373 -0.8380 -0.5445
vn -0.1175 -0.9885 -0.0952
vn -0.3576 -0.8218 -0.4437
vn -0.1601 -0.9864 -0.0377
vn -0.5575 -0.8118 -0.1736
vn -0.1609 -0.9864 0.0340
vn -0.5608 -0.8118 0.1625
vn -0.1193 -0.9885 0.0924
vn -0.3661 -0.8219 0.4365
vn -0.0515 -0.9920 0.1152
vn -0.0477 -0.8381 0.5434
vn 0.0168 -0.9955 0.0937
vn 0.2725 -0.8544 0.4425
vn 0.0595 -0.9976 0.0361
vn 0.4725 -0.8643 0.1724
vn 0.3450 0.8461 -0.4062
vn 0.5263 0.8368 -0.1512
vn 0.6067 0.7749 -0.1775
vn 0.3940 0.7860 -0.4765
vn 0.0465 0.8036 -0.5934
vn 0.0486 0.8613 -0.5058
vn -0.3033 0.8213 -0.4833
vn -0.2497 0.8763 -0.4120
vn -0.5215 0.8322 -0.1883
vn -0.4358 0.8856 -0.1604
vn -0.5250 0.8321 0.1787
vn -0.4388 0.8855 0.1526
vn -0.3124 0.8211 0.4776
vn -0.2575 0.8762 0.4075
vn 0.0351 0.8034 0.5944
vn 0.0388 0.8610 0.5070
vn 0.3847 0.7857 0.4844
vn 0.3370 0.8460 0.4132
vn 0.6030 0.7749 0.1895
vn 0.5232 0.8367 0.1618
vn 0.5947 -0.0298 -0.8034
vn 0.9527 -0.0482 -0.2999
vn 0.9528 -0.0482 -0.2998
vn 0.5948 -0.0298 -0.8033
vn 0.0096 -0.0000 -1.0000
vn -0.5792 0.0298 -0.8146
vn -0.5793 0.0298 -0.8146
vn -0.9468 0.0482 -0.3182
vn -0.9468 0.0482 -0.3181
vn -0.9528 0.0482 0.2998
vn -0.9527 0.0482 0.2999
vn -0.5948 0.0298 0.8033
vn -0.5947 0.0298 0.8034
vn -0.0096 0.0000 1.0000
vn 0.5793 -0.0298 0.8146
vn 0.5792 -0.0298 0.8146
vn 0.9468 -0.0482 0.3181
vn 0.9468 -0.0482 0.3182
vn 0.1353 0.9842 -0.1142
vn 0.1865 0.9815 -0.0422
vn 0.5261 0.8369 -0.1512
vn 0.3449 0.8462 -0.4061
vn 0.0515 0.9885 -0.1424
vn 0.0486 0.8614 -0.5056
vn -0.0328 0.9927 -0.1159
vn -0.2496 0.8764 -0.4118
vn -0.0854 0.9953 -0.0448
vn -0.4357 0.8857 -0.1604
vn -0.0862 0.9953 0.0437
vn -0.4386 0.8856 0.1525
vn -0.0350 0.9927 0.1158
vn -0.2574 0.8763 0.4073
vn 0.0488 0.9884 0.1439
vn 0.0388 0.8612 0.5069
vn 0.1331 0.9841 0.1174
vn 0.3369 0.8461 0.4130
vn 0.1857 0.9815 0.0463
vn 0.5230 0.8368 0.1617
vn 0.7237 0.6554 -0.2162
vn 0.4650 0.6687 -0.5802
vn 0.0420 0.6904 -0.7222
vn -0.3837 0.7119 -0.5883
vn -0.6494 0.7251 -0.2294
vn -0.6535 0.7250 0.2173
vn -0.3948 0.7117 0.5811
vn 0.0281 0.6901 0.7231
vn 0.4536 0.6686 0.5892
vn 0.7193 0.6554 0.2305
vn 0.5754 0.3188 -0.7532
vn 0.0266 0.3468 -0.9376
vn 0.0247 0.3071 -0.9514
vn -0.5257 0.3746 -0.7638
vn -0.8703 0.3920 -0.2980
vn -0.8854 0.3528 -0.3025
vn -0.8759 0.3919 0.2815
vn -0.5401 0.3746 0.7536
vn 0.0086 0.3467 0.9379
vn 0.0064 0.3070 0.9517
vn 0.5608 0.3187 0.7642
vn 0.5668 0.2785 0.7754
vn 0.9055 0.3016 0.2986
vn 0.9166 0.2611 0.3029
vn 0.9111 0.3015 -0.2810
vn 0.3735 0.8128 -0.4470
vn 0.0474 0.8294 -0.5566
vn 0.0516 0.9868 -0.1538
vn 0.1420 0.9821 -0.1234
vn -0.2807 0.8460 -0.4533
vn -0.0394 0.9914 -0.1251
vn -0.4855 0.8562 -0.1766
vn -0.0963 0.9942 -0.0484
vn -0.4887 0.8562 0.1677
vn -0.0972 0.9942 0.0471
vn -0.2893 0.8458 0.4482
vn -0.0418 0.9913 0.1249
vn 0.0367 0.8292 0.5577
vn 0.0486 0.9867 0.1553
vn 0.3648 0.8126 0.4545
vn 0.1396 0.9821 0.1266
vn 0.5696 0.8024 0.1779
vn 0.1964 0.9793 0.0499
vn 0.5729 0.8025 -0.1665
vn 0.1973 0.9793 -0.0456
vn 0.0223 0.2575 -0.9660
vn 0.5877 0.2287 -0.7760
vn -0.5466 0.2863 -0.7869
vn -0.9018 0.3041 -0.3072
vn -0.9075 0.3040 0.2899
vn -0.5616 0.2862 0.7763
vn 0.0038 0.2575 0.9663
vn 0.5727 0.2287 0.7872
vn 0.9279 0.2109 0.3075
vn 0.9336 0.2109 -0.2896
vn 0.0346 0.5207 -0.8530
vn 0.5340 0.4953 -0.6852
vn -0.4679 0.5461 -0.6949
vn -0.7816 0.5618 -0.2711
vn -0.7866 0.5618 0.2563
vn -0.4811 0.5460 0.6859
vn 0.0182 0.5206 0.8536
vn 0.5207 0.4952 0.6955
vn 0.8344 0.4795 0.2718
vn 0.8395 0.4795 -0.2556
vn -0.9534 0.0453 0.2982
vn -0.5961 0.0218 0.8026
vn -0.5942 0.0217 0.8040
vn -0.9524 0.0452 0.3016
vn -0.0101 -0.0100 0.9999
vn 0.5797 -0.0379 0.8139
vn 0.5779 -0.0379 0.8152
vn 0.9472 -0.0514 0.3164
vn 0.9461 -0.0514 0.3198
vn 0.9524 -0.0452 -0.3016
vn 0.9534 -0.0453 -0.2981
vn 0.5942 -0.0217 -0.8040
vn 0.5961 -0.0218 -0.8026
vn 0.0101 0.0100 -0.9999
vn -0.5779 0.0379 -0.8152
vn -0.5797 0.0380 -0.8139
vn -0.9461 0.0514 -0.3198
vn -0.9472 0.0514 -0.3164
vn -0.0511 -0.9987 -0.0006
vn -0.0509 -0.9987 -0.0001
vn -0.0504 -0.9987 -0.0001
vn -0.0503 -0.9987 -0.0006
vn -0.0507 -0.9987 -0.0009
vn -0.8136 0.0413 0.5800
vn -0.3177 0.0161 0.9481
vn 0.2995 -0.0152 0.9540
vn 0.8023 -0.0407 0.5955
vn 0.9987 -0.0507 0.0096
vn 0.8136 -0.0413 -0.5800
vn 0.3177 -0.0161 -0.9481
vn -0.2995 0.0152 -0.9540
vn -0.8023 0.0407 -0.5955
vn -0.9987 0.0507 -0.0096
vn -0.0507 -0.9987 -0.0010
# 587 vertex normals

vt 0.2935 0.5225 0.0000
vt 0.2993 0.5224 0.0000
vt 0.2993 0.5654 0.0000
vt 0.2932 0.5655 0.0000
vt 0.3051 0.5221 0.0000
vt 0.3053 0.5653 0.0000
vt 0.3109 0.5217 0.0000
vt 0.3114 0.5652 0.0000
vt 0.3169 0.5213 0.0000
vt 0.3174 0.5651 0.0000
vt 0.3228 0.5210 0.0000
vt 0.3233 0.5650 0.0000
vt 0.3288 0.5209 0.0000
vt 0.3293 0.5650 0.0000
vt 0.2583 0.5208 0.0000
vt 0.2642 0.5210 0.0000
vt 0.2632 0.5650 0.0000
vt 0.2572 0.5649 0.0000
vt 0.2702 0.5213 0.0000
vt 0.2692 0.5651 0.0000
vt 0.2761 0.5217 0.0000
vt 0.2752 0.5652 0.0000
vt 0.2819 0.5221 0.0000
vt 0.2812 0.5654 0.0000
vt 0.2877 0.5224 0.0000
vt 0.2872 0.5655 0.0000
vt 0.2987 0.6009 0.0000
vt 0.2928 0.6008 0.0000
vt 0.3047 0.6011 0.0000
vt 0.3106 0.6014 0.0000
vt 0.3166 0.6016 0.0000
vt 0.3225 0.6019 0.0000
vt 0.3285 0.6020 0.0000
vt 0.2630 0.6019 0.0000
vt 0.2571 0.6020 0.0000
vt 0.2690 0.6017 0.0000
vt 0.2749 0.6014 0.0000
vt 0.2808 0.6011 0.0000
vt 0.2868 0.6009 0.0000
vt 0.2984 0.6293 0.0000
vt 0.2928 0.6293 0.0000
vt 0.3041 0.6293 0.0000
vt 0.3099 0.6293 0.0000
vt 0.3159 0.6294 0.0000
vt 0.3218 0.6294 0.0000
vt 0.3278 0.6295 0.0000
vt 0.2636 0.6295 0.0000
vt 0.2577 0.6296 0.0000
vt 0.2696 0.6295 0.0000
vt 0.2755 0.6294 0.0000
vt 0.2814 0.6294 0.0000
vt 0.2871 0.6293 0.0000
vt 0.2983 0.6613 0.0000
vt 0.2927 0.6612 0.0000
vt 0.3040 0.6613 0.0000
vt 0.3098 0.6614 0.0000
vt 0.3157 0.6615 0.0000
vt 0.3217 0.6616 0.0000
vt 0.3277 0.6616 0.0000
vt 0.2637 0.6618 0.0000
vt 0.2578 0.6618 0.0000
vt 0.2697 0.6617 0.0000
vt 0.2757 0.6616 0.0000
vt 0.2815 0.6614 0.0000
vt 0.2871 0.6613 0.0000
vt 0.2987 0.6979 0.0000
vt 0.2927 0.6979 0.0000
vt 0.3046 0.6979 0.0000
vt 0.3105 0.6980 0.0000
vt 0.3165 0.6981 0.0000
vt 0.3225 0.6982 0.0000
vt 0.3284 0.6981 0.0000
vt 0.2629 0.6985 0.0000
vt 0.2570 0.6985 0.0000
vt 0.2689 0.6984 0.0000
vt 0.2749 0.6982 0.0000
vt 0.2808 0.6981 0.0000
vt 0.2868 0.6979 0.0000
vt 0.2992 0.7501 0.0000
vt 0.2928 0.7502 0.0000
vt 0.3055 0.7501 0.0000
vt 0.3115 0.7499 0.0000
vt 0.3175 0.7498 0.0000
vt 0.3236 0.7497 0.0000
vt 0.3295 0.7496 0.0000
vt 0.2619 0.7503 0.0000
vt 0.2560 0.7503 0.0000
vt 0.2678 0.7502 0.0000
vt 0.2738 0.7502 0.0000
vt 0.2799 0.7502 0.0000
vt 0.2863 0.7502 0.0000
vt 0.3008 0.8143 0.0000
vt 0.2948 0.8143 0.0000
vt 0.3069 0.8144 0.0000
vt 0.3129 0.8144 0.0000
vt 0.3190 0.8144 0.0000
vt 0.3249 0.8145 0.0000
vt 0.3309 0.8144 0.0000
vt 0.2649 0.8151 0.0000
vt 0.2589 0.8153 0.0000
vt 0.2709 0.8149 0.0000
vt 0.2769 0.8147 0.0000
vt 0.2828 0.8145 0.0000
vt 0.2888 0.8144 0.0000
vt 0.3027 0.8652 0.0000
vt 0.2966 0.8652 0.0000
vt 0.3088 0.8652 0.0000
vt 0.3148 0.8652 0.0000
vt 0.3207 0.8653 0.0000
vt 0.3265 0.8653 0.0000
vt 0.3325 0.8652 0.0000
vt 0.2665 0.8659 0.0000
vt 0.2605 0.8660 0.0000
vt 0.2725 0.8657 0.0000
vt 0.2785 0.8656 0.0000
vt 0.2845 0.8654 0.0000
vt 0.2905 0.8653 0.0000
vt 0.3024 0.8998 0.0000
vt 0.2965 0.8998 0.0000
vt 0.3083 0.8999 0.0000
vt 0.3143 0.9002 0.0000
vt 0.3202 0.9004 0.0000
vt 0.3261 0.9005 0.0000
vt 0.3321 0.9006 0.0000
vt 0.2669 0.9011 0.0000
vt 0.2609 0.9013 0.0000
vt 0.2728 0.9008 0.0000
vt 0.2787 0.9005 0.0000
vt 0.2847 0.9002 0.0000
vt 0.2906 0.8999 0.0000
vt 0.3025 0.9272 0.0000
vt 0.2966 0.9273 0.0000
vt 0.3083 0.9272 0.0000
vt 0.3141 0.9271 0.0000
vt 0.3201 0.9269 0.0000
vt 0.3261 0.9268 0.0000
vt 0.3321 0.9267 0.0000
vt 0.2671 0.9275 0.0000
vt 0.2611 0.9275 0.0000
vt 0.2730 0.9274 0.0000
vt 0.2789 0.9274 0.0000
vt 0.2849 0.9274 0.0000
vt 0.2908 0.9273 0.0000
vt 0.3033 0.9514 0.0000
vt 0.2973 0.9514 0.0000
vt 0.3093 0.9517 0.0000
vt 0.3153 0.9521 0.0000
vt 0.3213 0.9524 0.0000
vt 0.3272 0.9527 0.0000
vt 0.3332 0.9526 0.0000
vt 0.2676 0.9533 0.0000
vt 0.2616 0.9534 0.0000
vt 0.2736 0.9530 0.0000
vt 0.2797 0.9525 0.0000
vt 0.2856 0.9520 0.0000
vt 0.2914 0.9516 0.0000
vt 0.3040 0.9763 0.0000
vt 0.2975 0.9762 0.0000
vt 0.3105 0.9767 0.0000
vt 0.3168 0.9771 0.0000
vt 0.3227 0.9776 0.0000
vt 0.3286 0.9779 0.0000
vt 0.3346 0.9778 0.0000
vt 0.2664 0.9786 0.0000
vt 0.2604 0.9786 0.0000
vt 0.2722 0.9781 0.0000
vt 0.2782 0.9775 0.0000
vt 0.2845 0.9769 0.0000
vt 0.2910 0.9764 0.0000
vt 0.2079 0.1322 0.0000
vt 0.1866 0.1254 0.0000
vt 0.1879 0.1194 0.0000
vt 0.2095 0.1261 0.0000
vt 0.2319 0.1329 0.0000
vt 0.2295 0.1409 0.0000
vt 0.0133 0.1316 0.0000
vt 0.0357 0.1249 0.0000
vt 0.0373 0.1310 0.0000
vt 0.0156 0.1395 0.0000
vt 0.0575 0.1189 0.0000
vt 0.0588 0.1248 0.0000
vt 0.0791 0.1139 0.0000
vt 0.0800 0.1198 0.0000
vt 0.1009 0.1110 0.0000
vt 0.1013 0.1169 0.0000
vt 0.1227 0.1110 0.0000
vt 0.1227 0.1169 0.0000
vt 0.1446 0.1109 0.0000
vt 0.1441 0.1168 0.0000
vt 0.1662 0.1147 0.0000
vt 0.1652 0.1207 0.0000
vt 0.2087 0.1252 0.0000
vt 0.1873 0.1190 0.0000
vt 0.1878 0.1130 0.0000
vt 0.2088 0.1183 0.0000
vt 0.2288 0.1224 0.0000
vt 0.2311 0.1303 0.0000
vt 0.0165 0.1212 0.0000
vt 0.0366 0.1173 0.0000
vt 0.0366 0.1241 0.0000
vt 0.0141 0.1290 0.0000
vt 0.0577 0.1123 0.0000
vt 0.0581 0.1184 0.0000
vt 0.0791 0.1081 0.0000
vt 0.0795 0.1138 0.0000
vt 0.1009 0.1056 0.0000
vt 0.1011 0.1111 0.0000
vt 0.1227 0.1050 0.0000
vt 0.1227 0.1109 0.0000
vt 0.1446 0.1057 0.0000
vt 0.1444 0.1111 0.0000
vt 0.1663 0.1087 0.0000
vt 0.1659 0.1145 0.0000
vt 0.2034 0.1383 0.0000
vt 0.1838 0.1317 0.0000
vt 0.1862 0.1257 0.0000
vt 0.2071 0.1326 0.0000
vt 0.2276 0.1429 0.0000
vt 0.2211 0.1479 0.0000
vt 0.0174 0.1414 0.0000
vt 0.0380 0.1314 0.0000
vt 0.0417 0.1371 0.0000
vt 0.0239 0.1464 0.0000
vt 0.0592 0.1251 0.0000
vt 0.0615 0.1309 0.0000
vt 0.0802 0.1203 0.0000
vt 0.0817 0.1264 0.0000
vt 0.1014 0.1173 0.0000
vt 0.1021 0.1236 0.0000
vt 0.1227 0.1172 0.0000
vt 0.1227 0.1232 0.0000
vt 0.1440 0.1173 0.0000
vt 0.1433 0.1237 0.0000
vt 0.1651 0.1210 0.0000
vt 0.1636 0.1270 0.0000
vt 0.1908 0.0925 0.0000
vt 0.2123 0.0974 0.0000
vt 0.2322 0.1023 0.0000
vt 0.0133 0.1011 0.0000
vt 0.0333 0.0964 0.0000
vt 0.0548 0.0918 0.0000
vt 0.0771 0.0878 0.0000
vt 0.0999 0.0854 0.0000
vt 0.1228 0.0847 0.0000
vt 0.1458 0.0856 0.0000
vt 0.1686 0.0884 0.0000
vt 0.1918 0.0864 0.0000
vt 0.2141 0.0914 0.0000
vt 0.2364 0.0977 0.0000
vt 0.0092 0.0964 0.0000
vt 0.0315 0.0904 0.0000
vt 0.0538 0.0857 0.0000
vt 0.0765 0.0817 0.0000
vt 0.0996 0.0793 0.0000
vt 0.1229 0.0786 0.0000
vt 0.1461 0.0795 0.0000
vt 0.1692 0.0823 0.0000
vt 0.1922 0.0849 0.0000
vt 0.2149 0.0902 0.0000
vt 0.2378 0.0966 0.0000
vt 0.0078 0.0954 0.0000
vt 0.0307 0.0892 0.0000
vt 0.0535 0.0842 0.0000
vt 0.0764 0.0803 0.0000
vt 0.0996 0.0779 0.0000
vt 0.1229 0.0772 0.0000
vt 0.1462 0.0781 0.0000
vt 0.1693 0.0808 0.0000
vt 0.1950 0.0712 0.0000
vt 0.2185 0.0767 0.0000
vt 0.2417 0.0833 0.0000
vt 0.0040 0.0820 0.0000
vt 0.0273 0.0757 0.0000
vt 0.0508 0.0705 0.0000
vt 0.0746 0.0665 0.0000
vt 0.0987 0.0640 0.0000
vt 0.1229 0.0632 0.0000
vt 0.1472 0.0642 0.0000
vt 0.1713 0.0670 0.0000
vt 0.2019 0.1392 0.0000
vt 0.2192 0.1486 0.0000
vt 0.2140 0.1568 0.0000
vt 0.1972 0.1477 0.0000
vt 0.0257 0.1471 0.0000
vt 0.0432 0.1379 0.0000
vt 0.0477 0.1464 0.0000
vt 0.0308 0.1553 0.0000
vt 0.0624 0.1316 0.0000
vt 0.0657 0.1404 0.0000
vt 0.0822 0.1272 0.0000
vt 0.0843 0.1362 0.0000
vt 0.1024 0.1245 0.0000
vt 0.1034 0.1336 0.0000
vt 0.1227 0.1239 0.0000
vt 0.1226 0.1329 0.0000
vt 0.1430 0.1246 0.0000
vt 0.1418 0.1338 0.0000
vt 0.1631 0.1277 0.0000
vt 0.1608 0.1366 0.0000
vt 0.1828 0.1324 0.0000
vt 0.1794 0.1412 0.0000
vt 0.1961 0.1485 0.0000
vt 0.2127 0.1574 0.0000
vt 0.2091 0.1599 0.0000
vt 0.1938 0.1523 0.0000
vt 0.0321 0.1558 0.0000
vt 0.0488 0.1472 0.0000
vt 0.0510 0.1510 0.0000
vt 0.0356 0.1583 0.0000
vt 0.0665 0.1412 0.0000
vt 0.0681 0.1451 0.0000
vt 0.0849 0.1370 0.0000
vt 0.0859 0.1410 0.0000
vt 0.1036 0.1345 0.0000
vt 0.1041 0.1385 0.0000
vt 0.1226 0.1337 0.0000
vt 0.1225 0.1377 0.0000
vt 0.1416 0.1346 0.0000
vt 0.1410 0.1387 0.0000
vt 0.1603 0.1375 0.0000
vt 0.1592 0.1414 0.0000
vt 0.1786 0.1420 0.0000
vt 0.1770 0.1460 0.0000
vt 0.1955 0.1883 0.0000
vt 0.1814 0.1810 0.0000
vt 0.0627 0.1801 0.0000
vt 0.0484 0.1870 0.0000
vt 0.0770 0.1750 0.0000
vt 0.0918 0.1716 0.0000
vt 0.1070 0.1695 0.0000
vt 0.1222 0.1688 0.0000
vt 0.1374 0.1696 0.0000
vt 0.1524 0.1718 0.0000
vt 0.1671 0.1756 0.0000
vt 0.1895 0.1950 0.0000
vt 0.1775 0.1887 0.0000
vt 0.0664 0.1878 0.0000
vt 0.0542 0.1938 0.0000
vt 0.0797 0.1831 0.0000
vt 0.0936 0.1799 0.0000
vt 0.1078 0.1780 0.0000
vt 0.1221 0.1774 0.0000
vt 0.1364 0.1781 0.0000
vt 0.1505 0.1802 0.0000
vt 0.1643 0.1837 0.0000
vt 0.1734 0.1977 0.0000
vt 0.1613 0.1931 0.0000
vt 0.1850 0.2036 0.0000
vt 0.0703 0.1969 0.0000
vt 0.0585 0.2025 0.0000
vt 0.0825 0.1926 0.0000
vt 0.0953 0.1895 0.0000
vt 0.1086 0.1877 0.0000
vt 0.1220 0.1872 0.0000
vt 0.1354 0.1879 0.0000
vt 0.1486 0.1898 0.0000
vt 0.0866 0.1737 0.0000
vt 0.0797 0.1644 0.0000
vt 0.0825 0.1635 0.0000
vt 0.0884 0.1714 0.0000
vt 0.0979 0.1773 0.0000
vt 0.0980 0.1745 0.0000
vt 0.1093 0.1739 0.0000
vt 0.1076 0.1716 0.0000
vt 0.1164 0.1647 0.0000
vt 0.1136 0.1638 0.0000
vt 0.1166 0.1533 0.0000
vt 0.1137 0.1541 0.0000
vt 0.1096 0.1440 0.0000
vt 0.1079 0.1462 0.0000
vt 0.0983 0.1403 0.0000
vt 0.0983 0.1432 0.0000
vt 0.0869 0.1438 0.0000
vt 0.0886 0.1461 0.0000
vt 0.0798 0.1529 0.0000
vt 0.0826 0.1538 0.0000
vt 0.0865 0.1623 0.0000
vt 0.0909 0.1681 0.0000
vt 0.0980 0.1704 0.0000
vt 0.1052 0.1683 0.0000
vt 0.1096 0.1625 0.0000
vt 0.1097 0.1553 0.0000
vt 0.1054 0.1495 0.0000
vt 0.0982 0.1472 0.0000
vt 0.0911 0.1494 0.0000
vt 0.0866 0.1551 0.0000
# 386 texture coords

g Hose_Curve_A
s 1
f 1/1/1 2/2/2 3/3/3 4/4/4 
f 2/2/2 5/5/5 6/6/6 3/3/3 
f 5/5/5 7/7/7 8/8/8 6/6/6 
f 7/7/7 9/9/9 10/10/10 8/8/8 
f 9/9/9 11/11/11 12/12/12 10/10/10 
f 11/11/11 13/13/13 14/14/14 12/12/12 
f 13/15/13 15/16/15 16/17/16 14/18/14 
f 15/16/15 17/19/17 18/20/18 16/17/16 
f 17/19/17 19/21/19 20/22/20 18/20/18 
f 19/21/19 21/23/21 22/24/22 20/22/20 
f 21/23/21 23/25/23 24/26/24 22/24/22 
f 23/25/23 1/1/1 4/4/4 24/26/24 
f 4/4/4 3/3/3 25/27/25 26/28/26 
f 3/3/3 6/6/6 27/29/27 25/27/25 
f 6/6/6 8/8/8 28/30/28 27/29/27 
f 8/8/8 10/10/10 29/31/29 28/30/28 
f 10/10/10 12/12/12 30/32/30 29/31/29 
f 12/12/12 14/14/14 31/33/31 30/32/30 
f 14/18/14 16/17/16 32/34/32 31/35/31 
f 16/17/16 18/20/18 33/36/33 32/34/32 
f 18/20/18 20/22/20 34/37/34 33/36/33 
f 20/22/20 22/24/22 35/38/35 34/37/34 
f 22/24/22 24/26/24 36/39/36 35/38/35 
f 24/26/24 4/4/4 26/28/26 36/39/36 
f 26/28/26 25/27/25 37/40/37 38/41/38 
f 25/27/25 27/29/27 39/42/39 37/40/37 
f 27/29/27 28/30/28 40/43/40 39/42/39 
f 28/30/28 29/31/29 41/44/41 40/43/40 
f 29/31/29 30/32/30 42/45/42 41/44/41 
f 30/32/30 31/33/31 43/46/43 42/45/42 
f 31/35/31 32/34/32 44/47/44 43/48/43 
f 32/34/32 33/36/33 45/49/45 44/47/44 
f 33/36/33 34/37/34 46/50/46 45/49/45 
f 34/37/34 35/38/35 47/51/47 46/50/46 
f 35/38/35 36/39/36 48/52/48 47/51/47 
f 36/39/36 26/28/26 38/41/38 48/52/48 
f 38/41/38 37/40/37 49/53/49 50/54/50 
f 37/40/37 39/42/39 51/55/51 49/53/49 
f 39/42/39 40/43/40 52/56/52 51/55/51 
f 40/43/40 41/44/41 53/57/53 52/56/52 
f 41/44/41 42/45/42 54/58/54 53/57/53 
f 42/45/42 43/46/43 55/59/55 54/58/54 
f 43/48/43 44/47/44 56/60/56 55/61/55 
f 44/47/44 45/49/45 57/62/57 56/60/56 
f 45/49/45 46/50/46 58/63/58 57/62/57 
f 46/50/46 47/51/47 59/64/59 58/63/58 
f 47/51/47 48/52/48 60/65/60 59/64/59 
f 48/52/48 38/41/38 50/54/50 60/65/60 
f 50/54/50 49/53/49 61/66/61 62/67/62 
f 49/53/49 51/55/51 63/68/63 61/66/61 
f 51/55/51 52/56/52 64/69/64 63/68/63 
f 52/56/52 53/57/53 65/70/65 64/69/64 
f 53/57/53 54/58/54 66/71/66 65/70/65 
f 54/58/54 55/59/55 67/72/67 66/71/66 
f 55/61/55 56/60/56 68/73/68 67/74/67 
f 56/60/56 57/62/57 69/75/69 68/73/68 
f 57/62/57 58/63/58 70/76/70 69/75/69 
f 58/63/58 59/64/59 71/77/71 70/76/70 
f 59/64/59 60/65/60 72/78/72 71/77/71 
f 60/65/60 50/54/50 62/67/62 72/78/72 
f 62/67/62 61/66/61 73/79/73 74/80/74 
f 61/66/61 63/68/63 75/81/75 73/79/73 
f 63/68/63 64/69/64 76/82/76 75/81/75 
f 64/69/64 65/70/65 77/83/77 76/82/76 
f 65/70/65 66/71/66 78/84/78 77/83/77 
f 66/71/66 67/72/67 79/85/79 78/84/78 
f 67/74/67 68/73/68 80/86/80 79/87/79 
f 68/73/68 69/75/69 81/88/81 80/86/80 
f 69/75/69 70/76/70 82/89/82 81/88/81 
f 70/76/70 71/77/71 83/90/83 82/89/82 
f 71/77/71 72/78/72 84/91/84 83/90/83 
f 72/78/72 62/67/62 74/80/74 84/91/84 
f 74/80/74 73/79/73 85/92/85 86/93/86 
f 73/79/73 75/81/75 87/94/87 85/92/85 
f 75/81/75 76/82/76 88/95/88 87/94/87 
f 76/82/76 77/83/77 89/96/89 88/95/88 
f 77/83/77 78/84/78 90/97/90 89/96/89 
f 78/84/78 79/85/79 91/98/91 90/97/90 
f 79/87/79 80/86/80 92/99/92 91/100/91 
f 80/86/80 81/88/81 93/101/93 92/99/92 
f 81/88/81 82/89/82 94/102/94 93/101/93 
f 82/89/82 83/90/83 95/103/95 94/102/94 
f 83/90/83 84/91/84 96/104/96 95/103/95 
f 84/91/84 74/80/74 86/93/86 96/104/96 
f 86/93/86 85/92/85 97/105/97 98/106/98 
f 85/92/85 87/94/87 99/107/99 97/105/97 
f 87/94/87 88/95/88 100/108/100 99/107/99 
f 88/95/88 89/96/89 101/109/101 100/108/100 
f 89/96/89 90/97/90 102/110/102 101/109/101 
f 90/97/90 91/98/91 103/111/103 102/110/102 
f 91/100/91 92/99/92 104/112/104 103/113/103 
f 92/99/92 93/101/93 105/114/105 104/112/104 
f 93/101/93 94/102/94 106/115/106 105/114/105 
f 94/102/94 95/103/95 107/116/107 106/115/106 
f 95/103/95 96/104/96 108/117/108 107/116/107 
f 96/104/96 86/93/86 98/106/98 108/117/108 
f 98/106/98 97/105/97 109/118/109 110/119/110 
f 97/105/97 99/107/99 111/120/111 109/118/109 
f 99/107/99 100/108/100 112/121/112 111/120/111 
f 100/108/100 101/109/101 113/122/113 112/121/112 
f 101/109/101 102/110/102 114/123/114 113/122/113 
f 102/110/102 103/111/103 115/124/115 114/123/114 
f 103/113/103 104/112/104 116/125/116 115/126/115 
f 104/112/104 105/114/105 117/127/117 116/125/116 
f 105/114/105 106/115/106 118/128/118 117/127/117 
f 106/115/106 107/116/107 119/129/119 118/128/118 
f 107/116/107 108/117/108 120/130/120 119/129/119 
f 108/117/108 98/106/98 110/119/110 120/130/120 
f 110/119/110 109/118/109 121/131/121 122/132/122 
f 109/118/109 111/120/111 123/133/123 121/131/121 
f 111/120/111 112/121/112 124/134/124 123/133/123 
f 112/121/112 113/122/113 125/135/125 124/134/124 
f 113/122/113 114/123/114 126/136/126 125/135/125 
f 114/123/114 115/124/115 127/137/127 126/136/126 
f 115/126/115 116/125/116 128/138/128 127/139/127 
f 116/125/116 117/127/117 129/140/129 128/138/128 
f 117/127/117 118/128/118 130/141/130 129/140/129 
f 118/128/118 119/129/119 131/142/131 130/141/130 
f 119/129/119 120/130/120 132/143/132 131/142/131 
f 120/130/120 110/119/110 122/132/122 132/143/132 
f 122/132/122 121/131/121 133/144/133 134/145/134 
f 121/131/121 123/133/123 135/146/135 133/144/133 
f 123/133/123 124/134/124 136/147/136 135/146/135 
f 124/134/124 125/135/125 137/148/137 136/147/136 
f 125/135/125 126/136/126 138/149/138 137/148/137 
f 126/136/126 127/137/127 139/150/139 138/149/138 
f 127/139/127 128/138/128 140/151/140 139/152/139 
f 128/138/128 129/140/129 141/153/141 140/151/140 
f 129/140/129 130/141/130 142/154/142 141/153/141 
f 130/141/130 131/142/131 143/155/143 142/154/142 
f 131/142/131 132/143/132 144/156/144 143/155/143 
f 132/143/132 122/132/122 134/145/134 144/156/144 
f 134/145/134 133/144/133 145/157/145 146/158/146 
f 133/144/133 135/146/135 147/159/147 145/157/145 
f 135/146/135 136/147/136 148/160/148 147/159/147 
f 136/147/136 137/148/137 149/161/149 148/160/148 
f 137/148/137 138/149/138 150/162/150 149/161/149 
f 138/149/138 139/150/139 151/163/151 150/162/150 
f 139/152/139 140/151/140 152/164/152 151/165/151 
f 140/151/140 141/153/141 153/166/153 152/164/152 
f 141/153/141 142/154/142 154/167/154 153/166/153 
f 142/154/142 143/155/143 155/168/155 154/167/154 
f 143/155/143 144/156/144 156/169/156 155/168/155 
f 144/156/144 134/145/134 146/158/146 156/169/156 
f 157/170/157 158/171/158 159/172/159 160/173/160 
f 160/173/160 161/174/161 162/175/162 157/170/157 
f 161/176/161 163/177/163 164/178/164 162/179/162 
f 163/177/163 165/180/165 166/181/166 164/178/164 
f 165/180/165 167/182/167 168/183/168 166/181/166 
f 167/182/167 169/184/169 170/185/170 168/183/168 
f 169/184/169 171/186/171 172/187/172 170/185/170 
f 171/186/171 173/188/173 174/189/174 172/187/172 
f 173/188/173 175/190/175 176/191/176 174/189/174 
f 175/190/175 159/172/159 158/171/158 176/191/176 
f 177/192/177 178/193/178 179/194/179 180/195/180 
f 180/195/180 181/196/181 182/197/182 177/192/177 
f 181/198/181 183/199/183 184/200/184 182/201/182 
f 183/199/183 185/202/185 186/203/186 184/200/184 
f 185/202/185 187/204/187 188/205/188 186/203/186 
f 187/204/187 189/206/189 190/207/190 188/205/188 
f 189/206/189 191/208/191 192/209/192 190/207/190 
f 191/208/191 193/210/193 194/211/194 192/209/192 
f 193/210/193 195/212/195 196/213/196 194/211/194 
f 195/212/195 179/194/179 178/193/178 196/213/196 
f 197/214/197 198/215/198 199/216/199 200/217/200 
f 200/217/200 201/218/201 202/219/202 197/214/197 
f 201/220/201 203/221/203 204/222/204 202/223/202 
f 203/221/203 205/224/205 206/225/206 204/222/204 
f 205/224/205 207/226/207 208/227/208 206/225/206 
f 207/226/207 209/228/209 210/229/210 208/227/208 
f 209/228/209 211/230/211 212/231/212 210/229/210 
f 211/230/211 213/232/213 214/233/214 212/231/212 
f 213/232/213 215/234/215 216/235/216 214/233/214 
f 215/234/215 199/216/199 198/215/198 216/235/216 
s 2
f 180/195/217 179/194/218 217/236/218 218/237/219 
f 181/196/220 180/195/217 218/237/219 219/238/221 
f 183/199/222 181/198/220 219/239/221 220/240/223 
f 185/202/224 183/199/222 220/240/223 221/241/225 
f 187/204/226 185/202/224 221/241/225 222/242/227 
f 189/206/228 187/204/226 222/242/227 223/243/229 
f 191/208/230 189/206/228 223/243/229 224/244/231 
f 193/210/232 191/208/230 224/244/231 225/245/233 
f 195/212/234 193/210/232 225/245/233 226/246/235 
f 179/194/218 195/212/234 226/246/235 217/236/218 
s 1
f 218/237/236 217/236/237 227/247/238 228/248/239 
f 219/238/240 218/237/236 228/248/239 229/249/241 
f 220/240/242 219/239/240 229/250/241 230/251/243 
f 221/241/244 220/240/242 230/251/243 231/252/245 
f 222/242/246 221/241/244 231/252/245 232/253/247 
f 223/243/248 222/242/246 232/253/247 233/254/249 
f 224/244/250 223/243/248 233/254/249 234/255/251 
f 225/245/252 224/244/250 234/255/251 235/256/253 
f 226/246/254 225/245/252 235/256/253 236/257/255 
f 217/236/237 226/246/254 236/257/255 227/247/238 
f 228/248/239 227/247/238 237/258/256 238/259/257 
f 229/249/241 228/248/239 238/259/257 239/260/258 
f 230/251/243 229/250/241 239/261/258 240/262/259 
f 231/252/245 230/251/243 240/262/259 241/263/260 
f 232/253/247 231/252/245 241/263/260 242/264/261 
f 233/254/249 232/253/247 242/264/261 243/265/262 
f 234/255/251 233/254/249 243/265/262 244/266/263 
f 235/256/253 234/255/251 244/266/263 245/267/264 
f 236/257/255 235/256/253 245/267/264 246/268/265 
f 227/247/238 236/257/255 246/268/265 237/258/256 
s 2
f 237/258/266 247/269/266 248/270/267 238/259/268 
f 239/260/269 238/259/268 248/270/267 249/271/270 
f 240/262/271 239/261/269 249/272/270 250/273/272 
f 241/263/273 240/262/271 250/273/272 251/274/274 
f 242/264/275 241/263/273 251/274/274 252/275/275 
f 243/265/276 242/264/275 252/275/275 253/276/277 
f 244/266/278 243/265/276 253/276/277 254/277/279 
f 245/267/280 244/266/278 254/277/279 255/278/281 
f 246/268/282 245/267/280 255/278/281 256/279/283 
f 237/258/266 246/268/282 256/279/283 247/269/266 
s 1
f 157/170/157 200/217/200 199/216/199 158/171/158 
f 160/173/160 177/192/177 182/197/182 161/174/161 
f 162/175/162 201/218/201 200/217/200 157/170/157 
f 161/176/161 182/201/182 184/200/184 163/177/163 
f 164/178/164 203/221/203 201/220/201 162/179/162 
f 163/177/163 184/200/184 186/203/186 165/180/165 
f 166/181/166 205/224/205 203/221/203 164/178/164 
f 165/180/165 186/203/186 188/205/188 167/182/167 
f 168/183/168 207/226/207 205/224/205 166/181/166 
f 167/182/167 188/205/188 190/207/190 169/184/169 
f 170/185/170 209/228/209 207/226/207 168/183/168 
f 169/184/169 190/207/190 192/209/192 171/186/171 
f 172/187/172 211/230/211 209/228/209 170/185/170 
f 171/186/171 192/209/192 194/211/194 173/188/173 
f 174/189/174 213/232/213 211/230/211 172/187/172 
f 173/188/173 194/211/194 196/213/196 175/190/175 
f 176/191/176 215/234/215 213/232/213 174/189/174 
f 175/190/175 196/213/196 178/193/178 159/172/159 
f 158/171/158 199/216/199 215/234/215 176/191/176 
f 159/172/159 178/193/178 177/192/177 160/173/160 
f 257/280/284 258/281/285 259/282/286 260/283/287 
f 258/284/285 261/285/288 262/286/289 259/287/286 
f 261/285/288 263/288/290 264/289/291 262/286/289 
f 263/288/290 265/290/292 266/291/293 264/289/291 
f 265/290/292 267/292/294 268/293/295 266/291/293 
f 267/292/294 269/294/296 270/295/297 268/293/295 
f 269/294/296 271/296/298 272/297/299 270/295/297 
f 271/296/298 273/298/300 274/299/301 272/297/299 
f 273/298/300 275/300/302 276/301/303 274/299/301 
f 275/300/302 257/280/284 260/283/287 276/301/303 
f 277/302/304 278/303/305 279/304/306 280/305/307 
f 278/306/305 281/307/308 282/308/309 279/309/306 
f 281/307/308 283/310/310 284/311/311 282/308/309 
f 283/310/310 285/312/312 286/313/313 284/311/311 
f 285/312/312 287/314/314 288/315/315 286/313/313 
f 287/314/314 289/316/316 290/317/317 288/315/315 
f 289/316/316 291/318/318 292/319/319 290/317/317 
f 291/318/318 293/320/320 294/321/321 292/319/319 
f 293/320/320 295/322/322 296/323/323 294/321/321 
f 295/322/322 277/302/304 280/305/307 296/323/323 
f 202/219/202 258/281/285 257/280/284 197/214/197 
f 204/222/204 261/285/288 258/284/285 202/223/202 
f 206/225/206 263/288/290 261/285/288 204/222/204 
f 208/227/208 265/290/292 263/288/290 206/225/206 
f 210/229/210 267/292/294 265/290/292 208/227/208 
f 212/231/212 269/294/296 267/292/294 210/229/210 
f 214/233/214 271/296/298 269/294/296 212/231/212 
f 216/235/216 273/298/300 271/296/298 214/233/214 
f 198/215/198 275/300/302 273/298/300 216/235/216 
f 197/214/197 257/280/284 275/300/302 198/215/198 
f 260/283/287 277/302/304 295/322/322 276/301/303 
f 259/282/286 278/303/305 277/302/304 260/283/287 
f 262/286/289 281/307/308 278/306/305 259/287/286 
f 264/289/291 283/310/310 281/307/308 262/286/289 
f 266/291/293 285/312/312 283/310/310 264/289/291 
f 268/293/295 287/314/314 285/312/312 266/291/293 
f 270/295/297 289/316/316 287/314/314 268/293/295 
f 272/297/299 291/318/318 289/316/316 270/295/297 
f 274/299/301 293/320/320 291/318/318 272/297/299 
f 276/301/303 295/322/322 293/320/320 274/299/301 
s 2
f 280/305/324 279/304/325 297/324/326 298/325/327 
f 279/309/325 282/308/328 299/326/329 297/327/326 
f 282/308/328 284/311/330 300/328/331 299/326/329 
f 284/311/330 286/313/332 301/329/333 300/328/331 
f 286/313/332 288/315/334 302/330/335 301/329/333 
f 288/315/334 290/317/336 303/331/337 302/330/335 
f 290/317/336 292/319/338 304/332/339 303/331/337 
f 292/319/338 294/321/340 305/333/341 304/332/339 
f 294/321/340 296/323/342 306/334/343 305/333/341 
f 296/323/342 280/305/324 298/325/327 306/334/343 
f 297/324/326 307/335/344 308/336/345 298/325/327 
f 299/326/329 309/337/346 307/338/344 297/327/326 
f 300/328/331 310/339/347 309/337/346 299/326/329 
f 301/329/333 311/340/348 310/339/347 300/328/331 
f 302/330/335 312/341/349 311/340/348 301/329/333 
f 303/331/337 313/342/350 312/341/349 302/330/335 
f 304/332/339 314/343/351 313/342/350 303/331/337 
f 305/333/341 315/344/352 314/343/351 304/332/339 
f 306/334/343 316/345/353 315/344/352 305/333/341 
f 308/336/345 316/345/353 306/334/343 298/325/327 
s 1
f 316/345/354 308/336/355 317/346/356 318/347/357 
f 308/336/355 307/335/358 319/348/359 317/346/356 
f 307/338/358 309/337/360 320/349/361 319/350/359 
f 309/337/360 310/339/362 321/351/363 320/349/361 
f 310/339/362 311/340/364 322/352/365 321/351/363 
f 311/340/364 312/341/366 323/353/367 322/352/365 
f 312/341/366 313/342/368 324/354/369 323/353/367 
f 313/342/368 314/343/370 325/355/371 324/354/369 
f 314/343/370 315/344/372 326/356/373 325/355/371 
f 315/344/372 316/345/354 318/347/357 326/356/373 
s off
f 248/357/374 247/358/374 327/359/374 328/360/374 
f 249/361/375 248/357/375 328/360/375 329/362/375 
f 250/363/376 249/361/376 329/362/376 330/364/376 
f 251/365/377 250/363/377 330/364/377 331/366/377 
f 252/367/378 251/365/378 331/366/378 332/368/378 
f 253/369/374 252/367/374 332/368/374 333/370/374 
f 254/371/375 253/369/375 333/370/375 334/372/375 
f 255/373/376 254/371/376 334/372/376 335/374/376 
f 256/375/377 255/373/377 335/374/377 336/376/377 
f 247/358/378 256/375/378 336/376/378 327/359/378 
f 328/360/379 327/359/379 337/377/379 338/378/379 
f 329/362/380 328/360/380 338/378/380 339/379/380 
f 330/364/381 329/362/381 339/379/381 340/380/381 
f 331/366/382 330/364/382 340/380/382 341/381/382 
f 332/368/383 331/366/383 341/381/383 342/382/383 
f 333/370/384 332/368/384 342/382/384 343/383/384 
f 334/372/385 333/370/385 343/383/385 344/384/385 
f 335/374/386 334/372/386 344/384/386 345/385/386 
f 336/376/387 335/374/387 345/385/387 346/386/387 
f 327/359/388 336/376/388 346/386/388 337/377/388 
f 346/386/389 345/385/389 344/384/389 338/378/389 
f 344/384/389 343/383/389 342/382/389 338/378/389 
f 342/382/389 341/381/389 340/380/389 338/378/389 
f 340/380/389 339/379/389 338/378/389 
f 337/377/390 346/386/390 338/378/390 
s 1
f 347/170/391 348/171/392 349/172/393 350/173/394 
f 350/173/394 351/174/395 352/175/396 347/170/391 
f 351/176/395 353/177/397 354/178/398 352/179/396 
f 353/177/397 355/180/399 356/181/400 354/178/398 
f 355/180/399 357/182/401 358/183/402 356/181/400 
f 357/182/401 359/184/403 360/185/404 358/183/402 
f 359/184/403 361/186/405 362/187/406 360/185/404 
f 361/186/405 363/188/407 364/189/408 362/187/406 
f 363/188/407 365/190/409 366/191/410 364/189/408 
f 365/190/409 349/172/393 348/171/392 366/191/410 
f 367/192/411 368/193/412 369/194/413 370/195/414 
f 370/195/414 371/196/415 372/197/416 367/192/411 
f 371/198/415 373/199/417 374/200/418 372/201/416 
f 373/199/417 375/202/419 376/203/420 374/200/418 
f 375/202/419 377/204/421 378/205/422 376/203/420 
f 377/204/421 379/206/423 380/207/424 378/205/422 
f 379/206/423 381/208/425 382/209/426 380/207/424 
f 381/208/425 383/210/427 384/211/428 382/209/426 
f 383/210/427 385/212/429 386/213/430 384/211/428 
f 385/212/429 369/194/413 368/193/412 386/213/430 
f 387/214/431 388/215/432 389/216/433 390/217/434 
f 390/217/434 391/218/435 392/219/436 387/214/431 
f 391/220/435 393/221/437 394/222/438 392/223/436 
f 393/221/437 395/224/439 396/225/440 394/222/438 
f 395/224/439 397/226/441 398/227/442 396/225/440 
f 397/226/441 399/228/443 400/229/444 398/227/442 
f 399/228/443 401/230/445 402/231/446 400/229/444 
f 401/230/445 403/232/447 404/233/448 402/231/446 
f 403/232/447 405/234/449 406/235/450 404/233/448 
f 405/234/449 389/216/433 388/215/432 406/235/450 
s 2
f 370/195/451 369/194/452 407/236/453 408/237/454 
f 371/196/455 370/195/451 408/237/454 409/238/455 
f 373/199/456 371/198/455 409/239/455 410/240/457 
f 375/202/458 373/199/456 410/240/457 411/241/459 
f 377/204/460 375/202/458 411/241/459 412/242/461 
f 379/206/462 377/204/460 412/242/461 413/243/463 
f 381/208/464 379/206/462 413/243/463 414/244/464 
f 383/210/465 381/208/464 414/244/464 415/245/466 
f 385/212/467 383/210/465 415/245/466 416/246/468 
f 369/194/452 385/212/467 416/246/468 407/236/453 
s 1
f 408/237/469 407/236/470 417/247/471 418/248/472 
f 409/238/473 408/237/469 418/248/472 419/249/474 
f 410/240/475 409/239/473 419/250/474 420/251/476 
f 411/241/477 410/240/475 420/251/476 421/252/478 
f 412/242/479 411/241/477 421/252/478 422/253/480 
f 413/243/481 412/242/479 422/253/480 423/254/482 
f 414/244/483 413/243/481 423/254/482 424/255/484 
f 415/245/485 414/244/483 424/255/484 425/256/486 
f 416/246/487 415/245/485 425/256/486 426/257/488 
f 407/236/470 416/246/487 426/257/488 417/247/471 
f 418/248/472 417/247/471 427/258/489 428/259/490 
f 419/249/474 418/248/472 428/259/490 429/260/491 
f 420/251/476 419/250/474 429/261/491 430/262/492 
f 421/252/478 420/251/476 430/262/492 431/263/493 
f 422/253/480 421/252/478 431/263/493 432/264/494 
f 423/254/482 422/253/480 432/264/494 433/265/495 
f 424/255/484 423/254/482 433/265/495 434/266/496 
f 425/256/486 424/255/484 434/266/496 435/267/497 
f 426/257/488 425/256/486 435/267/497 436/268/498 
f 417/247/471 426/257/488 436/268/498 427/258/489 
s 2
f 427/258/452 437/269/453 438/270/454 428/259/451 
f 429/260/455 428/259/451 438/270/454 439/271/455 
f 430/262/456 429/261/455 439/272/455 440/273/457 
f 431/263/458 430/262/456 440/273/457 441/274/459 
f 432/264/460 431/263/458 441/274/459 442/275/461 
f 433/265/462 432/264/460 442/275/461 443/276/463 
f 434/266/464 433/265/462 443/276/463 444/277/464 
f 435/267/465 434/266/464 444/277/464 445/278/466 
f 436/268/467 435/267/465 445/278/466 446/279/468 
f 427/258/452 436/268/467 446/279/468 437/269/453 
s 1
f 347/170/391 390/217/434 389/216/433 348/171/392 
f 350/173/394 367/192/411 372/197/416 351/174/395 
f 352/175/396 391/218/435 390/217/434 347/170/391 
f 351/176/395 372/201/416 374/200/418 353/177/397 
f 354/178/398 393/221/437 391/220/435 352/179/396 
f 353/177/397 374/200/418 376/203/420 355/180/399 
f 356/181/400 395/224/439 393/221/437 354/178/398 
f 355/180/399 376/203/420 378/205/422 357/182/401 
f 358/183/402 397/226/441 395/224/439 356/181/400 
f 357/182/401 378/205/422 380/207/424 359/184/403 
f 360/185/404 399/228/443 397/226/441 358/183/402 
f 359/184/403 380/207/424 382/209/426 361/186/405 
f 362/187/406 401/230/445 399/228/443 360/185/404 
f 361/186/405 382/209/426 384/211/428 363/188/407 
f 364/189/408 403/232/447 401/230/445 362/187/406 
f 363/188/407 384/211/428 386/213/430 365/190/409 
f 366/191/410 405/234/449 403/232/447 364/189/408 
f 365/190/409 386/213/430 368/193/412 349/172/393 
f 348/171/392 389/216/433 405/234/449 366/191/410 
f 349/172/393 368/193/412 367/192/411 350/173/394 
f 447/280/499 448/281/500 449/282/501 450/283/391 
f 448/284/500 451/285/502 452/286/398 449/287/501 
f 451/285/502 453/288/503 454/289/504 452/286/398 
f 453/288/503 455/290/505 456/291/402 454/289/504 
f 455/290/505 457/292/506 458/293/404 456/291/402 
f 457/292/506 459/294/507 460/295/508 458/293/404 
f 459/294/507 461/296/509 462/297/510 460/295/508 
f 461/296/509 463/298/511 464/299/512 462/297/510 
f 463/298/511 465/300/513 466/301/392 464/299/512 
f 465/300/513 447/280/499 450/283/391 466/301/392 
f 467/302/514 468/303/515 469/304/516 470/305/517 
f 468/306/515 471/307/518 472/308/519 469/309/516 
f 471/307/518 473/310/520 474/311/521 472/308/519 
f 473/310/520 475/312/522 476/313/523 474/311/521 
f 475/312/522 477/314/524 478/315/525 476/313/523 
f 477/314/524 479/316/526 480/317/527 478/315/525 
f 479/316/526 481/318/528 482/319/529 480/317/527 
f 481/318/528 483/320/530 484/321/531 482/319/529 
f 483/320/530 485/322/532 486/323/533 484/321/531 
f 485/322/532 467/302/514 470/305/517 486/323/533 
f 392/219/436 448/281/500 447/280/499 387/214/431 
f 394/222/438 451/285/502 448/284/500 392/223/436 
f 396/225/440 453/288/503 451/285/502 394/222/438 
f 398/227/442 455/290/505 453/288/503 396/225/440 
f 400/229/444 457/292/506 455/290/505 398/227/442 
f 402/231/446 459/294/507 457/292/506 400/229/444 
f 404/233/448 461/296/509 459/294/507 402/231/446 
f 406/235/450 463/298/511 461/296/509 404/233/448 
f 388/215/432 465/300/513 463/298/511 406/235/450 
f 387/214/431 447/280/499 465/300/513 388/215/432 
f 450/283/391 467/302/514 485/322/532 466/301/392 
f 449/282/501 468/303/515 467/302/514 450/283/391 
f 452/286/398 471/307/518 468/306/515 449/287/501 
f 454/289/504 473/310/520 471/307/518 452/286/398 
f 456/291/402 475/312/522 473/310/520 454/289/504 
f 458/293/404 477/314/524 475/312/522 456/291/402 
f 460/295/508 479/316/526 477/314/524 458/293/404 
f 462/297/510 481/318/528 479/316/526 460/295/508 
f 464/299/512 483/320/530 481/318/528 462/297/510 
f 466/301/392 485/322/532 483/320/530 464/299/512 
s 2
f 470/305/454 469/304/455 487/324/534 488/325/535 
f 469/309/455 472/308/457 489/326/536 487/327/534 
f 472/308/457 474/311/459 490/328/537 489/326/536 
f 474/311/459 476/313/461 491/329/538 490/328/537 
f 476/313/461 478/315/463 492/330/539 491/329/538 
f 478/315/463 480/317/464 493/331/540 492/330/539 
f 480/317/464 482/319/466 494/332/541 493/331/540 
f 482/319/466 484/321/468 495/333/542 494/332/541 
f 484/321/468 486/323/453 496/334/543 495/333/542 
f 486/323/453 470/305/454 488/325/535 496/334/543 
f 487/324/534 497/335/544 498/336/545 488/325/535 
f 489/326/536 499/337/546 497/338/544 487/327/534 
f 490/328/537 500/339/547 499/337/546 489/326/536 
f 491/329/538 501/340/548 500/339/547 490/328/537 
f 492/330/539 502/341/549 501/340/548 491/329/538 
f 493/331/540 503/342/550 502/341/549 492/330/539 
f 494/332/541 504/343/551 503/342/550 493/331/540 
f 495/333/542 505/344/552 504/343/551 494/332/541 
f 496/334/543 506/345/553 505/344/552 495/333/542 
f 498/336/545 506/345/553 496/334/543 488/325/535 
s 1
f 506/345/554 498/336/555 507/346/556 508/347/557 
f 498/336/555 497/335/558 509/348/558 507/346/556 
f 497/338/558 499/337/559 510/349/560 509/350/558 
f 499/337/559 500/339/561 511/351/562 510/349/560 
f 500/339/561 501/340/563 512/352/564 511/351/562 
f 501/340/563 502/341/565 513/353/566 512/352/564 
f 502/341/565 503/342/567 514/354/567 513/353/566 
f 503/342/567 504/343/568 515/355/569 514/354/567 
f 504/343/568 505/344/570 516/356/571 515/355/569 
f 505/344/570 506/345/554 508/347/557 516/356/571 
s off
f 438/357/572 437/358/572 517/359/572 518/360/572 
f 439/361/573 438/357/573 518/360/573 519/362/573 
f 440/363/574 439/361/574 519/362/574 520/364/574 
f 441/365/575 440/363/575 520/364/575 521/366/575 
f 442/367/576 441/365/576 521/366/576 522/368/576 
f 443/369/572 442/367/572 522/368/572 523/370/572 
f 444/371/573 443/369/573 523/370/573 524/372/573 
f 445/373/574 444/371/574 524/372/574 525/374/574 
f 446/375/575 445/373/575 525/374/575 526/376/575 
f 437/358/576 446/375/576 526/376/576 517/359/576 
f 518/360/577 517/359/577 527/377/577 528/378/577 
f 519/362/578 518/360/578 528/378/578 529/379/578 
f 520/364/579 519/362/579 529/379/579 530/380/579 
f 521/366/580 520/364/580 530/380/580 531/381/580 
f 522/368/581 521/366/581 531/381/581 532/382/581 
f 523/370/582 522/368/582 532/382/582 533/383/582 
f 524/372/583 523/370/583 533/383/583 534/384/583 
f 525/374/584 524/372/584 534/384/584 535/385/584 
f 526/376/585 525/374/585 535/385/585 536/386/585 
f 517/359/586 526/376/586 536/386/586 527/377/586 
f 536/386/587 535/385/587 534/384/587 528/378/587 
f 534/384/587 533/383/587 532/382/587 528/378/587 
f 532/382/587 531/381/587 530/380/587 528/378/587 
f 530/380/587 529/379/587 528/378/587 
f 527/377/587 536/386/587 528/378/587 
# 510 polygons - 4 triangles

