# 3ds Max Wavefront OBJ Exporter v0.97b - (c)2007 guruware
# File Created: 01.07.2013 22:52:19

#
# object WallSegment_A
#

v  94.1012 -17.1564 0.9628
v  173.7320 -17.1563 0.9628
v  173.8461 81.4415 0.9628
v  94.2153 81.4415 0.9628
v  4.8996 -17.1564 0.9628
v  84.5307 -16.9854 0.9628
v  84.6444 81.4415 0.9628
v  5.0137 81.4415 0.9628
v  -84.3017 -16.9854 0.9628
v  -4.6714 -17.1564 0.9628
v  -4.5572 81.4415 0.9628
v  -84.1880 81.4415 0.9628
v  -93.8730 -17.1564 0.9628
v  -173.5038 -17.1564 0.9628
v  -173.6179 -19.8661 0.9628
v  -93.9871 -19.8661 0.9628
v  178.4033 -19.8660 0.9628
v  178.5174 -17.1563 0.9628
v  173.6179 -19.8660 0.9628
v  -93.7589 81.4415 0.9628
v  -178.1751 81.4415 0.9628
v  -178.2892 -17.1564 0.9628
v  -173.3896 81.4415 0.9628
v  93.9497 82.7956 1.6230
v  173.5804 82.7956 1.6230
v  4.7480 82.7956 1.6230
v  84.3788 82.7956 1.6230
v  -84.4536 82.7956 1.6230
v  -4.8229 82.7956 1.6230
v  -173.6553 82.7956 1.6230
v  -94.0246 82.7956 1.6230
v  178.6316 81.4415 0.9628
v  178.3659 82.7956 1.6230
v  -178.4408 82.7956 1.6230
v  173.3897 -135.1277 1.1003
v  173.3897 -129.7452 7.9688
v  93.7589 -129.7452 7.9688
v  93.7589 -135.1277 1.1003
v  4.5573 -129.7452 7.9688
v  4.5573 -135.1277 1.1003
v  84.1880 -135.1277 1.1003
v  84.1880 -129.7452 7.9688
v  -84.6444 -129.7452 7.9688
v  -84.6444 -135.1278 1.1003
v  -5.0137 -135.1277 1.1003
v  -5.0137 -129.7452 7.9688
v  -173.8461 -129.7453 7.9688
v  -173.8461 -135.1278 1.1003
v  -94.2153 -135.1278 1.1003
v  -94.2153 -129.7452 7.9688
v  173.3897 -147.9416 0.9628
v  173.3718 -145.2442 0.9628
v  93.7589 -145.2652 0.9628
v  93.7589 -147.9417 0.9628
v  4.5751 -145.2442 0.9628
v  4.5573 -147.9417 0.9628
v  84.1880 -147.9417 0.9628
v  84.1880 -145.2652 0.9628
v  -84.6444 -145.2653 0.9628
v  -84.6444 -147.9417 0.9628
v  -5.0137 -147.9417 0.9628
v  -5.0315 -145.2442 0.9628
v  -173.8104 -145.2548 0.9628
v  -173.8461 -147.9417 0.9628
v  -94.2153 -147.9417 0.9628
v  -94.2153 -145.2653 0.9628
v  173.3897 -148.6255 -11.2702
v  173.3897 -148.6255 0.2790
v  93.7589 -148.6255 0.2790
v  93.7589 -148.6255 -11.2702
v  4.5573 -148.6255 0.2790
v  4.5573 -148.6255 -11.2702
v  84.1880 -148.6255 -11.2702
v  84.1880 -148.6255 0.2790
v  -84.6444 -148.6255 0.2790
v  -84.6444 -148.6255 -11.2702
v  -5.0137 -148.6255 -11.2702
v  -5.0137 -148.6255 0.2790
v  -173.8461 -148.6255 0.2790
v  -173.8461 -148.6255 -11.2702
v  -94.2153 -148.6255 -11.2702
v  -94.2153 -148.6255 0.2790
v  -94.2153 -87.6891 7.9688
v  -94.2153 -82.7728 1.6230
v  -173.8461 -82.7728 1.6230
v  -173.8461 -87.6892 7.9688
v  -5.0137 -87.6891 7.9688
v  -5.0137 -82.7728 1.6230
v  -84.6444 -82.7728 1.6230
v  -84.6444 -87.6891 7.9688
v  84.1880 -87.6891 7.9688
v  84.1880 -82.7728 1.6230
v  4.5572 -82.7728 1.6230
v  4.5573 -87.6891 7.9688
v  93.7589 -82.7728 1.6230
v  93.7589 -87.6891 7.9688
v  173.3896 -87.6891 7.9688
v  173.3896 -82.7728 1.6230
v  -94.1012 -70.1326 0.9628
v  -173.7320 -70.1326 0.9628
v  -173.8461 -81.4262 0.9628
v  -94.2153 -81.4262 0.9628
v  -4.8996 -70.1326 0.9628
v  -85.1083 -70.1326 0.9628
v  -84.6444 -81.4262 0.9628
v  -5.0137 -81.4262 0.9628
v  84.3031 -69.6919 0.9628
v  4.6714 -70.1326 0.9628
v  4.5572 -81.4262 0.9628
v  84.1880 -81.4262 0.9628
v  93.8730 -70.1326 0.9628
v  173.5038 -70.1325 0.9628
v  93.9871 -19.8660 0.9628
v  93.7589 -128.1347 8.6690
v  173.3897 -128.1347 8.6690
v  84.1880 -128.1347 8.6690
v  4.5573 -128.1348 8.6690
v  -5.0137 -128.1348 8.6690
v  -84.6444 -128.1348 8.6690
v  -94.2153 -128.1348 8.6690
v  -173.8461 -128.1348 8.6690
v  -173.8461 -89.2996 8.6690
v  -94.2153 -89.2996 8.6690
v  -84.6444 -89.2996 8.6690
v  -5.0137 -89.2996 8.6690
v  4.5573 -89.2996 8.6690
v  84.1880 -89.2996 8.6690
v  173.3896 -88.4465 8.4049
v  93.7589 -89.2996 8.6690
v  178.1751 -128.6486 8.6001
v  178.1751 -108.7171 11.2701
v  173.3897 -108.7171 11.2701
v  93.7589 -108.7171 11.2701
v  84.1880 -108.7171 11.2701
v  4.5573 -108.7172 11.2701
v  -5.0137 -108.7172 11.2701
v  -84.6444 -108.7172 11.2701
v  -94.2153 -108.7172 11.2701
v  -173.8461 -108.7172 11.2701
v  -178.6315 -108.7172 11.2701
v  -178.6315 -128.6487 8.6001
v  178.1751 -135.1277 1.1003
v  178.1751 -129.7452 7.9688
v  -178.6315 -129.7453 7.9688
v  -178.6315 -135.1278 1.1003
v  178.1751 -145.2652 0.9628
v  178.1751 -138.0643 0.9628
v  173.4094 -138.0011 0.9664
v  4.6483 -138.0524 0.9640
v  -4.9940 -138.0011 0.9664
v  -173.7550 -138.0525 0.9640
v  -178.6315 -138.0644 0.9628
v  -178.6315 -145.2653 0.9628
v  178.1751 -147.9416 0.9628
v  -178.6315 -147.9417 0.9628
v  178.1751 -148.6255 -11.2702
v  178.1751 -148.6254 0.2790
v  -178.6315 -148.6255 0.2790
v  -178.6315 -148.6255 -11.2702
v  -178.6316 -88.7857 8.6001
v  178.1751 -88.7856 8.6001
v  -178.6316 -82.7728 1.6230
v  -178.6316 -87.6892 7.9688
v  178.1751 -87.6891 7.9688
v  178.1751 -82.7728 1.6230
v  -178.4034 -19.8661 0.9628
v  -178.5174 -70.1326 0.9628
v  93.7589 -81.4262 0.9628
v  178.1751 -81.4261 0.9628
v  178.2892 -70.1325 0.9628
v  173.3896 -81.4261 0.9628
v  171.8386 -108.7171 10.8801
v  171.8386 -127.2950 8.3914
v  171.8386 -90.1392 8.3914
v  171.0688 -89.6949 8.3319
v  96.0797 -89.6950 8.3319
v  95.3099 -108.7171 10.8801
v  95.3099 -90.1393 8.3914
v  95.3099 -127.2951 8.3914
v  96.0798 -127.7393 8.3319
v  171.0688 -127.7393 8.3319
v  81.8672 -127.7393 8.3319
v  6.8781 -127.7394 8.3319
v  82.6370 -108.7171 10.8801
v  82.6370 -127.2951 8.3914
v  82.6370 -90.1393 8.3914
v  6.8781 -89.6950 8.3319
v  81.8671 -89.6950 8.3319
v  6.1083 -108.7172 10.8801
v  6.1083 -90.1393 8.3914
v  6.1083 -127.2951 8.3914
v  -7.3345 -127.7394 8.3319
v  -82.3236 -127.7394 8.3319
v  -6.5647 -108.7172 10.8801
v  -6.5647 -127.2951 8.3914
v  -6.5647 -90.1393 8.3914
v  -82.3236 -89.6950 8.3319
v  -7.3345 -89.6950 8.3319
v  -83.0934 -108.7172 10.8801
v  -83.0934 -90.1393 8.3914
v  -83.0934 -127.2951 8.3914
v  -96.5362 -127.7394 8.3319
v  -171.5252 -127.7394 8.3319
v  -95.7664 -108.7172 10.8801
v  -95.7664 -127.2951 8.3914
v  -95.7664 -90.1393 8.3914
v  -171.5252 -89.6950 8.3319
v  -96.5362 -89.6950 8.3319
v  -172.2950 -108.7172 10.8801
v  -172.2951 -90.1393 8.3914
v  -172.2950 -127.2951 8.3914
v  171.8386 -108.7171 0.7368
v  171.8386 -127.3209 -1.7554
v  171.8386 -90.1134 -1.7554
v  171.1065 -89.6949 -1.8114
v  96.0420 -89.6950 -1.8114
v  95.3100 -108.7171 0.7368
v  95.3100 -90.1134 -1.7554
v  95.3100 -127.3209 -1.7554
v  96.0420 -127.7393 -1.8114
v  171.1065 -127.7393 -1.8114
v  81.8251 -127.7393 -1.8114
v  6.7606 -127.7393 -1.8114
v  82.5572 -108.7171 0.7368
v  82.5572 -127.3209 -1.7554
v  82.5572 -90.1134 -1.7554
v  6.7606 -89.6950 -1.8114
v  81.8251 -89.6950 -1.8114
v  6.0285 -108.7171 0.7368
v  6.0285 -90.1134 -1.7554
v  6.0285 -127.3209 -1.7554
v  -7.3184 -127.7393 -1.8114
v  -82.3829 -127.7393 -1.8114
v  -6.5863 -108.7172 0.7368
v  -6.5863 -127.3209 -1.7554
v  -6.5863 -90.1134 -1.7554
v  -82.3829 -89.6950 -1.8114
v  -7.3184 -89.6950 -1.8114
v  -83.1150 -108.7172 0.7368
v  -83.1150 -90.1134 -1.7554
v  -83.1150 -127.3209 -1.7554
v  -96.5199 -127.7393 -1.8114
v  -171.5844 -127.7393 -1.8114
v  -95.7878 -108.7172 0.7368
v  -95.7878 -127.3209 -1.7554
v  -95.7879 -90.1134 -1.7554
v  -171.5844 -89.6950 -1.8114
v  -96.5199 -89.6950 -1.8114
v  -172.3165 -108.7172 0.7368
v  -172.3165 -90.1134 -1.7553
v  -172.3165 -127.3209 -1.7554
v  93.7589 -137.9790 0.9628
v  84.1880 -137.9790 0.9628
v  -84.6444 -137.9790 0.9628
v  -94.2153 -137.9790 0.9628
v  -178.6316 -81.4262 0.9628
v  -4.7855 -20.9473 -6.4223
v  -82.0050 -20.9473 -6.4223
v  -82.5915 -21.2937 -6.4223
v  -82.1141 -69.0514 -6.4223
v  -82.6991 -68.7049 -6.4223
v  -4.8996 -69.0514 -6.4223
v  82.4774 -68.7049 -6.4223
v  82.5851 -21.2937 -6.4223
v  82.0000 -20.9472 -6.4223
v  4.6714 -69.0514 -6.4223
v  4.7855 -20.9473 -6.4223
v  81.8909 -69.0514 -6.4223
v  -84.4154 -19.5242 0.9628
v  84.9942 -19.8660 0.9628
v  -4.7855 -19.8660 0.9628
v  -82.3048 -20.7310 0.3462
v  -4.7855 -20.7310 0.3462
v  -83.0651 -68.8824 0.3462
v  -82.9567 -21.1161 0.3462
v  -4.8996 -69.2676 0.3462
v  -82.4147 -69.2676 0.3462
v  4.6714 -69.2676 0.3462
v  82.1907 -69.2676 0.3462
v  82.9510 -21.1162 0.3462
v  82.8426 -68.8826 0.3462
v  4.7855 -19.8660 0.9628
v  4.7855 -20.7310 0.3462
v  82.3006 -20.7310 0.3462
v  -82.3740 -20.7310 -5.1248
v  -4.7855 -20.7310 -5.1248
v  -83.0652 -68.9234 -5.1248
v  -82.9566 -21.0752 -5.1248
v  -4.8996 -69.2676 -5.1248
v  -82.4841 -69.2676 -5.1248
v  4.6714 -69.2676 -5.1248
v  82.2599 -69.2676 -5.1248
v  82.9511 -21.0752 -5.1248
v  82.8425 -68.9234 -5.1248
v  4.7855 -20.7310 -5.1248
v  82.3700 -20.7310 -5.1248
v  173.3897 135.1277 1.1004
v  93.7589 135.1277 1.1004
v  93.7589 129.7452 7.9688
v  173.3897 129.7452 7.9688
v  4.5573 129.7452 7.9688
v  84.1880 129.7452 7.9688
v  84.1880 135.1277 1.1004
v  4.5573 135.1277 1.1004
v  -84.6444 129.7452 7.9688
v  -5.0137 129.7452 7.9688
v  -5.0137 135.1277 1.1004
v  -84.6444 135.1277 1.1004
v  -173.8461 129.7452 7.9688
v  -94.2153 129.7452 7.9688
v  -94.2153 135.1277 1.1004
v  -173.8461 135.1277 1.1004
v  173.3897 147.9416 0.9628
v  93.7589 147.9417 0.9628
v  93.7589 145.2652 0.9628
v  173.3718 145.2441 0.9628
v  4.5751 145.2442 0.9628
v  84.1880 145.2652 0.9628
v  84.1880 147.9417 0.9628
v  4.5573 147.9417 0.9628
v  -84.6444 145.2653 0.9628
v  -5.0315 145.2442 0.9628
v  -5.0137 147.9417 0.9628
v  -84.6444 147.9417 0.9628
v  -173.8104 145.2548 0.9628
v  -94.2153 145.2653 0.9628
v  -94.2153 147.9417 0.9628
v  -173.8461 147.9417 0.9628
v  173.3897 148.6255 -11.2701
v  93.7589 148.6255 -11.2701
v  93.7589 148.6255 0.2790
v  173.3897 148.6255 0.2790
v  4.5573 148.6255 0.2790
v  84.1880 148.6255 0.2790
v  84.1880 148.6255 -11.2701
v  4.5573 148.6255 -11.2701
v  -84.6444 148.6255 0.2790
v  -5.0137 148.6255 0.2790
v  -5.0137 148.6255 -11.2701
v  -84.6444 148.6255 -11.2701
v  -173.8461 148.6255 0.2790
v  -94.2153 148.6255 0.2790
v  -94.2153 148.6255 -11.2701
v  -173.8461 148.6255 -11.2701
v  -94.2153 87.6891 7.9688
v  -173.8461 87.6891 7.9688
v  -5.0137 87.6891 7.9688
v  -84.6444 87.6891 7.9688
v  84.1880 87.6891 7.9688
v  4.5573 87.6891 7.9688
v  173.3897 87.6891 7.9688
v  93.7589 87.6891 7.9688
v  93.7589 128.1347 8.6690
v  173.3897 128.1347 8.6690
v  4.5573 128.1347 8.6690
v  84.1880 128.1347 8.6690
v  -84.6444 128.1347 8.6690
v  -5.0137 128.1347 8.6690
v  -173.8461 128.1348 8.6690
v  -94.2153 128.1347 8.6690
v  -94.2153 89.2996 8.6690
v  -173.8461 89.2996 8.6690
v  -5.0137 89.2996 8.6690
v  -84.6444 89.2996 8.6690
v  84.1880 89.2996 8.6690
v  4.5573 89.2996 8.6690
v  173.3897 88.4465 8.4049
v  93.7589 89.2996 8.6690
v  173.3897 108.7171 11.2702
v  178.1751 108.7171 11.2702
v  178.1751 128.6486 8.6001
v  93.7589 108.7171 11.2702
v  84.1880 108.7171 11.2702
v  4.5573 108.7172 11.2702
v  -5.0137 108.7172 11.2702
v  -84.6444 108.7172 11.2702
v  -94.2153 108.7172 11.2702
v  -173.8461 108.7172 11.2702
v  -178.6315 128.6487 8.6001
v  -178.6315 108.7172 11.2702
v  178.1751 129.7452 7.9688
v  178.1751 135.1277 1.1004
v  -178.6315 135.1277 1.1004
v  -178.6315 129.7452 7.9688
v  173.4094 138.0010 0.9664
v  178.1751 138.0643 0.9628
v  178.1751 145.2652 0.9628
v  4.6483 138.0524 0.9640
v  -4.9940 138.0011 0.9664
v  -173.7550 138.0525 0.9640
v  -178.6315 145.2653 0.9628
v  -178.6315 138.0644 0.9628
v  178.1751 147.9416 0.9628
v  -178.6315 147.9417 0.9628
v  178.1751 148.6254 0.2790
v  178.1751 148.6255 -11.2701
v  -178.6315 148.6255 -11.2701
v  -178.6315 148.6255 0.2790
v  -178.6315 88.7857 8.6001
v  178.1751 88.7856 8.6001
v  -178.6315 87.6891 7.9688
v  178.1751 87.6891 7.9688
v  171.8386 127.2950 8.3914
v  171.8386 108.7171 10.8801
v  171.8386 90.1392 8.3914
v  171.0688 89.6949 8.3319
v  96.0797 89.6949 8.3319
v  95.3099 90.1392 8.3914
v  95.3099 108.7171 10.8801
v  95.3099 127.2950 8.3914
v  96.0797 127.7393 8.3319
v  171.0688 127.7393 8.3319
v  6.8781 127.7393 8.3319
v  81.8671 127.7393 8.3319
v  82.6370 127.2950 8.3914
v  82.6370 108.7171 10.8801
v  82.6370 90.1392 8.3914
v  81.8671 89.6949 8.3319
v  6.8781 89.6949 8.3319
v  6.1083 90.1393 8.3914
v  6.1083 108.7171 10.8801
v  6.1083 127.2950 8.3914
v  -82.3236 127.7393 8.3319
v  -7.3345 127.7393 8.3319
v  -6.5647 127.2950 8.3914
v  -6.5647 108.7172 10.8801
v  -6.5647 90.1393 8.3914
v  -7.3345 89.6949 8.3319
v  -82.3236 89.6950 8.3319
v  -83.0934 90.1393 8.3914
v  -83.0934 108.7172 10.8801
v  -83.0934 127.2951 8.3914
v  -171.5252 127.7394 8.3319
v  -96.5362 127.7393 8.3319
v  -95.7664 127.2951 8.3914
v  -95.7664 108.7172 10.8801
v  -95.7664 90.1393 8.3914
v  -96.5362 89.6950 8.3319
v  -171.5252 89.6950 8.3319
v  -172.2950 90.1393 8.3914
v  -172.2950 108.7172 10.8801
v  -172.2950 127.2951 8.3914
v  171.8386 127.3209 -1.7553
v  171.8386 108.7171 0.7368
v  171.8386 90.1134 -1.7553
v  171.1065 89.6949 -1.8114
v  96.0420 89.6949 -1.8114
v  95.3100 90.1134 -1.7553
v  95.3100 108.7171 0.7368
v  95.3100 127.3209 -1.7553
v  96.0420 127.7393 -1.8114
v  171.1065 127.7393 -1.8114
v  6.7606 127.7393 -1.8114
v  81.8251 127.7393 -1.8114
v  82.5572 127.3209 -1.7553
v  82.5572 108.7171 0.7368
v  82.5572 90.1134 -1.7553
v  81.8251 89.6949 -1.8114
v  6.7606 89.6949 -1.8114
v  6.0285 90.1134 -1.7553
v  6.0285 108.7171 0.7368
v  6.0285 127.3209 -1.7553
v  -82.3829 127.7393 -1.8114
v  -7.3184 127.7393 -1.8114
v  -6.5863 127.3209 -1.7553
v  -6.5863 108.7171 0.7368
v  -6.5863 90.1134 -1.7553
v  -7.3184 89.6949 -1.8114
v  -82.3829 89.6949 -1.8114
v  -83.1150 90.1134 -1.7553
v  -83.1150 108.7171 0.7368
v  -83.1150 127.3209 -1.7553
v  -171.5844 127.7393 -1.8114
v  -96.5199 127.7393 -1.8114
v  -95.7878 127.3209 -1.7553
v  -95.7878 108.7171 0.7368
v  -95.7879 90.1134 -1.7553
v  -96.5199 89.6949 -1.8114
v  -171.5844 89.6950 -1.8114
v  -172.3165 90.1134 -1.7553
v  -172.3165 108.7172 0.7368
v  -172.3165 127.3209 -1.7553
v  93.7589 137.9789 0.9628
v  84.1880 137.9789 0.9628
v  -84.6444 137.9790 0.9628
v  -94.2153 137.9790 0.9628
v  -76.5064 73.1393 3.5548
v  -82.7615 79.1503 3.5548
v  -82.7615 4.3869 3.5548
v  -76.5064 10.3980 3.5548
v  -81.7503 3.3757 3.5548
v  82.3113 3.3757 3.5548
v  76.3003 9.6309 3.5548
v  -75.7393 9.6309 3.5548
v  72.0353 14.6629 8.9577
v  72.0353 68.8743 8.9577
v  -71.4743 68.8743 8.9577
v  -71.4743 14.6629 8.9577
v  83.3225 4.3869 3.5548
v  83.3225 79.1503 3.5548
v  77.0673 73.1393 3.5548
v  77.0673 10.3980 3.5548
v  82.3113 80.1615 3.5548
v  -81.7503 80.1615 3.5548
v  -75.7393 73.9064 3.5548
v  76.3003 73.9064 3.5548
v  72.2611 13.6701 8.6100
v  -71.7000 13.6701 8.6100
v  73.0281 69.1000 8.6100
v  73.0281 14.4372 8.6100
v  -71.7000 69.8671 8.6100
v  72.2611 69.8671 8.6100
v  -72.4672 14.4372 8.6100
v  -72.4672 69.1000 8.6100
v  -83.3746 79.7472 3.2690
v  -83.3746 3.7900 3.2690
v  83.9356 3.7900 3.2690
v  83.9356 79.7472 3.2690
v  -82.3472 2.7626 3.2690
v  82.9082 2.7626 3.2690
v  82.9082 80.7746 3.2690
v  -82.3472 80.7746 3.2690
v  -83.3746 79.7472 0.9072
v  -83.3746 3.7900 0.9072
v  83.9356 3.7900 0.9072
v  83.9356 79.7472 0.9072
v  -82.3472 2.7626 0.9072
v  82.9082 2.7626 0.9072
v  82.9082 80.7746 0.9072
v  -82.3472 80.7746 0.9072
v  96.7419 3.3757 3.5548
v  171.5053 3.3757 3.5548
v  165.4943 9.6309 3.5548
v  102.7530 9.6309 3.5548
v  101.9859 73.1393 3.5548
v  95.7307 79.1503 3.5548
v  95.7307 4.3869 3.5548
v  101.9859 10.3980 3.5548
v  161.2293 14.6629 8.9577
v  161.2293 68.8743 8.9577
v  107.0179 68.8743 8.9577
v  107.0179 14.6629 8.9577
v  172.5166 4.3869 3.5548
v  172.5166 79.1503 3.5548
v  166.2614 73.1393 3.5548
v  166.2614 10.3980 3.5548
v  165.4943 73.9064 3.5548
v  171.5053 80.1615 3.5548
v  96.7419 80.1615 3.5548
v  102.7530 73.9064 3.5548
v  161.4550 13.6701 8.6100
v  106.7922 13.6701 8.6100
v  162.2221 69.1000 8.6100
v  162.2221 14.4372 8.6100
v  106.7922 69.8671 8.6100
v  161.4550 69.8671 8.6100
v  106.0251 14.4372 8.6100
v  106.0251 69.1000 8.6100
v  95.1176 79.7472 3.2690
v  95.1176 3.7900 3.2690
v  96.1450 2.7626 3.2690
v  172.1022 2.7626 3.2690
v  172.1022 80.7746 3.2690
v  96.1450 80.7746 3.2690
v  173.1296 3.7900 3.2690
v  173.1296 79.7472 3.2690
v  95.1176 79.7472 0.9072
v  95.1176 3.7900 0.9072
v  96.1450 2.7626 0.9072
v  172.1022 2.7626 0.9072
v  172.1022 80.7746 0.9072
v  96.1450 80.7746 0.9072
v  173.1296 3.7900 0.9072
v  173.1296 79.7472 0.9072
v  96.2759 -79.1389 3.5548
v  171.0393 -79.1389 3.5548
v  165.0282 -72.8838 3.5548
v  102.2869 -72.8838 3.5548
v  101.5198 -9.3754 3.5548
v  95.2647 -3.3644 3.5548
v  95.2647 -78.1277 3.5548
v  101.5198 -72.1167 3.5548
v  160.7632 -67.8517 8.9577
v  160.7632 -13.6404 8.9577
v  106.5518 -13.6404 8.9577
v  106.5518 -67.8517 8.9577
v  172.0505 -78.1277 3.5548
v  172.0505 -3.3644 3.5548
v  165.7953 -9.3754 3.5548
v  165.7953 -72.1167 3.5548
v  165.0282 -8.6083 3.5548
v  171.0393 -2.3531 3.5548
v  96.2759 -2.3531 3.5548
v  102.2869 -8.6083 3.5548
v  160.9890 -68.8446 8.6100
v  106.3262 -68.8446 8.6100
v  161.7561 -13.4146 8.6100
v  161.7561 -68.0775 8.6100
v  106.3262 -12.6475 8.6100
v  160.9890 -12.6475 8.6100
v  105.5591 -68.0775 8.6100
v  105.5591 -13.4146 8.6100
v  94.6516 -2.7674 3.2690
v  94.6516 -78.7247 3.2690
v  95.6789 -79.7520 3.2690
v  171.6362 -79.7520 3.2690
v  171.6362 -1.7401 3.2690
v  95.6789 -1.7401 3.2690
v  172.6635 -78.7247 3.2690
v  172.6635 -2.7674 3.2690
v  94.6516 -2.7674 0.9072
v  94.6516 -78.7247 0.9072
v  95.6789 -79.7520 0.9072
v  171.6362 -79.7520 0.9072
v  171.6362 -1.7401 0.9072
v  95.6789 -1.7401 0.9072
v  172.6635 -78.7247 0.9072
v  172.6635 -2.7674 0.9072
v  94.9093 88.6413 7.7984
v  171.9709 88.6413 7.7984
v  171.9709 108.1053 10.5094
v  94.9093 108.1053 10.5094
v  171.9709 127.5693 7.7984
v  94.9093 127.5693 7.7984
v  -83.2712 88.6413 7.7984
v  -6.2095 88.6413 7.7984
v  -6.2095 108.1053 10.5094
v  -83.2712 108.1053 10.5094
v  -6.2095 127.5693 7.7984
v  -83.2712 127.5693 7.7984
v  -172.2438 88.6413 7.7984
v  -95.1821 88.6413 7.7984
v  -95.1821 108.1053 10.5094
v  -172.2438 108.1053 10.5094
v  -95.1821 127.5693 7.7984
v  -172.2438 127.5693 7.7984
v  94.9093 -127.7765 7.3914
v  171.9709 -127.7765 7.3914
v  171.9709 -108.3125 10.1025
v  94.9093 -108.3125 10.1025
v  171.9709 -88.8485 7.3914
v  94.9093 -88.8485 7.3914
v  6.1286 -127.7765 7.3914
v  83.1903 -127.7765 7.3914
v  83.1903 -108.3125 10.1025
v  6.1286 -108.3125 10.1025
v  83.1903 -88.8485 7.3914
v  6.1286 -88.8485 7.3914
v  -83.2712 -127.7765 7.3914
v  -6.2095 -127.7765 7.3914
v  -6.2095 -108.3125 10.1025
v  -83.2712 -108.3125 10.1025
v  -6.2095 -88.8485 7.3914
v  -83.2712 -88.8485 7.3914
v  -172.2438 -127.7765 7.3914
v  -95.1821 -127.7765 7.3914
v  -95.1821 -108.3125 10.1025
v  -172.2438 -108.3125 10.1025
v  -95.1821 -88.8485 7.3914
v  -172.2438 -88.8485 7.3914
# 660 vertices

vn -0.0000 -0.0000 1.0000
vn -0.0000 0.0000 1.0000
vn 0.0000 -0.0000 1.0000
vn -0.0000 -0.6317 0.7752
vn -0.0000 -0.4382 0.8989
vn 0.0000 -0.6317 0.7752
vn 0.0000 -0.4382 0.8989
vn 0.0000 -0.6207 0.7840
vn 0.0000 -0.6437 0.7653
vn 0.0000 -0.7871 0.6168
vn -0.0064 -0.6153 0.7883
vn 0.0000 -0.6116 0.7911
vn 0.0000 -0.3827 0.9239
vn 0.0001 -0.0002 1.0000
vn 0.0000 -0.0001 1.0000
vn 0.0000 0.0000 1.0000
vn 0.0000 -0.0002 1.0000
vn 0.0000 -1.0000 0.0000
vn 0.0000 -0.9239 0.3827
vn 0.0000 -1.0000 -0.0000
vn -0.0000 0.6138 0.7894
vn -0.0000 0.6317 0.7752
vn 0.0064 0.6175 0.7866
vn -0.0003 0.6140 0.7893
vn -0.0000 0.6571 0.7538
vn 0.0000 0.3047 0.9524
vn 0.0532 0.0432 0.9976
vn -0.0787 0.0617 0.9950
vn -0.0000 0.3047 0.9524
vn 0.0502 -0.2322 0.9714
vn -0.0572 -0.2275 0.9721
vn -0.0502 -0.2322 0.9714
vn 0.0519 -0.2319 0.9714
vn 0.0572 0.2275 0.9721
vn -0.0502 0.2322 0.9714
vn 0.0502 0.2322 0.9714
vn -0.0296 0.3103 0.9502
vn 0.0499 0.2320 0.9714
vn -0.0035 -0.3221 0.9467
vn -0.1216 0.0004 0.9926
vn 0.1216 0.0000 0.9926
vn -0.1216 0.0000 0.9926
vn 0.1216 -0.0000 0.9926
vn -0.1216 -0.0000 0.9926
vn 0.0223 -0.3341 0.9423
vn 0.0000 -0.6551 0.7556
vn 0.0163 -0.6455 0.7636
vn 0.0003 -0.0233 0.9997
vn 0.0002 -0.0236 0.9997
vn 0.0000 -0.0234 0.9997
vn 0.0000 -0.0236 0.9997
vn -0.0000 -0.0234 0.9997
vn -0.0002 -0.0234 0.9997
vn -0.0000 -0.0001 1.0000
vn -0.0000 -0.3827 0.9239
vn 0.0035 0.3221 0.9467
vn -0.0140 0.3157 0.9488
vn 0.0000 0.6317 0.7752
vn 0.0000 0.6571 0.7538
vn -0.7639 -0.0000 0.6453
vn -0.6056 0.2313 0.7614
vn -0.5723 -0.1750 0.8012
vn -0.1762 -0.6401 0.7478
vn 0.1559 -0.8519 0.4999
vn 0.7639 0.0000 0.6453
vn 0.6056 -0.2313 0.7614
vn 0.6055 0.2313 0.7615
vn 0.1559 0.8519 0.5000
vn -0.1559 0.8519 0.4999
vn -0.1565 0.8513 0.5008
vn 0.1553 0.8525 0.4990
vn -0.7616 -0.0000 0.6480
vn -0.6037 0.2293 0.7635
vn -0.6036 -0.2294 0.7635
vn 0.1553 -0.8526 0.4990
vn -0.1565 -0.8512 0.5009
vn 0.7663 0.0000 0.6425
vn 0.6074 -0.2333 0.7594
vn 0.6073 0.2333 0.7594
vn -0.1560 0.8518 0.5002
vn 0.1557 0.8521 0.4997
vn -0.7633 -0.0000 0.6460
vn -0.6051 0.2308 0.7620
vn -0.6050 -0.2308 0.7620
vn 0.1557 -0.8521 0.4996
vn -0.1561 -0.8517 0.5002
vn 0.7646 0.0000 0.6445
vn 0.6061 -0.2318 0.7609
vn 0.6060 0.2319 0.7609
vn -0.1560 0.8518 0.5001
vn 0.1558 0.8521 0.4997
vn 0.6060 0.2318 0.7609
vn -1.0000 -0.0000 0.0000
vn -0.8451 0.5346 -0.0011
vn -0.8450 -0.5348 -0.0014
vn -0.2518 -0.9678 -0.0011
vn 0.2517 -0.9678 -0.0009
vn 1.0000 0.0000 0.0000
vn 0.8451 -0.5346 -0.0011
vn 0.8450 0.5348 -0.0014
vn 0.2518 0.9678 -0.0011
vn -0.2517 0.9678 -0.0009
vn -0.2506 0.9681 0.0010
vn 0.2529 0.9675 -0.0031
vn -1.0000 -0.0000 0.0079
vn -0.8448 0.5351 0.0055
vn -0.8447 -0.5353 0.0053
vn 0.2528 -0.9675 -0.0029
vn -0.2507 -0.9681 0.0009
vn 1.0000 0.0000 -0.0079
vn 0.8454 -0.5341 -0.0078
vn 0.8453 0.5343 -0.0080
vn -0.2514 0.9679 -0.0004
vn 0.2521 0.9677 -0.0016
vn -1.0000 -0.0000 0.0021
vn -0.8450 0.5348 0.0007
vn -0.8449 -0.5349 0.0004
vn 0.2520 -0.9677 -0.0015
vn -0.2515 -0.9679 -0.0006
vn 1.0000 0.0000 -0.0021
vn 0.8452 -0.5345 -0.0029
vn 0.8451 0.5346 -0.0032
vn -0.8450 0.5348 0.0006
vn 0.8451 0.5346 -0.0031
vn -0.0000 -0.0241 0.9997
vn 0.0000 -0.0466 0.9989
vn 0.0000 -0.0482 0.9988
vn 0.0000 -0.0241 0.9997
vn -0.0000 -0.0466 0.9989
vn 0.0000 -0.0468 0.9989
vn -0.0001 -0.0467 0.9989
vn -0.0000 0.4402 0.8979
vn 0.0000 0.4402 0.8979
vn 0.0555 -0.0533 0.9970
vn -0.0532 -0.0432 0.9976
vn -0.0000 -0.3047 0.9524
vn 0.0408 -0.3976 0.9167
vn 0.0000 -0.5805 0.8143
vn 0.2210 0.1177 0.9681
vn 0.2872 -0.1056 0.9520
vn -0.0000 0.5805 0.8143
vn 0.0345 0.5067 0.8614
vn -0.0485 0.7367 0.6745
vn -0.2210 -0.1177 0.9681
vn -0.2995 0.1743 0.9381
vn 0.0000 -0.3047 0.9524
vn -0.0345 -0.5067 0.8614
vn 0.2616 -0.9652 -0.0033
vn 0.2791 -0.9533 0.1153
vn 0.0000 -0.9966 0.0825
vn 0.8689 -0.4949 -0.0037
vn 0.8704 0.4924 -0.0037
vn 0.8587 0.4904 0.1489
vn 0.8574 -0.4927 0.1487
vn 0.2622 0.9650 -0.0033
vn -0.0000 1.0000 0.0000
vn -0.0000 0.9966 0.0825
vn 0.2797 0.9531 0.1154
vn -0.0000 1.0000 -0.0000
vn -0.2616 0.9652 -0.0033
vn -0.2791 0.9533 0.1153
vn -0.8689 0.4949 -0.0037
vn -0.8704 -0.4924 -0.0037
vn -0.8587 -0.4904 0.1489
vn -0.8574 0.4928 0.1487
vn -0.2622 -0.9650 -0.0033
vn -0.2797 -0.9531 0.1155
vn 0.2201 -0.9501 0.2209
vn 0.0000 -0.9864 0.1644
vn 0.8271 0.4675 0.3121
vn 0.8258 -0.4701 0.3116
vn -0.0000 0.9864 0.1644
vn 0.2204 0.9500 0.2212
vn -0.2201 0.9501 0.2209
vn -0.8271 -0.4675 0.3121
vn -0.8258 0.4701 0.3116
vn -0.2204 -0.9500 0.2212
vn 0.0000 0.1328 0.9911
vn 0.0000 -0.1328 0.9911
vn -0.0000 0.1328 0.9911
vn 0.0000 0.7871 0.6168
vn 0.0000 0.6116 0.7911
vn -0.0064 0.6153 0.7883
vn 0.0000 0.3827 0.9239
vn 0.0001 0.0002 1.0000
vn 0.0000 0.0001 1.0000
vn -0.0000 0.3827 0.9239
vn 0.0000 0.0002 1.0000
vn 0.0000 1.0000 0.0000
vn 0.0000 1.0000 -0.0000
vn 0.0000 0.9239 0.3827
vn -0.0000 -0.6147 0.7888
vn 0.0064 -0.6183 0.7859
vn 0.0000 -0.6147 0.7888
vn 0.0000 -0.6580 0.7530
vn -0.0003 -0.6149 0.7886
vn -0.0572 0.2275 0.9721
vn 0.0519 0.2319 0.9714
vn 0.0572 -0.2275 0.9721
vn -0.0296 -0.3103 0.9502
vn 0.0499 -0.2320 0.9714
vn -0.1216 -0.0004 0.9926
vn -0.0035 0.3221 0.9467
vn 0.0223 0.3341 0.9423
vn 0.0000 0.6551 0.7556
vn 0.0163 0.6455 0.7636
vn 0.0002 0.0236 0.9997
vn 0.0003 0.0233 0.9997
vn 0.0000 0.0234 0.9997
vn 0.0000 0.0236 0.9997
vn -0.0000 0.0234 0.9997
vn -0.0000 0.0001 1.0000
vn -0.0002 0.0234 0.9997
vn 0.0035 -0.3221 0.9467
vn -0.0140 -0.3157 0.9488
vn 0.0000 -0.6569 0.7540
vn -0.0000 -0.6591 0.7520
vn -0.6056 -0.2313 0.7614
vn -0.7639 0.0000 0.6453
vn -0.5723 0.1750 0.8012
vn -0.1762 0.6401 0.7478
vn 0.1559 0.8519 0.4999
vn 0.6056 0.2313 0.7614
vn 0.7639 -0.0000 0.6453
vn 0.6055 -0.2313 0.7615
vn 0.1559 -0.8519 0.5000
vn -0.1559 -0.8519 0.4999
vn 0.1553 -0.8525 0.4990
vn -0.1565 -0.8513 0.5008
vn -0.6037 -0.2294 0.7635
vn -0.7616 0.0000 0.6480
vn -0.6036 0.2294 0.7635
vn -0.1565 0.8512 0.5009
vn 0.1553 0.8526 0.4990
vn 0.6074 0.2333 0.7594
vn 0.7663 -0.0000 0.6425
vn 0.6073 -0.2333 0.7594
vn 0.1557 -0.8521 0.4997
vn -0.1560 -0.8518 0.5002
vn -0.6051 -0.2308 0.7620
vn -0.7633 0.0000 0.6460
vn -0.6050 0.2308 0.7620
vn -0.1561 0.8517 0.5002
vn 0.1557 0.8521 0.4996
vn 0.6061 0.2318 0.7609
vn 0.7646 -0.0000 0.6445
vn 0.6060 -0.2319 0.7609
vn 0.1558 -0.8521 0.4997
vn -0.1560 -0.8518 0.5001
vn 0.6060 -0.2318 0.7609
vn -0.8451 -0.5346 -0.0011
vn -1.0000 0.0000 -0.0000
vn -0.8450 0.5348 -0.0014
vn -0.2518 0.9678 -0.0011
vn 0.2517 0.9678 -0.0009
vn 0.8451 0.5346 -0.0011
vn 1.0000 -0.0000 0.0000
vn 0.8450 -0.5348 -0.0014
vn 0.2518 -0.9678 -0.0011
vn -0.2517 -0.9678 -0.0009
vn 0.2529 -0.9675 -0.0031
vn -0.2506 -0.9681 0.0010
vn -0.8448 -0.5351 0.0055
vn -1.0000 0.0000 0.0079
vn -0.8447 0.5353 0.0053
vn -0.2507 0.9681 0.0009
vn 0.2528 0.9675 -0.0029
vn 0.8454 0.5341 -0.0078
vn 1.0000 -0.0000 -0.0079
vn 0.8453 -0.5343 -0.0080
vn 0.2521 -0.9677 -0.0016
vn -0.2514 -0.9679 -0.0004
vn -0.8450 -0.5348 0.0007
vn -1.0000 0.0000 0.0021
vn -0.8449 0.5349 0.0004
vn -0.2515 0.9679 -0.0006
vn 0.2520 0.9677 -0.0015
vn 0.8452 0.5345 -0.0029
vn 1.0000 -0.0000 -0.0021
vn 0.8451 -0.5346 -0.0032
vn -0.8450 -0.5348 0.0006
vn -0.0000 0.0241 0.9997
vn 0.0000 0.0482 0.9988
vn 0.0000 0.0466 0.9989
vn 0.0000 0.0241 0.9997
vn -0.0000 0.0466 0.9989
vn 0.0000 0.0468 0.9989
vn -0.0001 0.0467 0.9989
vn -0.0000 -0.1328 0.9911
vn 0.1438 -0.1438 0.9791
vn 0.1438 0.1438 0.9791
vn -0.1438 0.1438 0.9791
vn -0.1438 -0.1438 0.9791
vn 0.1751 -0.5406 0.8228
vn -0.1751 -0.5407 0.8228
vn -0.2969 -0.6161 0.7295
vn 0.2969 -0.6161 0.7295
vn 0.6161 -0.2969 0.7295
vn 0.6161 0.2969 0.7295
vn 0.5407 0.1751 0.8228
vn 0.5407 -0.1751 0.8228
vn -0.2969 0.6161 0.7295
vn -0.1751 0.5407 0.8228
vn 0.1751 0.5406 0.8228
vn 0.2969 0.6161 0.7295
vn -0.6161 0.2969 0.7295
vn -0.6161 -0.2969 0.7295
vn -0.5407 -0.1751 0.8228
vn -0.5406 0.1751 0.8228
vn -0.4226 -0.0000 0.9063
vn 0.4226 -0.0000 0.9063
vn 0.0000 -0.4226 0.9063
vn -0.0000 0.4226 0.9063
vn -0.2241 -0.2241 0.9485
vn 0.2241 -0.2241 0.9485
vn -0.2241 0.2241 0.9485
vn 0.2241 0.2241 0.9485
vn 1.0000 0.0000 -0.0000
vn -0.7071 -0.7071 -0.0000
vn 0.7071 -0.7071 -0.0000
vn -0.7071 0.7071 -0.0000
vn 0.7071 0.7071 -0.0000
vn 0.1751 -0.5407 0.8228
vn 0.5406 0.1751 0.8228
vn 0.5406 -0.1751 0.8228
vn 0.2969 0.6161 0.7296
vn 0.1751 0.5407 0.8228
vn -0.5407 0.1751 0.8228
vn 0.0000 0.4226 0.9063
vn -0.1751 -0.5406 0.8228
vn -0.1751 0.5406 0.8228
vn 0.0000 -0.1380 0.9904
vn 0.0000 0.1380 0.9904
# 333 vertex normals

vt 0.8627 0.3688 0.0000
vt 0.9857 0.3688 0.0000
vt 0.9858 0.6264 0.0000
vt 0.8628 0.6264 0.0000
vt 0.7249 0.3688 0.0000
vt 0.8479 0.3693 0.0000
vt 0.8480 0.6264 0.0000
vt 0.7250 0.6264 0.0000
vt 0.5870 0.3693 0.0000
vt 0.7101 0.3688 0.0000
vt 0.7102 0.6264 0.0000
vt 0.5872 0.6264 0.0000
vt 0.5723 0.3688 0.0000
vt 0.4492 0.3688 0.0000
vt 0.4491 0.3616 0.0000
vt 0.5721 0.3616 0.0000
vt 0.9929 0.3616 0.0000
vt 0.9931 0.3688 0.0000
vt 0.9855 0.3616 0.0000
vt 0.5724 0.6264 0.0000
vt 0.4420 0.6264 0.0000
vt 0.4419 0.3688 0.0000
vt 0.4494 0.6264 0.0000
vt 0.8624 0.6304 0.0000
vt 0.9854 0.6304 0.0000
vt 0.7246 0.6304 0.0000
vt 0.8476 0.6304 0.0000
vt 0.5868 0.6304 0.0000
vt 0.7098 0.6304 0.0000
vt 0.4490 0.6304 0.0000
vt 0.5720 0.6304 0.0000
vt 0.9932 0.6264 0.0000
vt 0.9928 0.6304 0.0000
vt 0.4416 0.6304 0.0000
vt 0.9851 0.0410 0.0000
vt 0.9851 0.0638 0.0000
vt 0.8621 0.0639 0.0000
vt 0.8621 0.0410 0.0000
vt 0.7243 0.0639 0.0000
vt 0.7243 0.0410 0.0000
vt 0.8473 0.0410 0.0000
vt 0.8473 0.0639 0.0000
vt 0.5865 0.0639 0.0000
vt 0.5865 0.0410 0.0000
vt 0.7095 0.0410 0.0000
vt 0.7095 0.0639 0.0000
vt 0.4486 0.0638 0.0000
vt 0.4487 0.0410 0.0000
vt 0.5717 0.0410 0.0000
vt 0.5716 0.0638 0.0000
vt 0.9851 0.0075 0.0000
vt 0.9850 0.0145 0.0000
vt 0.8621 0.0145 0.0000
vt 0.8621 0.0075 0.0000
vt 0.7243 0.0145 0.0000
vt 0.7243 0.0075 0.0000
vt 0.8473 0.0075 0.0000
vt 0.8473 0.0145 0.0000
vt 0.5865 0.0145 0.0000
vt 0.5865 0.0075 0.0000
vt 0.7095 0.0075 0.0000
vt 0.7095 0.0145 0.0000
vt 0.4487 0.0145 0.0000
vt 0.4487 0.0075 0.0000
vt 0.5717 0.0075 0.0000
vt 0.5717 0.0145 0.0000
vt 0.0347 0.0141 0.0000
vt 0.0540 0.0140 0.0000
vt 0.0545 0.0926 0.0000
vt 0.0352 0.0927 0.0000
vt 0.0549 0.1807 0.0000
vt 0.0357 0.1808 0.0000
vt 0.0352 0.1022 0.0000
vt 0.0545 0.1021 0.0000
vt 0.0554 0.2689 0.0000
vt 0.0361 0.2689 0.0000
vt 0.0357 0.1903 0.0000
vt 0.0550 0.1902 0.0000
vt 0.0558 0.3570 0.0000
vt 0.0365 0.3571 0.0000
vt 0.0361 0.2784 0.0000
vt 0.0554 0.2783 0.0000
vt 0.5717 0.1755 0.0000
vt 0.5717 0.1966 0.0000
vt 0.4487 0.1966 0.0000
vt 0.4487 0.1755 0.0000
vt 0.7095 0.1754 0.0000
vt 0.7095 0.1965 0.0000
vt 0.5865 0.1965 0.0000
vt 0.5865 0.1755 0.0000
vt 0.8474 0.1754 0.0000
vt 0.8473 0.1965 0.0000
vt 0.7243 0.1965 0.0000
vt 0.7243 0.1754 0.0000
vt 0.8621 0.1965 0.0000
vt 0.8622 0.1755 0.0000
vt 0.9852 0.1755 0.0000
vt 0.9851 0.1966 0.0000
vt 0.5719 0.2302 0.0000
vt 0.4489 0.2302 0.0000
vt 0.4487 0.2006 0.0000
vt 0.5717 0.2006 0.0000
vt 0.7097 0.2300 0.0000
vt 0.5858 0.2301 0.0000
vt 0.5865 0.2005 0.0000
vt 0.7095 0.2005 0.0000
vt 0.8475 0.2313 0.0000
vt 0.7245 0.2300 0.0000
vt 0.7243 0.2005 0.0000
vt 0.8473 0.2005 0.0000
vt 0.8623 0.2302 0.0000
vt 0.9853 0.2302 0.0000
vt 0.8625 0.3616 0.0000
vt 0.8621 0.0684 0.0000
vt 0.9851 0.0685 0.0000
vt 0.8473 0.0686 0.0000
vt 0.7243 0.0686 0.0000
vt 0.7095 0.0684 0.0000
vt 0.5865 0.0685 0.0000
vt 0.5716 0.0684 0.0000
vt 0.4486 0.0685 0.0000
vt 0.8621 0.0049 0.0000
vt 0.9851 0.0049 0.0000
vt 0.8473 0.0049 0.0000
vt 0.7243 0.0049 0.0000
vt 0.7095 0.0049 0.0000
vt 0.5865 0.0049 0.0000
vt 0.5717 0.0049 0.0000
vt 0.4487 0.0049 0.0000
vt 0.4486 0.1708 0.0000
vt 0.5716 0.1709 0.0000
vt 0.5865 0.1707 0.0000
vt 0.7095 0.1708 0.0000
vt 0.7243 0.1707 0.0000
vt 0.8474 0.1707 0.0000
vt 0.9853 0.1731 0.0000
vt 0.8622 0.1709 0.0000
vt 0.9925 0.0670 0.0000
vt 0.9950 0.1196 0.0000
vt 0.9877 0.1197 0.0000
vt 0.8643 0.1196 0.0000
vt 0.8497 0.1196 0.0000
vt 0.7219 0.1196 0.0000
vt 0.7073 0.1196 0.0000
vt 0.5841 0.1196 0.0000
vt 0.5695 0.1196 0.0000
vt 0.4460 0.1197 0.0000
vt 0.4387 0.1197 0.0000
vt 0.4412 0.0670 0.0000
vt 0.9925 0.0410 0.0000
vt 0.9925 0.0638 0.0000
vt 0.4412 0.0638 0.0000
vt 0.4413 0.0410 0.0000
vt 0.9925 0.0145 0.0000
vt 0.9925 0.0333 0.0000
vt 0.9851 0.0335 0.0000
vt 0.7244 0.0334 0.0000
vt 0.7095 0.0335 0.0000
vt 0.4488 0.0333 0.0000
vt 0.4413 0.0333 0.0000
vt 0.4413 0.0145 0.0000
vt 0.9925 0.0075 0.0000
vt 0.4413 0.0075 0.0000
vt 0.0347 0.0094 0.0000
vt 0.0540 0.0093 0.0000
vt 0.0558 0.3617 0.0000
vt 0.0365 0.3618 0.0000
vt 0.4412 0.1723 0.0000
vt 0.9927 0.1723 0.0000
vt 0.4413 0.1966 0.0000
vt 0.4413 0.1756 0.0000
vt 0.9926 0.1756 0.0000
vt 0.9925 0.1966 0.0000
vt 0.4417 0.3616 0.0000
vt 0.4415 0.2302 0.0000
vt 0.8621 0.2006 0.0000
vt 0.9925 0.2006 0.0000
vt 0.9927 0.2302 0.0000
vt 0.9851 0.2006 0.0000
vt 0.9925 0.0049 0.0000
vt 0.4413 0.0049 0.0000
vt 0.9851 0.1197 0.0000
vt 0.9826 0.0708 0.0000
vt 0.9829 0.1686 0.0000
vt 0.9817 0.1698 0.0000
vt 0.8659 0.1698 0.0000
vt 0.8669 0.1196 0.0000
vt 0.8648 0.1687 0.0000
vt 0.8647 0.0706 0.0000
vt 0.8658 0.0696 0.0000
vt 0.9815 0.0697 0.0000
vt 0.8437 0.0698 0.0000
vt 0.7279 0.0698 0.0000
vt 0.8473 0.1196 0.0000
vt 0.8448 0.0708 0.0000
vt 0.8448 0.1685 0.0000
vt 0.7280 0.1695 0.0000
vt 0.8437 0.1695 0.0000
vt 0.7244 0.1196 0.0000
vt 0.7269 0.1685 0.0000
vt 0.7268 0.0708 0.0000
vt 0.7058 0.0696 0.0000
vt 0.5901 0.0697 0.0000
vt 0.7048 0.1196 0.0000
vt 0.7069 0.0706 0.0000
vt 0.7069 0.1686 0.0000
vt 0.5901 0.1696 0.0000
vt 0.7059 0.1696 0.0000
vt 0.5865 0.1196 0.0000
vt 0.5890 0.1685 0.0000
vt 0.5890 0.0708 0.0000
vt 0.5680 0.0696 0.0000
vt 0.4522 0.0697 0.0000
vt 0.5669 0.1196 0.0000
vt 0.5691 0.0706 0.0000
vt 0.5691 0.1687 0.0000
vt 0.4522 0.1696 0.0000
vt 0.5680 0.1697 0.0000
vt 0.4486 0.1196 0.0000
vt 0.4511 0.1685 0.0000
vt 0.4511 0.0708 0.0000
vt 0.9729 0.9819 0.0000
vt 0.9309 0.9840 0.0000
vt 0.9309 0.9600 0.0000
vt 0.9747 0.9592 0.0000
vt 0.8889 0.9819 0.0000
vt 0.8871 0.9592 0.0000
vt 0.8867 0.9583 0.0000
vt 0.8634 0.9584 0.0000
vt 0.8634 0.8561 0.0000
vt 0.8867 0.8562 0.0000
vt 0.8889 0.8326 0.0000
vt 0.9309 0.8306 0.0000
vt 0.9309 0.8545 0.0000
vt 0.8871 0.8553 0.0000
vt 0.9729 0.8326 0.0000
vt 0.9747 0.8553 0.0000
vt 0.9751 0.8562 0.0000
vt 0.9983 0.8561 0.0000
vt 0.9983 0.9584 0.0000
vt 0.9751 0.9583 0.0000
vt 0.5711 0.9626 0.0000
vt 0.5476 0.9625 0.0000
vt 0.5476 0.8594 0.0000
vt 0.5711 0.8594 0.0000
vt 0.5454 0.9863 0.0000
vt 0.5030 0.9883 0.0000
vt 0.5030 0.9642 0.0000
vt 0.5472 0.9634 0.0000
vt 0.4606 0.9863 0.0000
vt 0.4588 0.9632 0.0000
vt 0.4340 0.8594 0.0000
vt 0.4576 0.8592 0.0000
vt 0.4576 0.9627 0.0000
vt 0.4340 0.9626 0.0000
vt 0.4606 0.8355 0.0000
vt 0.5030 0.8335 0.0000
vt 0.5030 0.8576 0.0000
vt 0.4588 0.8587 0.0000
vt 0.5454 0.8356 0.0000
vt 0.5472 0.8585 0.0000
vt 0.1481 0.5087 0.0000
vt 0.1239 0.5086 0.0000
vt 0.1239 0.4022 0.0000
vt 0.1481 0.4021 0.0000
vt 0.1216 0.5332 0.0000
vt 0.0778 0.5353 0.0000
vt 0.0778 0.5104 0.0000
vt 0.1235 0.5095 0.0000
vt 0.0340 0.5332 0.0000
vt 0.0322 0.5095 0.0000
vt 0.0075 0.4021 0.0000
vt 0.0318 0.4022 0.0000
vt 0.0318 0.5086 0.0000
vt 0.0075 0.5087 0.0000
vt 0.0340 0.3776 0.0000
vt 0.0778 0.3755 0.0000
vt 0.0778 0.4004 0.0000
vt 0.0322 0.4012 0.0000
vt 0.1216 0.3776 0.0000
vt 0.1235 0.4012 0.0000
vt 0.4218 0.3330 0.0000
vt 0.3983 0.3329 0.0000
vt 0.3983 0.2295 0.0000
vt 0.4218 0.2294 0.0000
vt 0.3961 0.3568 0.0000
vt 0.3535 0.3589 0.0000
vt 0.3535 0.3347 0.0000
vt 0.3979 0.3339 0.0000
vt 0.3109 0.3568 0.0000
vt 0.3091 0.3339 0.0000
vt 0.2852 0.2294 0.0000
vt 0.3087 0.2295 0.0000
vt 0.3087 0.3329 0.0000
vt 0.2852 0.3330 0.0000
vt 0.3109 0.2055 0.0000
vt 0.3535 0.2035 0.0000
vt 0.3535 0.2277 0.0000
vt 0.3091 0.2285 0.0000
vt 0.3961 0.2055 0.0000
vt 0.3979 0.2285 0.0000
vt 0.8621 0.0335 0.0000
vt 0.8473 0.0335 0.0000
vt 0.5865 0.0335 0.0000
vt 0.5717 0.0335 0.0000
vt 0.9984 0.9599 0.0000
vt 0.8634 0.9599 0.0000
vt 0.8634 0.8546 0.0000
vt 0.9984 0.8546 0.0000
vt 0.5711 0.8579 0.0000
vt 0.5711 0.9641 0.0000
vt 0.4591 0.9864 0.0000
vt 0.4591 0.8354 0.0000
vt 0.1481 0.4006 0.0000
vt 0.1481 0.5102 0.0000
vt 0.0075 0.5102 0.0000
vt 0.0075 0.4006 0.0000
vt 0.4219 0.2279 0.0000
vt 0.4219 0.3345 0.0000
vt 0.2851 0.3345 0.0000
vt 0.2851 0.2279 0.0000
vt 0.4413 0.2006 0.0000
vt 0.2930 0.0395 0.0000
vt 0.4093 0.0394 0.0000
vt 0.4098 0.0405 0.0000
vt 0.4092 0.1617 0.0000
vt 0.4102 0.1611 0.0000
vt 0.2931 0.1618 0.0000
vt 0.1617 0.1610 0.0000
vt 0.1618 0.0404 0.0000
vt 0.1623 0.0394 0.0000
vt 0.2788 0.1618 0.0000
vt 0.2786 0.0395 0.0000
vt 0.1627 0.1616 0.0000
vt 0.5869 0.3625 0.0000
vt 0.8486 0.3616 0.0000
vt 0.2930 0.0195 0.0000
vt 0.4128 0.0187 0.0000
vt 0.4096 0.0221 0.0000
vt 0.2930 0.0222 0.0000
vt 0.4300 0.0359 0.0000
vt 0.4308 0.1646 0.0000
vt 0.4274 0.1614 0.0000
vt 0.4271 0.0399 0.0000
vt 0.4138 0.1819 0.0000
vt 0.2932 0.1818 0.0000
vt 0.2932 0.1791 0.0000
vt 0.4098 0.1789 0.0000
vt 0.2787 0.1818 0.0000
vt 0.2787 0.1791 0.0000
vt 0.1590 0.1808 0.0000
vt 0.1621 0.1787 0.0000
vt 0.1418 0.1635 0.0000
vt 0.1408 0.0368 0.0000
vt 0.1445 0.0399 0.0000
vt 0.1445 0.1614 0.0000
vt 0.1579 0.0195 0.0000
vt 0.2786 0.0195 0.0000
vt 0.2786 0.0222 0.0000
vt 0.1620 0.0222 0.0000
vt 0.4097 0.0361 0.0000
vt 0.2930 0.0361 0.0000
vt 0.4135 0.1616 0.0000
vt 0.4130 0.0399 0.0000
vt 0.2931 0.1652 0.0000
vt 0.4098 0.1649 0.0000
vt 0.2788 0.1652 0.0000
vt 0.1621 0.1648 0.0000
vt 0.1586 0.0399 0.0000
vt 0.1584 0.1615 0.0000
vt 0.2786 0.0361 0.0000
vt 0.1619 0.0361 0.0000
vt 0.4266 0.0386 0.0000
vt 0.4111 0.1785 0.0000
vt 0.1608 0.1783 0.0000
vt 0.1450 0.0386 0.0000
vt 0.4129 0.0387 0.0000
vt 0.4111 0.1647 0.0000
vt 0.1608 0.1646 0.0000
vt 0.1587 0.0386 0.0000
vt 0.7247 0.3617 0.0000
vt 0.7099 0.3617 0.0000
vt 0.9852 0.7859 0.0000
vt 0.8622 0.7859 0.0000
vt 0.8622 0.7631 0.0000
vt 0.9852 0.7631 0.0000
vt 0.7244 0.7631 0.0000
vt 0.8474 0.7631 0.0000
vt 0.8474 0.7859 0.0000
vt 0.7244 0.7859 0.0000
vt 0.5865 0.7631 0.0000
vt 0.7096 0.7631 0.0000
vt 0.7096 0.7859 0.0000
vt 0.5865 0.7859 0.0000
vt 0.4487 0.7631 0.0000
vt 0.5717 0.7631 0.0000
vt 0.5717 0.7859 0.0000
vt 0.4487 0.7859 0.0000
vt 0.9852 0.8195 0.0000
vt 0.8622 0.8195 0.0000
vt 0.8622 0.8125 0.0000
vt 0.9851 0.8124 0.0000
vt 0.7244 0.8124 0.0000
vt 0.8474 0.8125 0.0000
vt 0.8474 0.8195 0.0000
vt 0.7244 0.8195 0.0000
vt 0.5865 0.8125 0.0000
vt 0.7095 0.8124 0.0000
vt 0.7096 0.8195 0.0000
vt 0.5865 0.8195 0.0000
vt 0.4488 0.8124 0.0000
vt 0.5718 0.8125 0.0000
vt 0.5718 0.8195 0.0000
vt 0.4487 0.8195 0.0000
vt 0.0600 0.3571 0.0000
vt 0.0604 0.2793 0.0000
vt 0.0795 0.2794 0.0000
vt 0.0791 0.3572 0.0000
vt 0.0800 0.1922 0.0000
vt 0.0795 0.2700 0.0000
vt 0.0605 0.2699 0.0000
vt 0.0609 0.1921 0.0000
vt 0.0804 0.1050 0.0000
vt 0.0800 0.1828 0.0000
vt 0.0609 0.1827 0.0000
vt 0.0613 0.1049 0.0000
vt 0.0808 0.0178 0.0000
vt 0.0804 0.0956 0.0000
vt 0.0613 0.0955 0.0000
vt 0.0617 0.0177 0.0000
vt 0.5717 0.6514 0.0000
vt 0.4487 0.6514 0.0000
vt 0.7095 0.6514 0.0000
vt 0.5865 0.6514 0.0000
vt 0.8473 0.6514 0.0000
vt 0.7243 0.6514 0.0000
vt 0.9852 0.6514 0.0000
vt 0.8621 0.6515 0.0000
vt 0.8622 0.7584 0.0000
vt 0.9853 0.7584 0.0000
vt 0.7243 0.7585 0.0000
vt 0.8474 0.7585 0.0000
vt 0.5865 0.7585 0.0000
vt 0.7096 0.7585 0.0000
vt 0.4487 0.7585 0.0000
vt 0.5717 0.7584 0.0000
vt 0.9852 0.8220 0.0000
vt 0.8622 0.8220 0.0000
vt 0.8474 0.8220 0.0000
vt 0.7244 0.8220 0.0000
vt 0.7096 0.8220 0.0000
vt 0.5865 0.8220 0.0000
vt 0.5718 0.8220 0.0000
vt 0.4487 0.8220 0.0000
vt 0.5717 0.6562 0.0000
vt 0.4486 0.6561 0.0000
vt 0.7096 0.6561 0.0000
vt 0.5865 0.6560 0.0000
vt 0.8473 0.6560 0.0000
vt 0.7243 0.6561 0.0000
vt 0.9852 0.6538 0.0000
vt 0.8622 0.6562 0.0000
vt 0.9853 0.7073 0.0000
vt 0.9927 0.7073 0.0000
vt 0.9927 0.7598 0.0000
vt 0.8598 0.7073 0.0000
vt 0.8452 0.7073 0.0000
vt 0.7243 0.7073 0.0000
vt 0.7096 0.7073 0.0000
vt 0.5887 0.7073 0.0000
vt 0.5741 0.7073 0.0000
vt 0.4486 0.7073 0.0000
vt 0.4413 0.7598 0.0000
vt 0.4413 0.7073 0.0000
vt 0.9926 0.7631 0.0000
vt 0.9926 0.7859 0.0000
vt 0.4413 0.7859 0.0000
vt 0.4413 0.7631 0.0000
vt 0.9852 0.7935 0.0000
vt 0.9926 0.7936 0.0000
vt 0.9926 0.8125 0.0000
vt 0.7245 0.7936 0.0000
vt 0.7096 0.7935 0.0000
vt 0.4489 0.7936 0.0000
vt 0.4414 0.8125 0.0000
vt 0.4413 0.7936 0.0000
vt 0.9926 0.8195 0.0000
vt 0.4414 0.8195 0.0000
vt 0.0790 0.3619 0.0000
vt 0.0599 0.3618 0.0000
vt 0.0617 0.0130 0.0000
vt 0.0808 0.0131 0.0000
vt 0.4413 0.6547 0.0000
vt 0.9926 0.6548 0.0000
vt 0.4413 0.6514 0.0000
vt 0.9926 0.6514 0.0000
vt 0.9926 0.8220 0.0000
vt 0.4414 0.8220 0.0000
vt 0.9828 0.7562 0.0000
vt 0.9827 0.7073 0.0000
vt 0.9828 0.6582 0.0000
vt 0.9816 0.6571 0.0000
vt 0.8658 0.6572 0.0000
vt 0.8647 0.6584 0.0000
vt 0.8623 0.7073 0.0000
vt 0.8648 0.7561 0.0000
vt 0.8659 0.7572 0.0000
vt 0.9816 0.7572 0.0000
vt 0.7280 0.7573 0.0000
vt 0.8437 0.7574 0.0000
vt 0.8448 0.7563 0.0000
vt 0.8427 0.7073 0.0000
vt 0.8448 0.6582 0.0000
vt 0.8437 0.6572 0.0000
vt 0.7279 0.6573 0.0000
vt 0.7268 0.6583 0.0000
vt 0.7269 0.7073 0.0000
vt 0.7269 0.7563 0.0000
vt 0.5902 0.7574 0.0000
vt 0.7059 0.7573 0.0000
vt 0.7071 0.7563 0.0000
vt 0.7070 0.7073 0.0000
vt 0.7070 0.6583 0.0000
vt 0.7059 0.6573 0.0000
vt 0.5902 0.6572 0.0000
vt 0.5891 0.6582 0.0000
vt 0.5912 0.7073 0.0000
vt 0.5891 0.7563 0.0000
vt 0.4523 0.7572 0.0000
vt 0.5680 0.7572 0.0000
vt 0.5691 0.7562 0.0000
vt 0.5716 0.7073 0.0000
vt 0.5691 0.6584 0.0000
vt 0.5680 0.6574 0.0000
vt 0.4523 0.6573 0.0000
vt 0.4512 0.6583 0.0000
vt 0.4512 0.7073 0.0000
vt 0.4512 0.7562 0.0000
vt 0.8307 0.8341 0.0000
vt 0.8325 0.8568 0.0000
vt 0.7886 0.8560 0.0000
vt 0.7886 0.8320 0.0000
vt 0.7448 0.8568 0.0000
vt 0.7466 0.8341 0.0000
vt 0.7444 0.8577 0.0000
vt 0.7444 0.9598 0.0000
vt 0.7212 0.9599 0.0000
vt 0.7212 0.8576 0.0000
vt 0.7466 0.9834 0.0000
vt 0.7448 0.9607 0.0000
vt 0.7886 0.9615 0.0000
vt 0.7886 0.9854 0.0000
vt 0.8325 0.9607 0.0000
vt 0.8307 0.9834 0.0000
vt 0.8328 0.9598 0.0000
vt 0.8328 0.8577 0.0000
vt 0.8561 0.8576 0.0000
vt 0.8561 0.9599 0.0000
vt 0.7150 0.8579 0.0000
vt 0.7150 0.9611 0.0000
vt 0.6916 0.9611 0.0000
vt 0.6916 0.8580 0.0000
vt 0.6894 0.8342 0.0000
vt 0.6912 0.8571 0.0000
vt 0.6470 0.8563 0.0000
vt 0.6469 0.8322 0.0000
vt 0.6027 0.8573 0.0000
vt 0.6045 0.8342 0.0000
vt 0.5779 0.9611 0.0000
vt 0.5779 0.8579 0.0000
vt 0.6015 0.8578 0.0000
vt 0.6015 0.9613 0.0000
vt 0.6045 0.9850 0.0000
vt 0.6027 0.9619 0.0000
vt 0.6470 0.9629 0.0000
vt 0.6469 0.9870 0.0000
vt 0.6912 0.9621 0.0000
vt 0.6894 0.9850 0.0000
vt 0.3203 0.3987 0.0000
vt 0.3203 0.5053 0.0000
vt 0.2961 0.5052 0.0000
vt 0.2961 0.3988 0.0000
vt 0.2938 0.3742 0.0000
vt 0.2957 0.3979 0.0000
vt 0.2500 0.3970 0.0000
vt 0.2500 0.3721 0.0000
vt 0.2044 0.3979 0.0000
vt 0.2062 0.3742 0.0000
vt 0.1797 0.5053 0.0000
vt 0.1797 0.3987 0.0000
vt 0.2040 0.3988 0.0000
vt 0.2040 0.5052 0.0000
vt 0.2062 0.5298 0.0000
vt 0.2044 0.5062 0.0000
vt 0.2500 0.5070 0.0000
vt 0.2500 0.5319 0.0000
vt 0.2957 0.5062 0.0000
vt 0.2938 0.5298 0.0000
vt 0.2722 0.2287 0.0000
vt 0.2722 0.3323 0.0000
vt 0.2487 0.3322 0.0000
vt 0.2487 0.2288 0.0000
vt 0.2465 0.2049 0.0000
vt 0.2483 0.2278 0.0000
vt 0.2039 0.2270 0.0000
vt 0.2039 0.2028 0.0000
vt 0.1595 0.2279 0.0000
vt 0.1613 0.2049 0.0000
vt 0.1356 0.3323 0.0000
vt 0.1356 0.2287 0.0000
vt 0.1591 0.2288 0.0000
vt 0.1591 0.3322 0.0000
vt 0.1613 0.3562 0.0000
vt 0.1595 0.3332 0.0000
vt 0.2039 0.3340 0.0000
vt 0.2039 0.3582 0.0000
vt 0.2483 0.3332 0.0000
vt 0.2465 0.3562 0.0000
vt 0.8622 0.7934 0.0000
vt 0.8474 0.7934 0.0000
vt 0.5865 0.7934 0.0000
vt 0.5718 0.7934 0.0000
vt 0.8561 0.8561 0.0000
vt 0.7212 0.8561 0.0000
vt 0.7212 0.9614 0.0000
vt 0.8561 0.9614 0.0000
vt 0.7151 0.9626 0.0000
vt 0.7151 0.8564 0.0000
vt 0.6030 0.8341 0.0000
vt 0.6030 0.9851 0.0000
vt 0.3203 0.5068 0.0000
vt 0.3203 0.3972 0.0000
vt 0.1797 0.3972 0.0000
vt 0.1797 0.5068 0.0000
vt 0.2723 0.3338 0.0000
vt 0.2723 0.2272 0.0000
vt 0.1355 0.2272 0.0000
vt 0.1355 0.3338 0.0000
vt 0.4013 0.5945 0.0000
vt 0.4148 0.5815 0.0000
vt 0.4148 0.7437 0.0000
vt 0.4013 0.7307 0.0000
vt 0.3986 0.7595 0.0000
vt 0.0425 0.7595 0.0000
vt 0.0556 0.7460 0.0000
vt 0.3855 0.7460 0.0000
vt 0.0649 0.7212 0.0000
vt 0.0649 0.6040 0.0000
vt 0.3762 0.6040 0.0000
vt 0.3762 0.7212 0.0000
vt 0.0262 0.7437 0.0000
vt 0.0262 0.5815 0.0000
vt 0.0398 0.5945 0.0000
vt 0.0398 0.7307 0.0000
vt 0.0425 0.5657 0.0000
vt 0.3986 0.5657 0.0000
vt 0.3855 0.5792 0.0000
vt 0.0556 0.5792 0.0000
vt 0.0644 0.7235 0.0000
vt 0.3767 0.7235 0.0000
vt 0.0624 0.6031 0.0000
vt 0.0624 0.7221 0.0000
vt 0.3767 0.6017 0.0000
vt 0.0644 0.6017 0.0000
vt 0.3787 0.7221 0.0000
vt 0.3787 0.6031 0.0000
vt 0.3875 0.7447 0.0000
vt 0.0536 0.7447 0.0000
vt 0.0536 0.5805 0.0000
vt 0.3875 0.5805 0.0000
vt 0.4166 0.5802 0.0000
vt 0.4166 0.7450 0.0000
vt 0.0245 0.7450 0.0000
vt 0.0245 0.5802 0.0000
vt 0.3997 0.7611 0.0000
vt 0.0414 0.7611 0.0000
vt 0.0414 0.5641 0.0000
vt 0.3996 0.5641 0.0000
vt 0.4011 0.7578 0.0000
vt 0.4025 0.7603 0.0000
vt 0.0400 0.7578 0.0000
vt 0.0386 0.7603 0.0000
vt 0.4011 0.5674 0.0000
vt 0.4025 0.5649 0.0000
vt 0.0400 0.5674 0.0000
vt 0.0386 0.5649 0.0000
vt 0.4263 0.5802 0.0000
vt 0.4263 0.7450 0.0000
vt 0.0148 0.7450 0.0000
vt 0.0148 0.5802 0.0000
vt 0.3999 0.7706 0.0000
vt 0.0412 0.7706 0.0000
vt 0.0412 0.5546 0.0000
vt 0.3999 0.5546 0.0000
vt 0.4032 0.7703 0.0000
vt 0.0379 0.7703 0.0000
vt 0.4032 0.5548 0.0000
vt 0.0379 0.5548 0.0000
vt 0.0316 0.7941 0.0000
vt 0.1835 0.7923 0.0000
vt 0.1715 0.8052 0.0000
vt 0.0439 0.8067 0.0000
vt 0.0308 0.9486 0.0000
vt 0.0183 0.9610 0.0000
vt 0.0165 0.8091 0.0000
vt 0.0293 0.8212 0.0000
vt 0.1630 0.8284 0.0000
vt 0.1643 0.9382 0.0000
vt 0.0542 0.9395 0.0000
vt 0.0529 0.8297 0.0000
vt 0.1989 0.8070 0.0000
vt 0.2007 0.9588 0.0000
vt 0.1879 0.9468 0.0000
vt 0.1864 0.8193 0.0000
vt 0.1733 0.9613 0.0000
vt 0.1857 0.9739 0.0000
vt 0.0337 0.9757 0.0000
vt 0.0457 0.9628 0.0000
vt 0.1634 0.8263 0.0000
vt 0.0524 0.8276 0.0000
vt 0.1667 0.9390 0.0000
vt 0.1653 0.8276 0.0000
vt 0.0538 0.9416 0.0000
vt 0.1648 0.9403 0.0000
vt 0.0506 0.8290 0.0000
vt 0.0519 0.9403 0.0000
vt 0.0421 0.8079 0.0000
vt 0.1734 0.8064 0.0000
vt 0.1752 0.9601 0.0000
vt 0.0439 0.9616 0.0000
vt 0.0166 0.9622 0.0000
vt 0.0148 0.8079 0.0000
vt 0.0305 0.7926 0.0000
vt 0.1845 0.7908 0.0000
vt 0.1867 0.9754 0.0000
vt 0.0327 0.9772 0.0000
vt 0.2006 0.8058 0.0000
vt 0.2024 0.9600 0.0000
vt 0.0292 0.7957 0.0000
vt 0.0279 0.7934 0.0000
vt 0.1859 0.7939 0.0000
vt 0.1871 0.7916 0.0000
vt 0.0313 0.9740 0.0000
vt 0.0301 0.9764 0.0000
vt 0.1880 0.9722 0.0000
vt 0.1893 0.9746 0.0000
vt 0.0075 0.9623 0.0000
vt 0.0057 0.8080 0.0000
vt 0.0302 0.7837 0.0000
vt 0.1848 0.7819 0.0000
vt 0.1870 0.9843 0.0000
vt 0.0325 0.9861 0.0000
vt 0.2097 0.8056 0.0000
vt 0.2115 0.9599 0.0000
vt 0.0272 0.7840 0.0000
vt 0.1879 0.7822 0.0000
vt 0.0293 0.9858 0.0000
vt 0.1900 0.9840 0.0000
vt 0.2448 0.7966 0.0000
vt 0.3968 0.7948 0.0000
vt 0.3847 0.8077 0.0000
vt 0.2572 0.8092 0.0000
vt 0.2441 0.9511 0.0000
vt 0.2315 0.9635 0.0000
vt 0.2297 0.8116 0.0000
vt 0.2426 0.8237 0.0000
vt 0.3763 0.8310 0.0000
vt 0.3776 0.9407 0.0000
vt 0.2675 0.9420 0.0000
vt 0.2662 0.8322 0.0000
vt 0.4122 0.8095 0.0000
vt 0.4140 0.9614 0.0000
vt 0.4011 0.9493 0.0000
vt 0.3996 0.8219 0.0000
vt 0.3866 0.9638 0.0000
vt 0.3989 0.9764 0.0000
vt 0.2469 0.9782 0.0000
vt 0.2590 0.9653 0.0000
vt 0.3767 0.8288 0.0000
vt 0.2657 0.8301 0.0000
vt 0.3799 0.9415 0.0000
vt 0.3786 0.8301 0.0000
vt 0.2670 0.9441 0.0000
vt 0.3780 0.9429 0.0000
vt 0.2638 0.8315 0.0000
vt 0.2651 0.9428 0.0000
vt 0.2553 0.8104 0.0000
vt 0.3866 0.8089 0.0000
vt 0.3884 0.9626 0.0000
vt 0.2571 0.9641 0.0000
vt 0.2299 0.9647 0.0000
vt 0.2281 0.8104 0.0000
vt 0.2438 0.7951 0.0000
vt 0.3978 0.7933 0.0000
vt 0.3999 0.9779 0.0000
vt 0.2459 0.9797 0.0000
vt 0.4138 0.8083 0.0000
vt 0.4157 0.9625 0.0000
vt 0.2425 0.7982 0.0000
vt 0.2412 0.7959 0.0000
vt 0.3992 0.7964 0.0000
vt 0.4004 0.7941 0.0000
vt 0.2446 0.9766 0.0000
vt 0.2433 0.9789 0.0000
vt 0.4013 0.9747 0.0000
vt 0.4026 0.9771 0.0000
vt 0.2208 0.9648 0.0000
vt 0.2190 0.8105 0.0000
vt 0.2435 0.7862 0.0000
vt 0.3980 0.7844 0.0000
vt 0.4003 0.9868 0.0000
vt 0.2457 0.9886 0.0000
vt 0.4229 0.8082 0.0000
vt 0.4248 0.9624 0.0000
vt 0.2404 0.7865 0.0000
vt 0.4011 0.7847 0.0000
vt 0.2426 0.9883 0.0000
vt 0.4033 0.9865 0.0000
vt 0.4367 0.3688 0.0000
vt 0.4367 0.5497 0.0000
vt 0.3860 0.5497 0.0000
vt 0.3860 0.3688 0.0000
vt 0.3352 0.5497 0.0000
vt 0.3352 0.3688 0.0000
# 824 texture coords

g WallSegment_A
s 2
f 1/1/1 2/2/1 3/3/1 4/4/1 
f 5/5/1 6/6/1 7/7/1 8/8/1 
f 9/9/2 10/10/1 11/11/1 12/12/2 
f 13/13/2 14/14/2 15/15/2 16/16/2 
f 17/17/1 18/18/1 2/2/1 19/19/3 
f 7/7/1 6/6/1 1/1/1 4/4/1 
f 11/11/1 10/10/1 5/5/1 8/8/1 
f 20/20/2 13/13/2 9/9/2 12/12/2 
f 21/21/2 22/22/2 14/14/2 23/23/2 
s 4
f 24/24/4 4/4/5 3/3/5 25/25/4 
f 26/26/6 8/8/7 7/7/7 27/27/6 
f 28/28/4 12/12/5 11/11/5 29/29/4 
f 30/30/6 23/23/7 20/20/5 31/31/4 
f 32/32/5 33/33/8 25/25/4 3/3/5 
f 27/27/6 7/7/7 4/4/5 24/24/4 
f 29/29/4 11/11/5 8/8/7 26/26/6 
f 31/31/4 20/20/5 12/12/5 28/28/4 
f 34/34/9 21/21/5 23/23/7 30/30/6 
f 35/35/10 36/36/11 37/37/12 38/38/10 
f 39/39/12 40/40/10 41/41/10 42/42/12 
f 43/43/12 44/44/10 45/45/10 46/46/12 
f 47/47/12 48/48/10 49/49/10 50/50/12 
s 1
f 51/51/13 52/52/14 53/53/1 54/54/13 
f 55/55/15 56/56/13 57/57/13 58/58/16 
f 59/59/1 60/60/13 61/61/13 62/62/17 
f 63/63/15 64/64/13 65/65/13 66/66/16 
f 67/67/18 68/68/19 69/69/19 70/70/20 
f 71/71/19 72/72/20 73/73/20 74/74/19 
f 75/75/19 76/76/20 77/77/20 78/78/19 
f 79/79/19 80/80/20 81/81/20 82/82/19 
s 4
f 83/83/21 84/84/22 85/85/22 86/86/23 
f 87/87/21 88/88/22 89/89/22 90/90/21 
f 91/91/21 92/92/22 93/93/22 94/94/21 
f 95/95/22 96/96/24 97/97/25 98/98/22 
s 2
f 99/99/16 100/100/16 101/101/16 102/102/16 
f 103/103/26 104/104/27 105/105/16 106/106/16 
f 107/107/28 108/108/29 109/109/16 110/110/16 
f 111/111/16 112/112/3 19/19/3 113/113/1 
s 4
f 114/114/30 37/37/12 36/36/11 115/115/31 
f 42/42/12 116/116/32 117/117/30 39/39/12 
f 46/46/12 118/118/32 119/119/30 43/43/12 
f 50/50/12 120/120/32 121/121/33 47/47/12 
s 1
f 54/54/13 69/122/19 68/123/19 51/51/13 
f 74/124/19 57/57/13 56/56/13 71/125/19 
f 78/126/19 61/61/13 60/60/13 75/127/19 
f 82/128/19 65/65/13 64/64/13 79/129/19 
s 4
f 86/86/23 122/130/34 123/131/35 83/83/21 
f 90/90/21 124/132/36 125/133/35 87/87/21 
f 94/94/21 126/134/36 127/135/35 91/91/21 
f 128/136/37 97/97/25 96/96/24 129/137/38 
f 115/115/31 130/138/39 131/139/2 132/140/40 
f 133/141/41 134/142/42 116/116/32 114/114/30 
f 135/143/43 136/144/44 118/118/32 117/117/30 
f 137/145/43 138/146/44 120/120/32 119/119/30 
f 139/147/43 140/148/3 141/149/45 121/121/33 
f 35/35/10 142/150/10 143/151/46 36/36/11 
f 37/37/12 42/42/12 41/41/10 38/38/10 
f 39/39/12 46/46/12 45/45/10 40/40/10 
f 43/43/12 50/50/12 49/49/10 44/44/10 
f 47/47/12 144/152/47 145/153/10 48/48/10 
s 1
f 52/52/14 146/154/16 147/155/48 148/156/49 
f 149/157/50 150/158/51 62/62/17 55/55/15 
f 151/159/52 152/160/53 153/161/54 63/63/15 
f 51/51/13 154/162/13 146/154/16 52/52/14 
f 53/53/1 58/58/16 57/57/13 54/54/13 
f 55/55/15 62/62/17 61/61/13 56/56/13 
f 59/59/1 66/66/16 65/65/13 60/60/13 
f 63/63/15 153/161/54 155/163/55 64/64/13 
f 67/67/18 156/164/18 157/165/19 68/68/19 
f 69/69/19 74/74/19 73/73/20 70/70/20 
f 71/71/19 78/78/19 77/77/20 72/72/20 
f 75/75/19 82/82/19 81/81/20 76/76/20 
f 79/79/19 158/166/19 159/167/20 80/80/20 
s 4
f 122/130/34 160/168/56 140/148/3 139/147/43 
f 138/146/44 137/145/43 124/132/36 123/131/35 
f 136/144/44 135/143/43 126/134/36 125/133/35 
f 134/142/42 133/141/41 129/137/38 127/135/35 
f 132/140/40 131/139/2 161/169/57 128/136/37 
f 85/85/22 162/170/58 163/171/59 86/86/23 
f 83/83/21 90/90/21 89/89/22 84/84/22 
f 87/87/21 94/94/21 93/93/22 88/88/22 
f 91/91/21 96/96/24 95/95/22 92/92/22 
f 97/97/25 164/172/59 165/173/58 98/98/22 
s 2
f 166/174/2 167/175/16 100/100/16 15/15/2 
f 105/105/16 104/104/27 99/99/16 102/102/16 
f 109/109/16 108/108/29 103/103/26 106/106/16 
f 168/176/16 111/111/16 107/107/28 110/110/16 
f 169/177/3 170/178/3 112/112/3 171/179/3 
s 4
f 36/36/11 143/151/46 130/138/39 115/115/31 
f 42/42/12 37/37/12 114/114/30 116/116/32 
f 46/46/12 39/39/12 117/117/30 118/118/32 
f 50/50/12 43/43/12 119/119/30 120/120/32 
f 121/121/33 141/149/45 144/152/47 47/47/12 
s 1
f 68/123/19 157/180/19 154/162/13 51/51/13 
f 74/124/19 69/122/19 54/54/13 57/57/13 
f 78/126/19 71/125/19 56/56/13 61/61/13 
f 82/128/19 75/127/19 60/60/13 65/65/13 
f 64/64/13 155/163/55 158/181/19 79/129/19 
s 4
f 86/86/23 163/171/59 160/168/56 122/130/34 
f 90/90/21 83/83/21 123/131/35 124/132/36 
f 94/94/21 87/87/21 125/133/35 126/134/36 
f 96/96/24 91/91/21 127/135/35 129/137/38 
f 128/136/37 161/169/57 164/172/59 97/97/25 
f 115/115/31 132/140/40 172/182/60 173/183/61 
f 132/140/40 128/136/37 174/184/62 172/182/60 
f 175/185/63 128/136/37 129/137/38 176/186/64 
f 129/137/38 133/141/41 177/187/65 178/188/66 
f 133/141/41 114/114/30 179/189/67 177/187/65 
f 180/190/68 114/114/30 115/115/31 181/191/69 
f 116/116/32 182/192/70 183/193/71 117/117/30 
f 116/116/32 134/142/42 184/194/72 185/195/73 
f 134/142/42 127/135/35 186/196/74 184/194/72 
f 126/134/36 187/197/75 188/198/76 127/135/35 
f 126/134/36 135/143/43 189/199/77 190/200/78 
f 135/143/43 117/117/30 191/201/79 189/199/77 
f 118/118/32 192/202/80 193/203/81 119/119/30 
f 118/118/32 136/144/44 194/204/82 195/205/83 
f 136/144/44 125/133/35 196/206/84 194/204/82 
f 124/132/36 197/207/85 198/208/86 125/133/35 
f 124/132/36 137/145/43 199/209/87 200/210/88 
f 137/145/43 119/119/30 201/211/89 199/209/87 
f 120/120/32 202/212/90 203/213/91 121/121/33 
f 120/120/32 138/146/44 204/214/82 205/215/83 
f 138/146/44 123/131/35 206/216/84 204/214/82 
f 122/130/34 207/217/85 208/218/86 123/131/35 
f 122/130/34 139/147/43 209/219/87 210/220/88 
f 139/147/43 121/121/33 211/221/92 209/219/87 
f 173/222/61 172/223/60 212/224/93 213/225/94 
f 172/223/60 174/226/62 214/227/95 212/224/93 
f 215/228/96 175/229/63 176/230/64 216/231/97 
f 178/232/66 177/233/65 217/234/98 218/235/99 
f 177/233/65 179/236/67 219/237/100 217/234/98 
f 220/238/101 180/239/68 181/240/69 221/241/102 
f 182/242/70 222/243/103 223/244/104 183/245/71 
f 185/246/73 184/247/72 224/248/105 225/249/106 
f 184/247/72 186/250/74 226/251/107 224/248/105 
f 187/252/75 227/253/108 228/254/109 188/255/76 
f 190/256/78 189/257/77 229/258/110 230/259/111 
f 189/257/77 191/260/79 231/261/112 229/258/110 
f 192/262/80 232/263/113 233/264/114 193/265/81 
f 195/266/83 194/267/82 234/268/115 235/269/116 
f 194/267/82 196/270/84 236/271/117 234/268/115 
f 197/272/85 237/273/118 238/274/119 198/275/86 
f 200/276/88 199/277/87 239/278/120 240/279/121 
f 199/277/87 201/280/89 241/281/122 239/278/120 
f 202/282/90 242/283/113 243/284/114 203/285/91 
f 205/286/83 204/287/82 244/288/115 245/289/123 
f 204/287/82 206/290/84 246/291/117 244/288/115 
f 207/292/85 247/293/118 248/294/119 208/295/86 
f 210/296/88 209/297/87 249/298/120 250/299/121 
f 209/297/87 211/300/92 251/301/124 249/298/120 
s 1
f 252/302/125 148/156/49 35/35/126 38/38/127 
f 41/41/127 40/40/126 149/157/50 253/303/128 
f 45/45/129 44/44/127 254/304/125 150/158/51 
f 49/49/127 48/48/126 151/159/52 255/305/128 
f 147/155/48 142/150/130 35/35/126 148/156/49 
f 41/41/127 253/303/128 252/302/125 38/38/127 
f 45/45/129 150/158/51 149/157/50 40/40/126 
f 49/49/127 255/305/128 254/304/125 44/44/127 
f 145/153/131 152/160/53 151/159/52 48/48/126 
s 4
f 115/115/31 173/183/61 181/191/69 
f 128/136/37 175/185/63 174/184/62 
f 129/137/38 178/188/66 176/186/64 
f 114/114/30 180/190/68 179/189/67 
f 117/117/30 183/193/71 191/201/79 
f 116/116/32 185/195/73 182/192/70 
f 127/135/35 188/198/76 186/196/74 
f 126/134/36 190/200/78 187/197/75 
f 119/119/30 193/203/81 201/211/89 
f 118/118/32 195/205/83 192/202/80 
f 125/133/35 198/208/86 196/206/84 
f 124/132/36 200/210/88 197/207/85 
f 121/121/33 203/213/91 211/221/92 
f 120/120/32 205/215/83 202/212/90 
f 123/131/35 208/218/86 206/216/84 
f 122/130/34 210/220/88 207/217/85 
f 181/240/69 173/306/61 213/225/94 221/241/102 
f 174/307/62 175/229/63 215/228/96 214/227/95 
f 176/230/64 178/308/66 218/235/99 216/231/97 
f 179/309/67 180/239/68 220/238/101 219/237/100 
f 191/310/79 183/245/71 223/244/104 231/261/112 
f 182/242/70 185/311/73 225/249/106 222/243/103 
f 186/250/74 188/312/76 228/254/109 226/251/107 
f 187/313/75 190/256/78 230/259/111 227/253/108 
f 201/314/89 193/265/81 233/264/114 241/281/122 
f 192/262/80 195/315/83 235/269/116 232/263/113 
f 196/316/84 198/275/86 238/274/119 236/271/117 
f 197/272/85 200/317/88 240/279/121 237/273/118 
f 211/318/92 203/285/91 243/284/114 251/301/124 
f 202/282/90 205/319/83 245/289/123 242/283/113 
f 206/320/84 208/295/86 248/294/119 246/291/117 
f 207/292/85 210/321/88 250/299/121 247/293/118 
f 84/84/22 102/102/132 101/101/132 85/85/22 
f 88/88/22 106/106/132 105/105/132 89/89/22 
f 92/92/22 110/110/132 109/109/133 93/93/22 
f 98/98/22 171/179/132 168/176/133 95/95/22 
f 256/322/133 162/170/58 85/85/22 101/101/132 
f 89/89/22 105/105/132 102/102/132 84/84/22 
f 93/93/22 109/109/133 106/106/132 88/88/22 
f 95/95/22 168/176/133 110/110/132 92/92/22 
f 165/173/58 169/177/133 171/179/132 98/98/22 
s 2
f 16/16/2 15/15/2 100/100/16 99/99/16 
s 1
f 257/323/16 258/324/16 259/325/16 260/326/16 
f 259/325/16 261/327/16 260/326/16 
f 262/328/16 257/323/16 260/326/16 
f 263/329/3 264/330/1 265/331/3 266/332/16 
f 265/331/3 267/333/2 266/332/16 
f 268/334/3 263/329/3 266/332/16 
s 2
f 168/176/16 171/179/3 112/112/3 111/111/16 
f 256/322/16 101/101/16 100/100/16 167/175/16 
f 269/335/134 16/16/2 99/99/16 104/104/27 
s 1
f 267/333/2 257/323/16 262/328/16 266/332/16 
s 2
f 113/113/1 270/336/135 107/107/28 111/111/16 
f 17/17/1 19/19/3 112/112/3 170/178/3 
f 271/337/136 269/338/134 272/339/137 273/340/138 
f 269/341/134 104/342/27 274/343/139 275/344/140 
f 104/345/27 103/346/26 276/347/141 277/348/142 
f 103/346/26 108/349/29 278/350/141 276/347/141 
f 108/349/29 107/351/28 279/352/143 278/350/141 
f 107/353/28 270/354/135 280/355/144 281/356/145 
f 270/357/135 282/358/146 283/359/138 284/360/147 
f 282/358/146 271/337/136 273/340/138 283/359/138 
s 4
f 273/340/20 272/339/148 285/361/149 286/362/150 
f 275/344/151 274/343/152 287/363/153 288/364/154 
f 277/348/155 276/347/156 289/365/157 290/366/158 
f 276/347/156 278/350/159 291/367/157 289/365/157 
f 278/350/159 279/352/160 292/368/161 291/367/157 
f 281/356/162 280/355/163 293/369/164 294/370/165 
f 284/360/166 283/359/20 295/371/150 296/372/167 
f 283/359/20 273/340/20 286/362/150 295/371/150 
f 286/362/150 285/361/149 258/324/168 257/323/169 
f 288/364/154 287/363/153 261/327/170 259/325/171 
f 290/366/158 289/365/157 262/328/172 260/326/173 
f 289/365/157 291/367/157 266/332/172 262/328/172 
f 291/367/157 292/368/161 268/334/174 266/332/172 
f 294/370/165 293/369/164 264/330/175 263/329/176 
f 296/372/167 295/371/150 267/333/169 265/331/177 
f 295/371/150 286/362/150 257/323/169 267/333/169 
s 2
f 269/341/134 275/344/140 272/373/137 
f 104/345/27 277/348/142 274/374/139 
f 107/351/28 281/375/145 279/352/143 
f 270/354/135 284/376/147 280/355/144 
s 4
f 272/373/148 275/344/151 288/364/154 285/377/149 
f 274/374/152 277/348/155 290/366/158 287/378/153 
f 279/352/160 281/375/162 294/379/165 292/368/161 
f 280/355/163 284/376/166 296/380/167 293/369/164 
f 285/377/149 288/364/154 259/325/171 258/324/168 
f 287/378/153 290/366/158 260/326/173 261/327/170 
f 292/368/161 294/379/165 263/329/176 268/334/174 
f 293/369/164 296/380/167 265/331/177 264/330/175 
s 2
f 113/113/1 19/19/3 2/2/1 1/1/1 
f 282/381/146 270/336/135 6/6/1 5/5/1 
f 269/335/134 271/382/136 10/10/1 9/9/2 
f 20/20/2 23/23/2 14/14/2 13/13/2 
f 32/32/1 3/3/1 2/2/1 18/18/1 
f 270/336/135 113/113/1 1/1/1 6/6/1 
f 271/382/136 282/381/146 5/5/1 10/10/1 
f 16/16/2 269/335/134 9/9/2 13/13/2 
f 166/174/2 15/15/2 14/14/2 22/22/2 
s 1
f 53/53/1 52/52/14 148/156/49 252/302/125 
f 55/55/15 58/58/16 253/303/128 149/157/50 
f 59/59/1 62/62/17 150/158/51 254/304/125 
f 63/63/15 66/66/16 255/305/128 151/159/52 
f 58/58/16 53/53/1 252/302/125 253/303/128 
f 66/66/16 59/59/1 254/304/125 255/305/128 
s off
f 215/228/178 216/231/178 218/235/178 214/227/178 
s 2
f 214/227/178 218/235/178 217/234/16 212/224/3 
f 212/224/3 217/234/16 219/237/179 213/225/179 
s off
f 213/225/179 219/237/179 220/238/179 221/241/179 
f 228/254/178 227/253/178 230/259/178 226/251/178 
s 2
f 226/251/178 230/259/180 229/258/16 224/248/3 
f 224/248/3 229/258/16 231/261/179 225/249/179 
s off
f 225/249/179 231/261/179 223/244/179 222/243/179 
f 238/274/178 237/273/178 240/279/178 236/271/178 
s 2
f 236/271/178 240/279/178 239/278/16 234/268/3 
f 234/268/3 239/278/16 241/281/179 235/269/179 
s off
f 235/269/179 241/281/179 233/264/179 232/263/179 
f 248/294/178 247/293/178 250/299/178 246/291/178 
s 2
f 246/291/178 250/299/178 249/298/16 244/288/16 
f 244/288/16 249/298/16 251/301/179 245/289/179 
s off
f 245/289/179 251/301/179 243/284/179 242/283/179 
s 4
f 297/383/181 298/384/181 299/385/182 300/386/183 
f 301/387/182 302/388/182 303/389/181 304/390/181 
f 305/391/182 306/392/182 307/393/181 308/394/181 
f 309/395/182 310/396/182 311/397/181 312/398/181 
s 1
f 313/399/184 314/400/184 315/401/2 316/402/185 
f 317/403/186 318/404/3 319/405/187 320/406/184 
f 321/407/2 322/408/188 323/409/184 324/410/184 
f 325/411/186 326/412/3 327/413/187 328/414/184 
f 329/415/189 330/416/190 331/417/191 332/418/191 
f 333/419/191 334/420/191 335/421/190 336/422/190 
f 337/423/191 338/424/191 339/425/190 340/426/190 
f 341/427/191 342/428/191 343/429/190 344/430/190 
s 4
f 345/431/192 346/432/193 30/30/6 31/31/4 
f 347/433/192 348/434/192 28/28/4 29/29/4 
f 349/435/194 350/436/194 26/26/6 27/27/6 
f 24/24/4 25/25/4 351/437/195 352/438/196 
f 353/439/36 354/440/197 300/386/183 299/385/182 
f 302/388/182 301/387/182 355/441/36 356/442/35 
f 306/392/182 305/391/182 357/443/36 358/444/35 
f 310/396/182 309/395/182 359/445/198 360/446/35 
s 1
f 314/400/184 313/399/184 332/447/191 331/448/191 
f 334/449/191 333/450/191 320/406/184 319/405/187 
f 338/451/191 337/452/191 324/410/184 323/409/184 
f 342/453/191 341/454/191 328/414/184 327/413/187 
s 4
f 346/432/193 345/431/192 361/455/32 362/456/199 
f 348/434/192 347/433/192 363/457/32 364/458/30 
f 350/436/194 349/435/194 365/459/32 366/460/30 
f 367/461/200 368/462/201 352/438/196 351/437/195 
f 354/440/197 369/463/202 370/464/1 371/465/203 
f 372/466/43 353/439/36 356/442/35 373/467/44 
f 374/468/41 355/441/36 358/444/35 375/469/44 
f 376/470/41 357/443/36 360/446/35 377/471/42 
f 378/472/41 359/445/198 379/473/204 380/474/16 
f 297/383/181 300/386/183 381/475/205 382/476/181 
f 299/385/182 298/384/181 303/389/181 302/388/182 
f 301/387/182 304/390/181 307/393/181 306/392/182 
f 305/391/182 308/394/181 311/397/181 310/396/182 
f 309/395/182 312/398/181 383/477/181 384/478/206 
s 1
f 316/402/185 385/479/207 386/480/208 387/481/3 
f 388/482/209 317/403/186 322/408/188 389/483/210 
f 390/484/211 325/411/186 391/485/212 392/486/213 
f 313/399/184 316/402/185 387/481/3 393/487/184 
f 315/401/2 314/400/184 319/405/187 318/404/3 
f 317/403/186 320/406/184 323/409/184 322/408/188 
f 321/407/2 324/410/184 327/413/187 326/412/3 
f 325/411/186 328/414/184 394/488/184 391/485/212 
f 329/415/189 332/418/191 395/489/191 396/490/189 
f 331/417/191 330/416/190 335/421/190 334/420/191 
f 333/419/191 336/422/190 339/425/190 338/424/191 
f 337/423/191 340/426/190 343/429/190 342/428/191 
f 341/427/191 344/430/190 397/491/190 398/492/191 
s 4
f 362/456/199 378/472/41 380/474/16 399/493/214 
f 377/471/42 361/455/32 364/458/30 376/470/41 
f 375/469/44 363/457/32 366/460/30 374/468/41 
f 373/467/44 365/459/32 368/462/201 372/466/43 
f 369/463/202 367/461/200 400/494/215 370/464/1 
f 30/30/6 346/432/193 401/495/216 34/34/9 
f 345/431/192 31/31/4 28/28/4 348/434/192 
f 347/433/192 29/29/4 26/26/6 350/436/194 
f 349/435/194 27/27/6 24/24/4 352/438/196 
f 351/437/195 25/25/4 33/33/8 402/496/217 
f 300/386/183 354/440/197 371/465/203 381/475/205 
f 302/388/182 356/442/35 353/439/36 299/385/182 
f 306/392/182 358/444/35 355/441/36 301/387/182 
f 310/396/182 360/446/35 357/443/36 305/391/182 
f 359/445/198 309/395/182 384/478/206 379/473/204 
s 1
f 332/447/191 313/399/184 393/487/184 395/497/191 
f 334/449/191 319/405/187 314/400/184 331/448/191 
f 338/451/191 323/409/184 320/406/184 333/450/191 
f 342/453/191 327/413/187 324/410/184 337/452/191 
f 328/414/184 341/454/191 398/498/191 394/488/184 
s 4
f 346/432/193 362/456/199 399/493/214 401/495/216 
f 348/434/192 364/458/30 361/455/32 345/431/192 
f 350/436/194 366/460/30 363/457/32 347/433/192 
f 352/438/196 368/462/201 365/459/32 349/435/194 
f 367/461/200 351/437/195 402/496/217 400/494/215 
f 354/440/197 403/499/218 404/500/219 369/463/202 
f 369/463/202 404/500/219 405/501/220 367/461/200 
f 406/502/221 407/503/222 368/462/201 367/461/200 
f 368/462/201 408/504/223 409/505/224 372/466/43 
f 372/466/43 409/505/224 410/506/225 353/439/36 
f 411/507/226 412/508/227 354/440/197 353/439/36 
f 356/442/35 355/441/36 413/509/228 414/510/229 
f 356/442/35 415/511/230 416/512/231 373/467/44 
f 373/467/44 416/512/231 417/513/232 365/459/32 
f 366/460/30 365/459/32 418/514/233 419/515/234 
f 366/460/30 420/516/235 421/517/236 374/468/41 
f 374/468/41 421/517/236 422/518/237 355/441/36 
f 358/444/35 357/443/36 423/519/238 424/520/239 
f 358/444/35 425/521/240 426/522/241 375/469/44 
f 375/469/44 426/522/241 427/523/242 363/457/32 
f 364/458/30 363/457/32 428/524/243 429/525/244 
f 364/458/30 430/526/245 431/527/246 376/470/41 
f 376/470/41 431/527/246 432/528/247 357/443/36 
f 360/446/35 359/445/198 433/529/248 434/530/249 
f 360/446/35 435/531/240 436/532/241 377/471/42 
f 377/471/42 436/532/241 437/533/242 361/455/32 
f 362/456/199 361/455/32 438/534/243 439/535/244 
f 362/456/199 440/536/245 441/537/246 378/472/41 
f 378/472/41 441/537/246 442/538/250 359/445/198 
f 403/539/218 443/540/251 444/541/252 404/542/219 
f 404/542/219 444/541/252 445/543/253 405/544/220 
f 446/545/254 447/546/255 407/547/222 406/548/221 
f 408/549/223 448/550/256 449/551/257 409/552/224 
f 409/552/224 449/551/257 450/553/258 410/554/225 
f 451/555/259 452/556/260 412/557/227 411/558/226 
f 414/559/229 413/560/228 453/561/261 454/562/262 
f 415/563/230 455/564/263 456/565/264 416/566/231 
f 416/566/231 456/565/264 457/567/265 417/568/232 
f 419/569/234 418/570/233 458/571/266 459/572/267 
f 420/573/235 460/574/268 461/575/269 421/576/236 
f 421/576/236 461/575/269 462/577/270 422/578/237 
f 424/579/239 423/580/238 463/581/271 464/582/272 
f 425/583/240 465/584/273 466/585/274 426/586/241 
f 426/586/241 466/585/274 467/587/275 427/588/242 
f 429/589/244 428/590/243 468/591/276 469/592/277 
f 430/593/245 470/594/278 471/595/279 431/596/246 
f 431/596/246 471/595/279 472/597/280 432/598/247 
f 434/599/249 433/600/248 473/601/271 474/602/272 
f 435/603/240 475/604/281 476/605/274 436/606/241 
f 436/606/241 476/605/274 477/607/275 437/608/242 
f 439/609/244 438/610/243 478/611/276 479/612/277 
f 440/613/245 480/614/278 481/615/279 441/616/246 
f 441/616/246 481/615/279 482/617/280 442/618/250 
s 1
f 483/619/282 298/384/283 297/383/284 385/479/207 
f 303/389/283 484/620/285 388/482/209 304/390/284 
f 307/393/286 389/483/210 485/621/282 308/394/283 
f 311/397/283 486/622/285 390/484/211 312/398/284 
f 386/480/208 385/479/207 297/383/284 382/476/287 
f 303/389/283 298/384/283 483/619/282 484/620/285 
f 307/393/286 304/390/284 388/482/209 389/483/210 
f 311/397/283 308/394/283 485/621/282 486/622/285 
f 383/477/288 312/398/284 390/484/211 392/486/213 
s 4
f 354/440/197 412/508/227 403/499/218 
f 367/461/200 405/501/220 406/502/221 
f 368/462/201 407/503/222 408/504/223 
f 353/439/36 410/506/225 411/507/226 
f 355/441/36 422/518/237 413/509/228 
f 356/442/35 414/510/229 415/511/230 
f 365/459/32 417/513/232 418/514/233 
f 366/460/30 419/515/234 420/516/235 
f 357/443/36 432/528/247 423/519/238 
f 358/444/35 424/520/239 425/521/240 
f 363/457/32 427/523/242 428/524/243 
f 364/458/30 429/525/244 430/526/245 
f 359/445/198 442/538/250 433/529/248 
f 360/446/35 434/530/249 435/531/240 
f 361/455/32 437/533/242 438/534/243 
f 362/456/199 439/535/244 440/536/245 
f 412/557/227 452/556/260 443/540/251 403/623/218 
f 405/624/220 445/543/253 446/545/254 406/548/221 
f 407/547/222 447/546/255 448/550/256 408/625/223 
f 410/626/225 450/553/258 451/555/259 411/558/226 
f 422/627/237 462/577/270 453/561/261 413/560/228 
f 414/559/229 454/562/262 455/564/263 415/628/230 
f 417/568/232 457/567/265 458/571/266 418/629/233 
f 419/630/234 459/572/267 460/574/268 420/573/235 
f 432/631/247 472/597/280 463/581/271 423/580/238 
f 424/579/239 464/582/272 465/584/273 425/632/240 
f 427/633/242 467/587/275 468/591/276 428/590/243 
f 429/589/244 469/592/277 470/594/278 430/634/245 
f 442/635/250 482/617/280 473/601/271 433/600/248 
f 434/599/249 474/602/272 475/604/281 435/636/240 
f 437/637/242 477/607/275 478/611/276 438/610/243 
f 439/609/244 479/612/277 480/614/278 440/638/245 
s 1
f 315/401/2 483/619/282 385/479/207 316/402/185 
f 317/403/186 388/482/209 484/620/285 318/404/3 
f 321/407/2 485/621/282 389/483/210 322/408/188 
f 325/411/186 390/484/211 486/622/285 326/412/3 
f 318/404/3 484/620/285 483/619/282 315/401/2 
f 326/412/3 486/622/285 485/621/282 321/407/2 
s off
f 446/545/179 445/543/179 448/550/179 447/546/179 
s 2
f 445/543/179 444/541/3 449/551/3 448/550/289 
f 444/541/3 443/540/178 450/553/178 449/551/3 
s off
f 443/540/178 452/556/178 451/555/178 450/553/178 
f 458/571/179 457/567/179 460/574/179 459/572/179 
s 2
f 457/567/179 456/565/3 461/575/3 460/574/289 
f 456/565/3 455/564/178 462/577/178 461/575/3 
s off
f 455/564/178 454/562/178 453/561/178 462/577/178 
f 468/591/179 467/587/179 470/594/179 469/592/179 
s 2
f 467/587/179 466/585/3 471/595/3 470/594/179 
f 466/585/3 465/584/178 472/597/178 471/595/3 
s off
f 465/584/178 464/582/178 463/581/178 472/597/178 
f 478/611/179 477/607/179 480/614/179 479/612/179 
s 2
f 477/607/179 476/605/3 481/615/3 480/614/179 
f 476/605/3 475/604/178 482/617/178 481/615/3 
s off
f 475/604/178 474/602/178 473/601/178 482/617/178 
s 2
f 487/639/3 488/640/3 489/641/1 490/642/2 
f 491/643/16 492/644/16 493/645/16 494/646/16 
s 1
f 495/647/290 496/648/291 497/649/292 498/650/293 
s 2
f 499/651/3 500/652/1 501/653/1 502/654/16 
f 503/655/3 504/656/3 505/657/3 506/658/3 
s 1
f 507/659/294 508/660/295 494/646/296 493/645/297 
f 502/654/298 501/653/299 509/661/300 510/662/301 
f 505/657/302 511/663/303 512/664/304 506/658/305 
f 487/639/306 490/642/307 513/665/308 514/666/309 
f 508/660/295 498/650/293 513/665/308 
f 510/662/301 495/647/290 507/659/294 
f 512/664/304 496/648/291 509/661/300 
f 514/666/309 497/649/292 511/663/303 
f 498/650/293 508/660/295 507/659/294 495/647/290 
f 495/647/290 510/662/301 509/661/300 496/648/291 
f 512/664/304 511/663/303 497/649/292 496/648/291 
f 497/649/292 514/666/309 513/665/308 498/650/293 
f 490/667/307 494/646/296 508/660/295 513/665/308 
f 493/645/297 502/668/298 510/662/301 507/659/294 
f 501/669/299 506/658/305 512/664/304 509/661/300 
f 505/657/302 487/670/306 514/666/309 511/663/303 
s off
f 488/640/310 515/671/310 516/672/310 489/641/310 
f 500/652/311 499/651/311 517/673/311 518/674/311 
f 491/643/312 519/675/312 520/676/312 492/644/312 
f 503/655/313 521/677/313 522/678/313 504/656/313 
f 491/643/314 489/679/314 516/680/314 519/675/314 
f 499/681/315 492/644/315 520/676/315 517/682/315 
f 488/683/316 504/656/316 522/678/316 515/684/316 
f 503/655/317 500/685/317 518/686/317 521/677/317 
f 515/671/252 523/687/252 524/688/252 516/672/252 
f 517/673/318 525/689/318 526/690/318 518/674/318 
f 519/675/20 527/691/20 528/692/20 520/676/20 
f 521/677/159 529/693/159 530/694/159 522/678/159 
f 519/675/319 516/680/319 524/695/319 527/691/319 
f 517/682/320 520/676/320 528/692/320 525/696/320 
f 515/684/321 522/678/321 530/694/321 523/697/321 
f 521/677/322 518/686/322 526/698/322 529/693/322 
s 2
f 531/699/16 532/700/16 533/701/16 534/702/16 
f 535/703/3 536/704/3 537/705/1 538/706/2 
s 1
f 539/707/290 540/708/291 541/709/292 542/710/293 
s 2
f 543/711/3 544/712/1 545/713/1 546/714/16 
f 547/715/3 548/716/3 549/717/3 550/718/3 
s 1
f 534/702/296 533/701/297 551/719/323 552/720/295 
f 546/714/298 545/713/299 553/721/324 554/722/325 
f 547/715/326 550/718/302 555/723/303 556/724/327 
f 535/703/306 538/706/307 557/725/308 558/726/328 
f 552/720/295 542/710/293 557/725/308 
f 554/722/325 539/707/290 551/719/323 
f 556/724/327 540/708/291 553/721/324 
f 558/726/328 541/709/292 555/723/303 
f 542/710/293 552/720/295 551/719/323 539/707/290 
f 539/707/290 554/722/325 553/721/324 540/708/291 
f 540/708/291 556/724/327 555/723/303 541/709/292 
f 541/709/292 558/726/328 557/725/308 542/710/293 
f 538/727/307 534/702/296 552/720/295 557/725/308 
f 533/701/297 546/728/298 554/722/325 551/719/323 
f 545/729/299 547/715/326 556/724/327 553/721/324 
f 550/718/302 535/730/306 558/726/328 555/723/303 
s off
f 536/704/310 559/731/310 560/732/310 537/705/310 
f 532/700/312 531/699/312 561/733/312 562/734/312 
f 548/716/329 563/735/329 564/736/329 549/717/329 
f 544/712/311 543/711/311 565/737/311 566/738/311 
f 531/699/314 537/739/314 560/740/314 561/733/314 
f 543/741/315 532/700/315 562/734/315 565/742/315 
f 536/743/316 549/717/316 564/736/316 559/744/316 
f 548/716/317 544/745/317 566/746/317 563/735/317 
f 560/732/252 559/731/252 567/747/252 568/748/252 
f 562/734/20 561/733/20 569/749/20 570/750/20 
f 564/736/190 563/735/190 571/751/190 572/752/190 
f 566/738/318 565/737/318 573/753/318 574/754/318 
f 561/733/319 560/740/319 568/755/319 569/749/319 
f 565/742/320 562/734/320 570/750/320 573/756/320 
f 559/744/321 564/736/321 572/752/321 567/757/321 
f 563/735/322 566/746/322 574/758/322 571/751/322 
f 488/683/3 487/670/3 505/657/3 504/656/3 
f 489/679/3 491/643/3 494/646/3 490/667/3 
f 499/681/1 502/668/1 493/645/1 492/644/1 
f 500/685/1 503/655/1 506/658/1 501/669/1 
f 535/730/3 550/718/3 549/717/3 536/743/3 
f 544/745/1 548/716/1 547/715/1 545/729/1 
f 543/741/1 546/728/1 533/701/1 532/700/1 
f 537/739/3 531/699/3 534/702/3 538/727/3 
s 2
f 575/759/16 576/760/16 577/761/16 578/762/16 
f 579/763/3 580/764/3 581/765/3 582/766/3 
s 1
f 583/767/290 584/768/291 585/769/292 586/770/293 
s 2
f 587/771/1 588/772/1 589/773/1 590/774/1 
f 591/775/3 592/776/3 593/777/3 594/778/3 
s 1
f 578/762/296 577/761/297 595/779/294 596/780/330 
f 590/774/298 589/773/299 597/781/324 598/782/325 
f 591/775/305 594/778/302 599/783/331 600/784/304 
f 579/763/306 582/766/307 601/785/308 602/786/328 
f 596/780/330 586/770/293 601/785/308 
f 598/782/325 583/767/290 595/779/294 
f 600/784/304 584/768/291 597/781/324 
f 602/786/328 585/769/292 599/783/331 
f 586/770/293 596/780/330 595/779/294 583/767/290 
f 583/767/290 598/782/325 597/781/324 584/768/291 
f 584/768/291 600/784/304 599/783/331 585/769/292 
f 585/769/292 602/786/328 601/785/308 586/770/293 
f 582/787/307 578/762/296 596/780/330 601/785/308 
f 577/761/297 590/788/298 598/782/325 595/779/294 
f 589/789/299 591/775/305 600/784/304 597/781/324 
f 594/778/302 579/790/306 602/786/328 599/783/331 
s off
f 580/764/310 603/791/310 604/792/310 581/765/310 
f 576/760/312 575/759/312 605/793/312 606/794/312 
f 592/776/329 607/795/329 608/796/329 593/777/329 
f 588/772/311 587/771/311 609/797/311 610/798/311 
f 575/759/314 581/799/314 604/800/314 605/793/314 
f 587/801/315 576/760/315 606/794/315 609/802/315 
f 580/803/316 593/777/316 608/796/316 603/804/316 
f 592/776/317 588/805/317 610/806/317 607/795/317 
f 604/792/252 603/791/252 611/807/252 612/808/252 
f 606/794/20 605/793/20 613/809/20 614/810/20 
f 608/796/190 607/795/190 615/811/190 616/812/190 
f 610/798/318 609/797/318 617/813/318 618/814/318 
f 605/793/319 604/800/319 612/815/319 613/809/319 
f 609/802/320 606/794/320 614/810/320 617/816/320 
f 603/804/321 608/796/321 616/812/321 611/817/321 
f 607/795/322 610/806/322 618/818/322 615/811/322 
f 579/790/1 594/778/1 593/777/1 580/803/1 
f 588/805/3 592/776/3 591/775/3 589/789/3 
f 587/801/1 590/788/1 577/761/1 576/760/1 
f 581/799/3 575/759/3 578/762/3 582/787/3 
s 1
f 619/819/332 620/820/332 621/821/3 622/822/3 
f 622/822/3 621/821/3 623/823/333 624/824/333 
f 625/819/332 626/820/332 627/821/3 628/822/3 
f 628/822/3 627/821/3 629/823/333 630/824/333 
f 631/819/332 632/820/332 633/821/3 634/822/3 
f 634/822/3 633/821/3 635/823/333 636/824/333 
f 637/819/332 638/820/332 639/821/16 640/822/16 
f 640/822/16 639/821/16 641/823/333 642/824/333 
f 643/819/332 644/820/332 645/821/16 646/822/16 
f 646/822/16 645/821/16 647/823/333 648/824/333 
f 649/819/332 650/820/332 651/821/16 652/822/16 
f 652/822/16 651/821/16 653/823/333 654/824/333 
f 655/819/332 656/820/332 657/821/16 658/822/16 
f 658/822/16 657/821/16 659/823/333 660/824/333 
# 553 polygons - 52 triangles

